<?xml version="1.0" encoding="utf-8"?>
<!-- Generator: Adobe Illustrator 23.0.1, SVG Export Plug-In . SVG Version: 6.00 Build 0)  -->
<svg version="1.1" id="Capa_1" xmlns="http://www.w3.org/2000/svg" xmlns:xlink="http://www.w3.org/1999/xlink" x="0px" y="0px"
	 width="40px" height="24px" viewBox="0 0 40 24" style="enable-background:new 0 0 40 24;" xml:space="preserve">
<style type="text/css">
	.st0{fill:#FFFFFF;}
	.st1{fill:#2A6800;}
	.st2{fill:#FF0049;}
	.st3{fill:#FFFF00;}
	.st4{fill:#444444;}
</style>
<g>
	<path class="st0" d="M38.2,6.9c0.4-0.4,0.6-1.1,0.4-1.7c-0.1-0.2-0.2-0.4-0.3-0.6c0.4-0.6,0.5-1.5,0-2.1C38,2.1,37.5,1.8,37,1.8
		c-0.2,0-0.4,0-0.6,0.1c0,0-0.1-0.1-0.2-0.1c-0.4-0.3-0.9-0.4-1.3-0.2c-0.1,0-0.1,0.1-0.2,0.1c-0.2-0.1-0.4-0.2-0.7-0.2L8,0
		C7.7,0,7.4,0.1,7.1,0.3C6.6,0,6-0.1,5.4,0.2C5.2,0.3,5.1,0.4,5,0.5C4.6,0.3,4.3,0.2,3.9,0.2C3.4,0.2,3,0.4,2.6,0.8
		C2,1.4,2,2.5,2.6,3.2C2.4,3.4,2.2,3.6,2.1,3.8C1.8,4.5,2,5.4,2.7,5.8C2.3,6,1.8,6.3,1.5,6.6C0.5,7.5,0,8.8,0,10.2V19
		c0,1.4,0.5,2.6,1.5,3.6c0.9,1,2.1,1.4,3.3,1.4c0.1,0,0.2,0,0.3,0l31.1-1.7c2.1-0.1,3.8-2.1,3.8-4.5v-7.2C40,9.1,39.3,7.7,38.2,6.9z
		 M32.1,9.4L9.9,9.3l0.3-1L32,8.8L32.1,9.4z M32.1,4.1L31.6,6L10.7,5.5L9.9,2.9L32.1,4.1z M37.2,17.8c0,1-0.6,1.7-1.2,1.7L4.9,21.2
		c-0.6,0-1.1-0.2-1.5-0.5c-0.4-0.4-0.7-0.9-0.7-1.5v-8.8c0-0.6,0.2-1.2,0.7-1.6c0.4-0.4,0.9-0.6,1.5-0.6c0,0,0,0,0.1,0l2.3,0.1
		l-0.6,2c-0.1,0.4-0.1,0.9,0.2,1.2C7.1,11.8,7.5,12,8,12l26,0.2l0,0c0.4,0,0.8-0.2,1.1-0.5s0.4-0.8,0.2-1.2L34.9,9h1.2
		c0.5,0,1.1,0.7,1.1,1.7C37.2,10.7,37.2,17.8,37.2,17.8z"/>
	<g>
		<g>
			<path class="st1" d="M36.1,21L5,22.6c-2,0.1-3.6-1.5-3.6-3.5v-8.8c0-2,1.6-3.6,3.6-3.6l31.1,0.8c1.4,0,2.5,1.4,2.5,3.1v7.2
				C38.6,19.5,37.5,20.9,36.1,21z"/>
		</g>
		<g>
			<path class="st0" d="M35.6,20.2L5.7,21.7c-1.8,0.1-3.3-1.3-3.3-3.2v-7.8c0-1.8,1.5-3.3,3.3-3.3l29.8,0.7c1.3,0,2.3,1.3,2.3,2.8
				v6.4C37.9,18.9,36.9,20.1,35.6,20.2z"/>
		</g>
		<g>
			<path class="st2" d="M35.2,19.4L6.3,20.7c-1.6,0.1-2.9-1.2-2.9-2.9v-6.6c0-1.6,1.3-3,2.9-2.9l28.8,0.5c1.1,0,2.1,1.2,2.1,2.5v5.5
				C37.2,18.2,36.3,19.4,35.2,19.4z"/>
		</g>
		<g>
			<g>
				<g>
					<polygon class="st1" points="33.9,2.8 31.8,2.7 31.1,2.7 11.5,1.6 11,1.6 8,1.4 9.4,6.1 8,10.6 11,10.7 11.5,10.7 31.1,10.8 
						31.8,10.8 33.9,10.8 32.8,6.8 					"/>
				</g>
			</g>
			<g>
				<g>
					<polygon class="st0" points="33.2,3.3 31.2,3.2 30.5,3.1 12.1,2.2 11.6,2.2 8.8,2 10.1,6.1 8.8,10.1 11.6,10.1 12.1,10.2 
						30.5,10.3 31.2,10.3 33.2,10.3 32.1,6.8 					"/>
				</g>
			</g>
			<g>
				<g>
					<polygon class="st2" points="32.5,3.6 30.6,3.5 30,3.5 12.6,2.6 12.2,2.6 9.5,2.5 10.8,6.1 9.5,9.7 12.2,9.7 12.6,9.7 30,9.9 
						30.6,10 32.5,10 31.5,6.8 					"/>
				</g>
			</g>
		</g>
		<g>
			<g>
				<path class="st3" d="M12.9,4.5c0.9,0,1.4,0.4,1.4,1.1c0,0.8-0.5,1.1-1.4,1.1h-0.3v0.5c0,0.1,0,0.1,0.1,0.1l0.2,0.1V8h-1.7V7.4
					h0.2c0.1,0,0.1,0,0.1-0.1v-2c0-0.1,0-0.1-0.1-0.1L11.1,5V4.4L12.9,4.5z M12.8,6.1c0.3,0,0.5-0.1,0.5-0.5c0-0.3-0.1-0.5-0.5-0.5
					h-0.3v1H12.8z"/>
			</g>
			<g>
				<path class="st3" d="M17.8,7.5V8c-0.2,0-0.4,0-0.6,0c-0.3,0-0.5-0.1-0.6-0.2c-0.1-0.1-0.1-0.2-0.2-0.3c-0.1-0.2-0.2-0.3-0.2-0.6
					c-0.1-0.3-0.2-0.3-0.3-0.3h-0.1v0.6c0,0.1,0,0.1,0.1,0.1h0.2V8h-1.6V7.4h0.2c0.1,0,0.1,0,0.1-0.1v-2c0-0.1,0-0.1-0.1-0.1
					l-0.2-0.1V4.5l1.8,0.1c0.8,0,1.2,0.3,1.2,0.9c0,0.4-0.2,0.7-0.5,0.9C17.1,7,17.3,7.3,17.8,7.5L17.8,7.5z M15.7,6.1h0.2
					c0.3,0,0.5-0.2,0.5-0.5S16.3,5.2,16,5.2h-0.2v0.9H15.7z"/>
			</g>
			<g>
				<path class="st3" d="M19.9,6.9h0.7v1.2L17.9,8V7.4h0.2c0.1,0,0.1,0,0.1-0.1V5.4c0-0.1,0-0.1-0.1-0.1l-0.2-0.1V4.6l2.7,0.1v1.1
					h-0.7V5.5c0-0.1-0.1-0.2-0.1-0.2h-0.5V6h0.6v0.6h-0.6v0.8h0.5c0.1,0,0.1,0,0.2-0.2L19.9,6.9z"/>
			</g>
			<g>
				<path class="st3" d="M23.5,7.9C23.4,8,23.3,8,23.1,8.1c-0.2,0.1-0.4,0.1-0.7,0.1c-0.5,0-0.9-0.2-1.2-0.5
					c-0.3-0.3-0.4-0.7-0.4-1.3s0.1-0.9,0.4-1.2s0.7-0.4,1.2-0.4c0.1,0,0.2,0,0.4,0.1C22.9,5,23,5,23,5c0.1,0,0.1,0,0.1-0.1h0.4V6
					h-0.7c0-0.3-0.2-0.5-0.4-0.5c-0.3,0-0.5,0.3-0.5,1c0,0.6,0.2,0.9,0.5,1c0.2,0,0.4-0.1,0.5-0.3h0.6V7.9z"/>
			</g>
			<g>
				<path class="st3" d="M23.7,8.1V7.6h0.2c0.1,0,0.1,0,0.1-0.1V5.6c0-0.1,0-0.1-0.1-0.1l-0.2-0.1V4.9L25.2,5v0.5H25
					c-0.1,0-0.1,0-0.1,0.1v1.8c0,0.1,0,0.1,0.1,0.1l0.2,0.1v0.5L23.7,8.1z"/>
			</g>
			<g>
				<path class="st3" d="M26.7,8.3c-0.5,0-0.8-0.2-1.1-0.5c-0.3-0.3-0.4-0.7-0.4-1.2s0.1-0.9,0.4-1.2S26.2,5,26.7,5s0.8,0.2,1.1,0.5
					c0.3,0.3,0.4,0.7,0.4,1.2s-0.1,0.9-0.4,1.2C27.5,8.1,27.2,8.3,26.7,8.3z M26.2,6.6c0,0.7,0.2,0.9,0.5,1c0.3,0,0.5-0.2,0.5-0.9
					s-0.2-1-0.5-1C26.4,5.7,26.2,5.9,26.2,6.6z"/>
			</g>
			<g>
				<path class="st3" d="M30.1,8.4v0.4h-0.9V8.4c-0.2,0-0.5,0-0.8-0.1V7.2h0.7c0,0.3,0.2,0.5,0.5,0.5c0.2,0,0.4-0.1,0.4-0.3
					c0-0.1,0-0.2-0.1-0.2c-0.1-0.1-0.1-0.1-0.2-0.2c-0.1,0-0.2-0.1-0.3-0.2c-0.2-0.1-0.4-0.2-0.5-0.3c-0.2-0.2-0.3-0.4-0.3-0.7
					c0-0.6,0.3-0.9,0.8-1V4.4h0.9v0.4l0.4,0.1H31v0.9h-0.6c-0.1-0.3-0.2-0.4-0.4-0.4c-0.2,0-0.3,0.1-0.3,0.3c0,0.1,0.1,0.2,0.2,0.3
					C30,6,30,6.1,30.1,6.1h0.1l0.2,0.1c0.1,0,0.2,0.1,0.2,0.1s0.1,0,0.2,0.1c0.1,0,0.2,0.1,0.2,0.1c0.1,0.1,0.2,0.2,0.3,0.3
					c0.1,0.1,0.1,0.3,0.1,0.5C31,7.9,30.7,8.3,30.1,8.4z"/>
			</g>
		</g>
		<g>
			<path class="st0" d="M7.5,12.6c1.5,0,2.2,0.5,2.2,1.7S9,16.1,7.4,16.1H6.9v0.8c0,0.1,0,0.1,0.1,0.2l0.4,0.1V18l-2.7,0.1v-0.9
				L5,17.1c0.1,0,0.1-0.1,0.1-0.2v-3.1c0-0.1,0-0.1-0.1-0.2l-0.3-0.1v-0.9L7.5,12.6z M7.3,15.2C7.8,15.2,8,15,8,14.3
				c0-0.5-0.2-0.7-0.7-0.7H6.8v1.6H7.3z"/>
			<path class="st0" d="M14.6,16.9v0.9H12V17l0.3-0.1c0.1,0,0.2-0.1,0.1-0.3l-0.1-0.3H11v0.4c-0.1,0.2,0,0.2,0.1,0.3l0.3,0.1v0.8
				L9.2,18v-1l0.3-0.1c0.1,0,0.1-0.1,0.2-0.2l0.9-2.9c0-0.1,0-0.2-0.1-0.3h-0.1v-0.9h2.7l1,3.9c0.1,0.2,0.1,0.3,0.3,0.3L14.6,16.9z
				 M11.3,15.5h0.9l-0.4-1.7h-0.1L11.3,15.5z"/>
			<path class="st0" d="M14.1,12.6H19v1.8h-0.9l-0.2-0.7c0-0.1-0.1-0.2-0.2-0.2h-0.4v3.1c0,0.1,0,0.1,0.1,0.1l0.3,0.1v0.8l-2.5,0.1
				v-0.9l0.3-0.1c0.1,0,0.1-0.1,0.1-0.2v-3.1h-0.4c-0.1,0-0.2,0.1-0.2,0.2v0.9h-0.9V12.6z"/>
			<path class="st0" d="M24,16.6v0.8c-0.3,0-0.5,0.1-0.8,0.1c-0.4,0-0.7-0.1-0.9-0.3c-0.1-0.1-0.2-0.2-0.3-0.4
				c-0.2-0.3-0.2-0.5-0.3-0.8c-0.1-0.4-0.2-0.4-0.5-0.4h-0.1v0.9c0,0.1,0,0.1,0.1,0.1l0.2,0.1v0.8l-2.3,0.1v-0.8l0.3-0.1
				c0.1,0,0.1-0.1,0.1-0.2v-2.9c0-0.1,0-0.1-0.1-0.1l-0.3-0.1v-0.8h2.5c1.2,0,1.7,0.4,1.7,1.3c0,0.6-0.2,1.1-0.7,1.4
				C23,16,23.3,16.5,24,16.6L24,16.6z M21.1,14.9h0.3c0.4,0,0.7-0.3,0.7-0.8c0-0.4-0.2-0.6-0.6-0.6h-0.3v1.4H21.1z"/>
			<path class="st0" d="M24.2,17.5v-0.8l0.3-0.1c0.1,0,0.1-0.1,0.1-0.1v-2.8c0-0.1,0-0.1-0.1-0.1l-0.3-0.1v-0.8h2.2v0.8l-0.3,0.1
				c-0.1,0-0.1,0.1-0.1,0.1v2.8c0,0.1,0,0.1,0.1,0.1l0.3,0.1v0.8H24.2z"/>
			<path class="st0" d="M28.8,17.4c-0.7,0-1.3-0.2-1.7-0.6c-0.4-0.5-0.6-1.1-0.6-1.8s0.2-1.4,0.6-1.8c0.4-0.5,1-0.7,1.7-0.7
				s1.2,0.2,1.6,0.7c0.4,0.4,0.6,1,0.6,1.8c0,0.7-0.2,1.3-0.6,1.8C30,17.2,29.5,17.4,28.8,17.4z M28,15c0,1,0.3,1.4,0.8,1.4
				s0.8-0.4,0.8-1.4c0-1.1-0.3-1.4-0.8-1.4C28.2,13.5,28,13.9,28,15z"/>
			<path class="st0" d="M32.1,15.7c0,0.5,0.2,0.8,0.6,0.8c0.3,0,0.5-0.2,0.5-0.5c0-0.2-0.1-0.3-0.2-0.4c0,0-0.1-0.1-0.2-0.1
				c-0.1,0-0.2-0.1-0.2-0.1s-0.1-0.1-0.2-0.1L32,15.2c-0.1,0-0.2-0.1-0.3-0.2c-0.1-0.1-0.2-0.2-0.3-0.3c-0.1-0.2-0.3-0.5-0.3-0.9
				c0-1,0.8-1.4,1.5-1.4c0.2,0,0.4,0,0.6,0.1c0.2,0.1,0.3,0.1,0.3,0.1c0.1,0,0.1,0,0.2-0.1h0.5v1.4h-0.9c-0.1-0.4-0.2-0.6-0.5-0.6
				s-0.4,0.1-0.4,0.4c0,0.1,0.1,0.3,0.2,0.3c0.1,0.1,0.3,0.2,0.6,0.3c0.4,0.2,0.7,0.3,0.9,0.4c0.3,0.2,0.5,0.6,0.5,1.1
				c0,1-0.6,1.5-1.7,1.6c-0.2,0-0.4,0-0.6-0.1c-0.2-0.1-0.3-0.1-0.4-0.1s-0.1,0-0.2,0.1H31v-1.6L32.1,15.7z"/>
		</g>
		<g>
			<g>
				<path class="st4" d="M36.6,14.3c0,0.5-0.3,0.8-0.7,0.8s-0.7-0.4-0.7-0.8s0.3-0.8,0.7-0.8C36.3,13.4,36.6,13.8,36.6,14.3z"/>
			</g>
			<g>
				<path class="st4" d="M36.5,14.2c0,0.4-0.3,0.8-0.6,0.8c-0.4,0-0.6-0.3-0.6-0.8s0.3-0.8,0.6-0.8C36.2,13.4,36.5,13.8,36.5,14.2z"
					/>
			</g>
		</g>
		<g>
			<g>
				<path class="st1" d="M35.5,3.3C35.4,3.4,34,6.1,34,6.1s1.1-2.9,1.2-3C35.3,3,35.4,2.9,35.5,3C35.5,3,35.6,3.2,35.5,3.3z"/>
			</g>
			<g>
				<path class="st1" d="M37.1,6c-0.1,0.1-2.7,0.9-2.7,0.9s2.4-1.4,2.5-1.4s0.2,0,0.3,0.2C37.3,5.8,37.2,5.9,37.1,6z"/>
			</g>
			<g>
				<path class="st2" d="M37.1,3.9c-0.1,0.1-3,2.7-3,2.7s2.4-3.1,2.6-3.2c0.1-0.1,0.3-0.1,0.4,0S37.2,3.7,37.1,3.9z"/>
			</g>
		</g>
		<g>
			<g>
				<path class="st1" d="M5.9,1.8C6,2,8,5.2,8,5.2S6.5,1.7,6.4,1.6c0-0.2-0.2-0.3-0.4-0.2C5.9,1.5,5.8,1.7,5.9,1.8z"/>
			</g>
			<g>
				<path class="st1" d="M3.6,4.8c0.2,0.1,3.7,1.3,3.7,1.3S4,4.3,3.8,4.2c-0.2-0.1-0.3,0-0.4,0.2C3.4,4.5,3.5,4.7,3.6,4.8z"/>
			</g>
			<g>
				<path class="st2" d="M3.6,2.3c0.2,0.2,4.1,3.4,4.1,3.4s-3.4-3.9-3.5-4C4,1.5,3.8,1.5,3.6,1.7C3.5,1.9,3.5,2.1,3.6,2.3z"/>
			</g>
		</g>
	</g>
</g>
</svg>
