<?xml version="1.0" encoding="utf-8"?>
<!-- Generator: Adobe Illustrator 24.1.1, SVG Export Plug-In . SVG Version: 6.00 Build 0)  -->
<svg version="1.1" id="Capa_1" xmlns="http://www.w3.org/2000/svg" xmlns:xlink="http://www.w3.org/1999/xlink" x="0px" y="0px"
	 width="405.1526px" height="178.1695px" viewBox="0 0 405.1526 178.1695" style="enable-background:new 0 0 405.1526 178.1695;"
	 xml:space="preserve">
<style type="text/css">
	.st0{fill:#FFFFFF;}
	.st1{fill:none;stroke:#FFFFFF;stroke-width:2;stroke-linecap:round;stroke-linejoin:round;stroke-miterlimit:10;}
	.st2{fill:#EDEDED;}
	.st3{fill:#183D7B;}
	.st4{fill:#FF6F20;}
	.st5{fill:#FFFFFF;stroke:#FF6F20;stroke-miterlimit:10;}
</style>
<g>
	<path class="st5" d="M92.6463,37.3643c0.8555,2.3037,1.7581,4.084,2.1771,5.9718c2.2227,10.0054,5.4404,19.954,6.2027,30.0811
		c1.1122,14.7748-7.6691,22.0139-22.1259,19.6412c-4.725-0.7755-9.2953-2.4861-13.9416-3.7506
		c-1.7581-0.4785-3.5394-1.2747-5.2927-1.231c-1.2584,0.0315-2.4879,1.2173-3.7305,1.8882c0.1487,0.43,0.2974,0.8598,0.446,1.2897
		c6.5884-0.0063,11.1646,3.2107,12.9233,9.1733c2.1868,7.4137-4.2905,9.9233-8.9492,13.2188
		c0.5349,2.3229,1.2725,4.3946,1.4475,6.5128c0.0994,1.2012,0.3438,2.2422,0.7142,3.1582l-0.005-0.0003
		c0.5349,2.3229,1.3358,3.7881,1.5109,5.9063c0.4163,5.0349,3.3097,7.3265,7.8898,8.8726
		c8.0313,2.7111,15.8558,6.0328,23.7765,9.0739c10.9475,4.2033,21.904,8.3834,33.4286,12.7922
		c-1.3514-8.3145-2.5844-15.9001-3.8684-23.7991l-1.8718-9.0764l-0.0023-0.0001c1.7668-0.0641,2.8533-0.1318,3.9304-0.1277
		c52.7686,0.1951,194.2002,1.1474,246.968,1.4749c3.6699,0.0228,5.1519-0.9227,6.0241-4.616
		c4.8595-20.5751,10.0604-41.0691,15.0828-61.606c1.8809-7.6906,3.5956-15.4217,5.5925-24.0231
		C327.4221,38.1773,165.9646,37.376,92.6463,37.3643z"/>
	<path class="st2" d="M63.0852,121.5611l59.6735,4.1425l5.8987,33.4585l-60.26-23.4975c-1.0471-0.4083-1.833-1.3227-2.1018-2.4455
		l-1.3091-3.4261L63.0852,121.5611L63.0852,121.5611z"/>
	<g>
		<path class="st4" d="M120.2973,53.9625h3.9085l9.3292,21.4474h-5.3308l-1.8483-4.5439h-8.3305l-1.7868,4.5439h-5.2101
			L120.2973,53.9625z M122.1148,60.2032l-2.6045,6.6644h5.2397L122.1148,60.2032z"/>
		<path class="st4" d="M143.4415,65.0193c-0.6674-0.8271-1.5454-1.2413-2.6364-1.2413c-0.3834,0-0.7573,0.0899-1.1206,0.2722
			s-0.5455,0.4946-0.5455,0.9395c0,0.3633,0.187,0.6307,0.5609,0.8023c0.3739,0.1716,0.8484,0.323,1.4235,0.4544
			c0.5763,0.1313,1.1916,0.2722,1.8483,0.4236c0.6556,0.1515,1.2721,0.3893,1.8471,0.7123c0.5763,0.323,1.0508,0.762,1.4247,1.3182
			c0.3727,0.555,0.5597,1.2969,0.5597,2.2258c0,0.9502-0.2071,1.7324-0.6212,2.3477c-0.4142,0.6165-0.9443,1.1111-1.5904,1.4851
			s-1.3726,0.6354-2.1808,0.7869c-0.8082,0.1515-1.6057,0.2272-2.3926,0.2272c-1.0307,0-2.0708-0.1467-3.1204-0.439
			c-1.0508-0.2923-1.9383-0.8129-2.666-1.5596l2.7571-3.06c0.4236,0.5254,0.8934,0.9242,1.4081,1.1963
			c0.5147,0.2733,1.1158,0.4094,1.8022,0.4094c0.5254,0,0.9999-0.0757,1.4247-0.2272c0.4236-0.1515,0.6354-0.4295,0.6354-0.833
			c0-0.3834-0.187-0.6709-0.5597-0.8638c-0.3739-0.1917-0.8484-0.3526-1.4247-0.484c-0.5751-0.1313-1.1916-0.2733-1.8471-0.4248
			c-0.6567-0.1515-1.272-0.3787-1.8483-0.6816c-0.5751-0.3029-1.0496-0.7313-1.4235-1.2874
			c-0.3739-0.555-0.5609-1.2969-0.5609-2.2258c0-0.8685,0.1775-1.6164,0.5301-2.2424c0.3538-0.626,0.8188-1.1407,1.3939-1.5442
			c0.5751-0.4047,1.2366-0.7017,1.9844-0.8946c0.7467-0.1917,1.504-0.2875,2.2719-0.2875c0.9691,0,1.9489,0.142,2.9382,0.4248
			s1.827,0.7869,2.5145,1.5146L143.4415,65.0193z"/>
		<path class="st4" d="M148.8327,56.0534c0-0.7277,0.258-1.349,0.7727-1.8637c0.5147-0.5147,1.136-0.7727,1.8625-0.7727
			c0.7277,0,1.3478,0.258,1.8637,0.7727c0.5147,0.5147,0.7715,1.136,0.7715,1.8637c0,0.7265-0.2568,1.3478-0.7715,1.8625
			c-0.5159,0.5147-1.136,0.7727-1.8637,0.7727c-0.7265,0-1.3478-0.258-1.8625-0.7727
			C149.0906,57.4012,148.8327,56.7799,148.8327,56.0534z M149.1959,60.6872h4.5439v14.7227h-4.5439V60.6872z"/>
		<path class="st4" d="M165.3421,65.0193c-0.6662-0.8271-1.5454-1.2413-2.6352-1.2413c-0.3846,0-0.7573,0.0899-1.1206,0.2722
			c-0.3645,0.1822-0.5455,0.4946-0.5455,0.9395c0,0.3633,0.1858,0.6307,0.5597,0.8023c0.3739,0.1716,0.8484,0.323,1.4247,0.4544
			c0.5751,0.1313,1.1904,0.2722,1.8471,0.4236c0.6567,0.1515,1.272,0.3893,1.8483,0.7123c0.5751,0.323,1.0496,0.762,1.4235,1.3182
			c0.3739,0.555,0.5609,1.2969,0.5609,2.2258c0,0.9502-0.2083,1.7324-0.6212,2.3477c-0.4142,0.6165-0.9443,1.1111-1.5904,1.4851
			c-0.6473,0.3739-1.3738,0.6354-2.1808,0.7869c-0.8082,0.1515-1.6057,0.2272-2.3938,0.2272c-1.0295,0-2.0696-0.1467-3.1204-0.439
			c-1.0496-0.2923-1.9382-0.8129-2.6648-1.5596l2.7559-3.06c0.4248,0.5254,0.8934,0.9242,1.4093,1.1963
			c0.5147,0.2733,1.1147,0.4094,1.8022,0.4094c0.5242,0,0.9999-0.0757,1.4235-0.2272c0.4236-0.1515,0.6366-0.4295,0.6366-0.833
			c0-0.3834-0.187-0.6709-0.5609-0.8638c-0.3739-0.1917-0.8484-0.3526-1.4235-0.484c-0.5763-0.1313-1.1916-0.2733-1.8483-0.4248
			c-0.6567-0.1515-1.272-0.3787-1.8471-0.6816c-0.5763-0.3029-1.0508-0.7313-1.4247-1.2874
			c-0.3739-0.555-0.5597-1.2969-0.5597-2.2258c0-0.8685,0.1763-1.6164,0.5301-2.2424c0.3526-0.626,0.8177-1.1407,1.3928-1.5442
			c0.5763-0.4047,1.2377-0.7017,1.9844-0.8946c0.7467-0.1917,1.504-0.2875,2.272-0.2875c0.9691,0,1.9489,0.142,2.9381,0.4248
			s1.8282,0.7869,2.5145,1.5146L165.3421,65.0193z"/>
		<path class="st4" d="M181.0635,64.3223h-3.9984v4.9083c0,0.4035,0.0201,0.7715,0.0603,1.1052
			c0.0402,0.3337,0.1313,0.6212,0.2733,0.8638c0.1408,0.2414,0.3574,0.4284,0.6508,0.5597
			c0.2923,0.1313,0.6816,0.1976,1.1667,0.1976c0.2414,0,0.5597-0.026,0.9537-0.0757c0.394-0.0509,0.6911-0.1668,0.8934-0.3491
			v3.7866c-0.5053,0.1822-1.0295,0.3029-1.575,0.3633c-0.5455,0.0615-1.0804,0.0911-1.6057,0.0911
			c-0.768,0-1.4744-0.0805-2.1205-0.2426c-0.6461-0.1609-1.2117-0.4189-1.6957-0.7715c-0.4852-0.3538-0.8638-0.8129-1.136-1.3786
			c-0.2733-0.5656-0.4094-1.2519-0.4094-2.0601v-6.9981h-2.9086v-3.6351h2.9086v-4.3617h4.5439v4.3617h3.9984V64.3223z"/>
		<path class="st4" d="M197.3008,72.8658c-0.7277,0.9289-1.6472,1.646-2.7571,2.1501c-1.1111,0.5053-2.2625,0.7573-3.4529,0.7573
			c-1.1312,0-2.1962-0.181-3.1961-0.5455c-0.9999-0.3633-1.8684-0.8827-2.6056-1.5596s-1.317-1.4886-1.7418-2.4388
			c-0.4236-0.949-0.6354-2.0093-0.6354-3.1807c0-1.1703,0.2118-2.2305,0.6354-3.1807c0.4248-0.949,1.0046-1.7619,1.7418-2.4388
			c0.7372-0.6757,1.6057-1.1963,2.6056-1.5596c0.9999-0.3633,2.0649-0.5455,3.1961-0.5455c1.0496,0,2.0033,0.1822,2.8624,0.5455
			c0.8579,0.3633,1.5844,0.8839,2.1808,1.5596c0.5952,0.6769,1.0555,1.4898,1.3786,2.4388c0.323,0.9502,0.484,2.0104,0.484,3.1807
			v1.4235h-10.5409c0.181,0.8685,0.5751,1.5608,1.1809,2.0755s1.3525,0.7727,2.2412,0.7727c0.7478,0,1.3786-0.1668,1.8933-0.5005
			c0.5159-0.3325,0.9644-0.762,1.349-1.2874L197.3008,72.8658z M193.4527,66.3824c0.0201-0.7668-0.2319-1.4235-0.7573-1.969
			c-0.5254-0.5455-1.201-0.8177-2.0294-0.8177c-0.5053,0-0.949,0.0805-1.3324,0.2426c-0.3846,0.1621-0.7123,0.368-0.9845,0.6212
			c-0.2733,0.252-0.4852,0.5443-0.6366,0.878s-0.2378,0.6816-0.2568,1.0449H193.4527z"/>
		<path class="st4" d="M200.7537,60.6872h4.3616v1.9998h0.0603c0.1408-0.2828,0.3432-0.5656,0.6059-0.8484
			c0.2627-0.2828,0.5763-0.5349,0.9395-0.7573c0.3633-0.2213,0.7774-0.4035,1.2413-0.5455c0.465-0.1408,0.9703-0.2118,1.5146-0.2118
			c1.1514,0,2.0803,0.1775,2.7879,0.5301c0.7064,0.3538,1.2567,0.8437,1.6507,1.4697s0.6615,1.3632,0.8023,2.2116
			c0.1408,0.8473,0.2118,1.7667,0.2118,2.7559v8.1187h-4.5439V68.2c0-0.4236-0.0142-0.8626-0.045-1.317
			c-0.0308-0.4544-0.1207-0.8733-0.2722-1.2579c-0.1515-0.3834-0.3846-0.697-0.697-0.9384
			c-0.3136-0.2426-0.7632-0.3645-1.3478-0.3645c-0.5869,0-1.0602,0.1065-1.4247,0.3183c-0.3633,0.2118-0.6414,0.4958-0.8331,0.8484
			c-0.1917,0.3538-0.3171,0.7526-0.3786,1.1963c-0.0603,0.4449-0.0899,0.9088-0.0899,1.3939v7.3306h-4.5439V60.6872z"/>
		<path class="st4" d="M228.107,65.4441c-0.2225-0.323-0.5349-0.5917-0.9395-0.8035c-0.4035-0.2118-0.8378-0.3183-1.3016-0.3183
			c-1.1514,0-2.0448,0.3443-2.6814,1.0307s-0.9538,1.5856-0.9538,2.6956c0,1.1111,0.3171,2.0104,0.9538,2.6968
			s1.53,1.0295,2.6814,1.0295c0.5041,0,0.9384-0.1112,1.3016-0.3337c0.3645-0.2213,0.6768-0.484,0.9395-0.7869l2.9985,3.15
			c-0.7064,0.7277-1.5395,1.2377-2.4991,1.53c-0.9585,0.2923-1.8732,0.439-2.7405,0.439c-1.1312,0-2.1962-0.181-3.1961-0.5455
			c-0.9999-0.3633-1.8684-0.8827-2.6056-1.5596s-1.317-1.4886-1.7418-2.4388c-0.4236-0.949-0.6354-2.0093-0.6354-3.1807
			c0-1.1703,0.2118-2.2305,0.6354-3.1807c0.4248-0.949,1.0046-1.7619,1.7418-2.4388c0.7372-0.6757,1.6057-1.1963,2.6056-1.5596
			c0.9999-0.3633,2.0649-0.5455,3.1961-0.5455c0.8674,0,1.7821,0.1467,2.7405,0.439c0.9597,0.2935,1.7927,0.8035,2.4991,1.53
			L228.107,65.4441z"/>
		<path class="st4" d="M232.4391,56.0534c0-0.7277,0.2568-1.349,0.7715-1.8637c0.5159-0.5147,1.136-0.7727,1.8637-0.7727
			c0.7265,0,1.3478,0.258,1.8625,0.7727c0.5147,0.5147,0.7727,1.136,0.7727,1.8637c0,0.7265-0.258,1.3478-0.7727,1.8625
			c-0.5147,0.5147-1.136,0.7727-1.8625,0.7727c-0.7277,0-1.3478-0.258-1.8637-0.7727
			C232.6959,57.4012,232.4391,56.7799,232.4391,56.0534z M232.8024,60.6872h4.5439v14.7227h-4.5439V60.6872z"/>
		<path class="st4" d="M249.8573,73.5616h-0.0615c-0.5041,0.7881-1.1762,1.3537-2.014,1.6969
			c-0.8378,0.3432-1.7217,0.5147-2.6506,0.5147c-0.6863,0-1.3478-0.0958-1.9844-0.2875c-0.6354-0.1917-1.1963-0.4792-1.6815-0.8638
			c-0.484-0.3834-0.8685-0.8579-1.1502-1.4235c-0.284-0.5644-0.4248-1.2212-0.4248-1.969c0-0.8484,0.1562-1.5643,0.4698-2.1501
			c0.3124-0.5857,0.7372-1.0709,1.272-1.4543s1.1466-0.6816,1.8329-0.8934c0.6863-0.213,1.3987-0.3692,2.1359-0.4698
			c0.7372-0.1006,1.4732-0.1621,2.2116-0.1822c0.736-0.0201,1.4176-0.0296,2.0448-0.0296c0-0.8082-0.2887-1.4495-0.8638-1.9241
			c-0.5751-0.4745-1.2567-0.7123-2.0448-0.7123c-0.7478,0-1.4294,0.1574-2.0448,0.4698c-0.6165,0.3136-1.1667,0.7419-1.6507,1.2874
			l-2.4234-2.4838c0.8484-0.7881,1.8377-1.3785,2.9689-1.7726c1.1301-0.3929,2.3015-0.5905,3.5132-0.5905
			c1.3336,0,2.4281,0.1668,3.2872,0.5005c0.8579,0.3325,1.5442,0.8224,2.0601,1.4685c0.5147,0.6473,0.8733,1.4389,1.0744,2.3784
			c0.2023,0.9384,0.3029,2.0246,0.3029,3.2565v7.482h-4.1794V73.5616z M248.7356,68.9573c-0.3432,0-0.7715,0.0154-1.2874,0.0462
			c-0.5147,0.0296-1.0094,0.116-1.4839,0.2568c-0.4745,0.142-0.878,0.3538-1.2117,0.6366
			c-0.3337,0.2828-0.4994,0.6768-0.4994,1.1809c0,0.5455,0.2319,0.9502,0.6958,1.2117c0.465,0.2627,0.949,0.394,1.4543,0.394
			c0.4437,0,0.8733-0.0603,1.2874-0.1822c0.4142-0.1207,0.7822-0.2923,1.1064-0.5147c0.3219-0.2213,0.5798-0.5041,0.7715-0.8484
			c0.1917-0.3432,0.2887-0.7467,0.2887-1.2117v-0.9691H248.7356z"/>
		<path class="st4" d="M266.426,53.9625h7.1495l4.9379,13.9949h0.0604l4.9675-13.9949h7.1188v21.4474h-4.7249V58.9608h-0.0603
			l-5.6349,16.4491h-3.6044l-5.4231-16.4491h-0.0604v16.4491h-4.7261V53.9625z"/>
		<path class="st4" d="M308.3813,72.8658c-0.7266,0.9289-1.646,1.646-2.7571,2.1501c-1.11,0.5053-2.2613,0.7573-3.4529,0.7573
			c-1.1313,0-2.1962-0.181-3.1961-0.5455c-0.9999-0.3633-1.8684-0.8827-2.6045-1.5596c-0.7384-0.6768-1.3182-1.4886-1.7418-2.4388
			c-0.4248-0.949-0.6366-2.0093-0.6366-3.1807c0-1.1703,0.2118-2.2305,0.6366-3.1807c0.4236-0.949,1.0034-1.7619,1.7418-2.4388
			c0.736-0.6757,1.6046-1.1963,2.6045-1.5596c0.9999-0.3633,2.0648-0.5455,3.1961-0.5455c1.0496,0,2.0045,0.1822,2.8624,0.5455
			c0.8579,0.3633,1.5856,0.8839,2.1808,1.5596c0.5964,0.6769,1.0555,1.4898,1.3785,2.4388
			c0.3231,0.9502,0.4852,2.0104,0.4852,3.1807v1.4235h-10.5421c0.1823,0.8685,0.5751,1.5608,1.1809,2.0755
			c0.6059,0.5147,1.3537,0.7727,2.2424,0.7727c0.7467,0,1.3786-0.1668,1.8933-0.5005c0.5147-0.3325,0.9644-0.762,1.3478-1.2874
			L308.3813,72.8658z M301.5654,53.9625h6.1792l-5.2397,4.3628h-3.9996L301.5654,53.9625z M304.5343,66.3824
			c0.0201-0.7668-0.2331-1.4235-0.7573-1.969c-0.5254-0.5455-1.2022-0.8177-2.0294-0.8177c-0.5053,0-0.9502,0.0805-1.3336,0.2426
			s-0.7112,0.368-0.9845,0.6212c-0.2722,0.252-0.484,0.5443-0.6354,0.878s-0.2378,0.6816-0.258,1.0449H304.5343z"/>
		<path class="st4" d="M327.2834,75.4099h-4.1806v-1.9383h-0.0604c-0.1822,0.2627-0.4189,0.5301-0.7123,0.8023
			c-0.2923,0.2722-0.6354,0.5207-1.0295,0.7419c-0.394,0.2225-0.8283,0.4035-1.3028,0.5455
			c-0.4745,0.1408-0.9644,0.2118-1.4685,0.2118c-1.091,0-2.0803-0.187-2.9689-0.5597c-0.8887-0.3739-1.6507-0.8993-2.2873-1.5762
			c-0.6366-0.6757-1.1265-1.4791-1.4697-2.408c-0.3432-0.9289-0.5147-1.9489-0.5147-3.0588c0-1.0307,0.1562-2.0152,0.4698-2.9535
			c0.3124-0.9395,0.7573-1.7726,1.3324-2.4991c0.5763-0.7277,1.278-1.3076,2.1063-1.7418c0.8271-0.4343,1.7667-0.652,2.8163-0.652
			c0.949,0,1.8329,0.1467,2.6506,0.439c0.8188,0.2935,1.4898,0.7928,2.0152,1.5004h0.0604v-9.7552h4.5439V75.4099z
			 M323.1028,68.0485c0-1.1099-0.3183-2.0093-0.9538-2.6956c-0.6366-0.6863-1.53-1.0307-2.6814-1.0307
			c-1.1513,0-2.0447,0.3443-2.6802,1.0307c-0.6366,0.6863-0.9549,1.5856-0.9549,2.6956c0,1.1111,0.3183,2.0104,0.9549,2.6968
			c0.6354,0.6863,1.5288,1.0295,2.6802,1.0295c1.1514,0,2.0448-0.3432,2.6814-1.0295
			C322.7844,70.059,323.1028,69.1597,323.1028,68.0485z"/>
		<path class="st4" d="M330.6155,56.0534c0-0.7277,0.2568-1.349,0.7715-1.8637c0.5159-0.5147,1.136-0.7727,1.8637-0.7727
			c0.7266,0,1.3478,0.258,1.8625,0.7727c0.5147,0.5147,0.7727,1.136,0.7727,1.8637c0,0.7265-0.258,1.3478-0.7727,1.8625
			c-0.5147,0.5147-1.136,0.7727-1.8625,0.7727c-0.7277,0-1.3478-0.258-1.8637-0.7727
			C330.8723,57.4012,330.6155,56.7799,330.6155,56.0534z M330.9788,60.6872h4.5439v14.7227h-4.5439V60.6872z"/>
		<path class="st4" d="M348.7603,65.4441c-0.2225-0.323-0.5349-0.5917-0.9395-0.8035c-0.4035-0.2118-0.8378-0.3183-1.3016-0.3183
			c-1.1514,0-2.0447,0.3443-2.6814,1.0307s-0.9537,1.5856-0.9537,2.6956c0,1.1111,0.3171,2.0104,0.9537,2.6968
			s1.53,1.0295,2.6814,1.0295c0.5041,0,0.9384-0.1112,1.3016-0.3337c0.3645-0.2213,0.6768-0.484,0.9395-0.7869l2.9985,3.15
			c-0.7065,0.7277-1.5395,1.2377-2.4991,1.53c-0.9585,0.2923-1.8732,0.439-2.7405,0.439c-1.1312,0-2.1962-0.181-3.1961-0.5455
			c-0.9999-0.3633-1.8684-0.8827-2.6056-1.5596c-0.7372-0.6768-1.317-1.4886-1.7419-2.4388
			c-0.4236-0.949-0.6354-2.0093-0.6354-3.1807c0-1.1703,0.2118-2.2305,0.6354-3.1807c0.4248-0.949,1.0046-1.7619,1.7419-2.4388
			c0.7372-0.6757,1.6057-1.1963,2.6056-1.5596c0.9999-0.3633,2.0649-0.5455,3.1961-0.5455c0.8674,0,1.7821,0.1467,2.7405,0.439
			c0.9597,0.2935,1.7927,0.8035,2.4991,1.53L348.7603,65.4441z"/>
		<path class="st4" d="M362.6346,73.5616h-0.0616c-0.5041,0.7881-1.1762,1.3537-2.014,1.6969s-1.7217,0.5147-2.6506,0.5147
			c-0.6863,0-1.3478-0.0958-1.9844-0.2875c-0.6354-0.1917-1.1963-0.4792-1.6815-0.8638c-0.484-0.3834-0.8686-0.8579-1.1502-1.4235
			c-0.284-0.5644-0.4248-1.2212-0.4248-1.969c0-0.8484,0.1562-1.5643,0.4698-2.1501c0.3124-0.5857,0.7372-1.0709,1.2721-1.4543
			s1.1466-0.6816,1.8329-0.8934c0.6863-0.213,1.3987-0.3692,2.1359-0.4698c0.7372-0.1006,1.4732-0.1621,2.2116-0.1822
			c0.736-0.0201,1.4176-0.0296,2.0448-0.0296c0-0.8082-0.2887-1.4495-0.8638-1.9241c-0.5751-0.4745-1.2567-0.7123-2.0447-0.7123
			c-0.7479,0-1.4294,0.1574-2.0448,0.4698c-0.6165,0.3136-1.1667,0.7419-1.6507,1.2874l-2.4234-2.4838
			c0.8484-0.7881,1.8376-1.3785,2.9689-1.7726c1.1301-0.3929,2.3015-0.5905,3.5132-0.5905c1.3336,0,2.4281,0.1668,3.2872,0.5005
			c0.8579,0.3325,1.5442,0.8224,2.0602,1.4685c0.5147,0.6473,0.8733,1.4389,1.0744,2.3784
			c0.2023,0.9384,0.3029,2.0246,0.3029,3.2565v7.482h-4.1794V73.5616z M361.5128,68.9573c-0.3431,0-0.7715,0.0154-1.2874,0.0462
			c-0.5147,0.0296-1.0094,0.116-1.4839,0.2568c-0.4745,0.142-0.878,0.3538-1.2117,0.6366
			c-0.3337,0.2828-0.4994,0.6768-0.4994,1.1809c0,0.5455,0.2319,0.9502,0.6958,1.2117c0.465,0.2627,0.949,0.394,1.4543,0.394
			c0.4437,0,0.8733-0.0603,1.2874-0.1822c0.4142-0.1207,0.7822-0.2923,1.1064-0.5147c0.3218-0.2213,0.5798-0.5041,0.7715-0.8484
			c0.1917-0.3432,0.2887-0.7467,0.2887-1.2117v-0.9691H361.5128z"/>
		<path class="st4" d="M118.2987,93.0399h-6.907v-2.7263h16.7213v2.7263h-6.9069v18.7211h-2.9074V93.0399z"/>
		<path class="st4" d="M129.2028,105.5818c0,0.626,0.1373,1.1963,0.4094,1.7111c0.2722,0.5147,0.6307,0.9537,1.0756,1.3182
			c0.4437,0.3633,0.9585,0.6461,1.5442,0.8472c0.5857,0.2023,1.1916,0.3029,1.8176,0.3029c0.8484,0,1.5856-0.1964,2.2116-0.5905
			c0.626-0.394,1.2011-0.9135,1.7265-1.5596l2.0601,1.575c-1.5146,1.9595-3.6351,2.9381-6.3615,2.9381
			c-1.1312,0-2.156-0.1917-3.0742-0.5751c-0.9194-0.3834-1.6969-0.9135-2.3323-1.5904c-0.6366-0.6768-1.1265-1.4744-1.4697-2.3938
			c-0.3432-0.9182-0.5147-1.9122-0.5147-2.9831c0-1.0709,0.1858-2.0649,0.5597-2.9843c0.3739-0.9182,0.8887-1.7158,1.5454-2.3926
			c0.6555-0.6769,1.4389-1.207,2.3477-1.5904c0.9088-0.3834,1.898-0.5763,2.9689-0.5763c1.272,0,2.3477,0.2225,3.2257,0.6674
			c0.8792,0.4437,1.601,1.0247,2.1666,1.7418c0.5644,0.7171,0.9739,1.5241,1.2259,2.4234c0.2532,0.8981,0.3787,1.8128,0.3787,2.7405
			v0.9703H129.2028z M137.8066,103.3998c-0.0201-0.6059-0.1172-1.1608-0.2876-1.6661c-0.1728-0.5041-0.4295-0.9431-0.7727-1.317
			c-0.3443-0.3739-0.7727-0.6662-1.2874-0.8792c-0.5147-0.2118-1.1159-0.3171-1.8022-0.3171c-0.6674,0-1.278,0.1254-1.8329,0.3787
			c-0.5562,0.252-1.0259,0.5798-1.4093,0.9845c-0.3834,0.4035-0.6816,0.8532-0.8934,1.3478s-0.3183,0.9845-0.3183,1.4685H137.8066z"
			/>
		<path class="st4" d="M144.1977,88.8593h2.7263v22.9017h-2.7263V88.8593z"/>
		<path class="st4" d="M153.3162,105.5818c0,0.626,0.1361,1.1963,0.4082,1.7111c0.2733,0.5147,0.6319,0.9537,1.0756,1.3182
			c0.4437,0.3633,0.9597,0.6461,1.5454,0.8472c0.5857,0.2023,1.1916,0.3029,1.8176,0.3029c0.8484,0,1.5845-0.1964,2.2116-0.5905
			c0.6248-0.394,1.201-0.9135,1.7264-1.5596l2.0601,1.575c-1.5146,1.9595-3.6351,2.9381-6.3615,2.9381
			c-1.1312,0-2.156-0.1917-3.0754-0.5751c-0.9194-0.3834-1.6957-0.9135-2.3323-1.5904c-0.6366-0.6768-1.1265-1.4744-1.4697-2.3938
			c-0.3432-0.9182-0.5147-1.9122-0.5147-2.9831c0-1.0709,0.187-2.0649,0.5609-2.9843c0.3727-0.9182,0.8887-1.7158,1.5442-2.3926
			c0.6567-0.6769,1.4389-1.207,2.3477-1.5904c0.9088-0.3834,1.898-0.5763,2.9689-0.5763c1.272,0,2.3477,0.2225,3.2269,0.6674
			c0.878,0.4437,1.5998,1.0247,2.1655,1.7418c0.5656,0.7171,0.9739,1.5241,1.2271,2.4234c0.252,0.8981,0.3787,1.8128,0.3787,2.7405
			v0.9703H153.3162z M161.9188,103.3998c-0.0201-0.6059-0.116-1.1608-0.2875-1.6661c-0.1716-0.5041-0.4296-0.9431-0.7727-1.317
			s-0.7727-0.6662-1.2874-0.8792c-0.5147-0.2118-1.1159-0.3171-1.8022-0.3171c-0.6662,0-1.278,0.1254-1.8329,0.3787
			c-0.555,0.252-1.0247,0.5798-1.4081,0.9845c-0.3846,0.4035-0.6816,0.8532-0.8934,1.3478
			c-0.213,0.4946-0.3183,0.9845-0.3183,1.4685H161.9188z"/>
		<path class="st4" d="M169.1595,99.7647h-3.0908v-2.3619h3.0908v-3.2115c0-1.9181,0.368-3.3476,1.1052-4.2859
			c0.7372-0.9395,2.0045-1.4093,3.802-1.4093c0.3029,0,0.6212,0.0107,0.9538,0.0308c0.3337,0.0201,0.6922,0.0805,1.0756,0.181
			l-0.3029,2.4234c-0.2627-0.1006-0.5147-0.1704-0.7573-0.2118c-0.2426-0.0402-0.5053-0.0603-0.7881-0.0603
			c-0.5041,0-0.9088,0.0757-1.2117,0.2272c-0.3029,0.1515-0.5396,0.3692-0.7112,0.6508c-0.1716,0.284-0.2828,0.6212-0.3337,1.0153
			c-0.0509,0.394-0.0757,0.8437-0.0757,1.3478v3.3026h3.2411v2.3619h-3.2707v11.9963h-2.7263V99.7647z"/>
		<path class="st4" d="M177.4888,104.5819c0-1.0496,0.1976-2.0294,0.5905-2.9381c0.394-0.9088,0.9348-1.7063,1.6211-2.3938
			c0.6863-0.6863,1.4945-1.2271,2.4234-1.6199c0.9289-0.394,1.9288-0.5917,2.9985-0.5917c1.0709,0,2.0708,0.1976,2.9997,0.5917
			c0.9289,0.3929,1.7359,0.9336,2.4234,1.6199c0.6863,0.6875,1.2271,1.4851,1.6199,2.3938c0.394,0.9088,0.5917,1.8886,0.5917,2.9381
			s-0.1976,2.0341-0.5917,2.9535c-0.3929,0.9194-0.9336,1.717-1.6199,2.3926c-0.6875,0.6768-1.4945,1.2117-2.4234,1.6057
			c-0.9289,0.394-1.9288,0.5905-2.9997,0.5905c-1.0697,0-2.0696-0.1964-2.9985-0.5905c-0.9289-0.394-1.7371-0.9289-2.4234-1.6057
			c-0.6863-0.6757-1.2271-1.4732-1.6211-2.3926C177.6864,106.616,177.4888,105.6315,177.4888,104.5819z M180.3973,104.5819
			c0,0.7265,0.11,1.3987,0.3325,2.014c0.2225,0.6165,0.5349,1.1419,0.9395,1.575c0.4035,0.4355,0.8981,0.7786,1.4839,1.0307
			c0.5857,0.252,1.2425,0.3787,1.969,0.3787c0.7277,0,1.3833-0.1266,1.969-0.3787s1.0804-0.5952,1.485-1.0307
			c0.4035-0.4331,0.7159-0.9585,0.9384-1.575c0.2225-0.6153,0.3337-1.2874,0.3337-2.014c0-0.7277-0.1112-1.3987-0.3337-2.0152
			c-0.2225-0.6153-0.5349-1.1407-0.9384-1.575c-0.4047-0.4343-0.8993-0.7774-1.485-1.0295s-1.2413-0.3787-1.969-0.3787
			c-0.7265,0-1.3833,0.1266-1.969,0.3787c-0.5857,0.252-1.0804,0.5952-1.4839,1.0295c-0.4047,0.4343-0.7171,0.9597-0.9395,1.575
			C180.5074,103.1832,180.3973,103.8542,180.3973,104.5819z M186.3044,90.3136h3.8777l-4.5143,4.3628h-2.5145L186.3044,90.3136z"/>
		<path class="st4" d="M196.1791,97.4028h2.7263v2.2104h0.0603c0.3432-0.7668,0.9395-1.388,1.788-1.8625
			c0.8472-0.4745,1.827-0.7123,2.9381-0.7123c0.6863,0,1.3478,0.1065,1.9844,0.3183c0.6354,0.2118,1.1904,0.5408,1.6661,0.9845
			c0.4733,0.4449,0.852,1.0153,1.136,1.7122c0.2816,0.6958,0.4236,1.5194,0.4236,2.4684v9.2392h-2.7263v-8.4819
			c0-0.6662-0.0911-1.2366-0.2722-1.7111c-0.1822-0.4745-0.4248-0.8591-0.7277-1.1514c-0.3029-0.2923-0.6508-0.5053-1.0448-0.6366
			c-0.394-0.1313-0.8023-0.1964-1.2271-0.1964c-0.5656,0-1.0898,0.0911-1.575,0.2722c-0.4852,0.1822-0.9088,0.4698-1.272,0.8638
			c-0.3633,0.394-0.6473,0.8934-0.8484,1.4993c-0.2023,0.6059-0.3029,1.3229-0.3029,2.1512v7.3909h-2.7263V97.4028z"/>
		<path class="st4" d="M212.5974,92.253c0-0.5455,0.1976-1.0153,0.5905-1.4093c0.394-0.394,0.8638-0.5905,1.4093-0.5905
			s1.0141,0.1964,1.4081,0.5905s0.5905,0.8638,0.5905,1.4093c0,0.5443-0.1964,1.0141-0.5905,1.4081
			c-0.394,0.394-0.8626,0.5905-1.4081,0.5905s-1.0153-0.1964-1.4093-0.5905C212.795,93.2671,212.5974,92.7974,212.5974,92.253z
			 M213.2341,97.4028h2.7263v14.3582h-2.7263V97.4028z"/>
		<path class="st4" d="M230.56,101.2189c-0.5041-0.5242-1.0342-0.9242-1.5904-1.1963c-0.555-0.2722-1.2164-0.4094-1.9832-0.4094
			c-0.7478,0-1.3987,0.1373-1.9548,0.4094c-0.555,0.2722-1.02,0.6461-1.3927,1.1206c-0.3739,0.4745-0.6567,1.02-0.8484,1.6365
			c-0.1917,0.6153-0.2875,1.2567-0.2875,1.9229c0,0.6662,0.11,1.2981,0.3325,1.8933c0.2225,0.5964,0.5349,1.1159,0.9395,1.5608
			c0.4035,0.4437,0.8887,0.7928,1.4543,1.0449c0.5644,0.252,1.201,0.3787,1.9087,0.3787c0.7668,0,1.4235-0.1361,1.969-0.4094
			c0.5443-0.2722,1.0496-0.6709,1.5146-1.1963l1.9382,1.9383c-0.7076,0.7881-1.53,1.3537-2.4684,1.6969
			c-0.9395,0.3432-1.9347,0.5147-2.9843,0.5147c-1.1111,0-2.1252-0.181-3.0446-0.5455c-0.9194-0.3633-1.7111-0.8733-2.3773-1.5288
			c-0.6674-0.6567-1.1821-1.4436-1.5454-2.3631c-0.3633-0.9194-0.5455-1.9335-0.5455-3.0446c0-1.1099,0.1822-2.13,0.5455-3.06
			c0.3633-0.9277,0.8733-1.7264,1.53-2.3926c0.6555-0.6662,1.4436-1.1857,2.3631-1.5596c0.9182-0.3739,1.943-0.5609,3.0742-0.5609
			c1.0496,0,2.0542,0.187,3.0139,0.5609c0.9597,0.3739,1.7927,0.9443,2.4991,1.7111L230.56,101.2189z"/>
		<path class="st4" d="M234.9524,99.1588c0.768-0.7064,1.6554-1.2366,2.666-1.5904c1.0094-0.3526,2.0187-0.5301,3.0293-0.5301
			c1.0496,0,1.9536,0.1325,2.711,0.394c0.7573,0.2627,1.3786,0.6165,1.8637,1.0602c0.484,0.4449,0.8425,0.9549,1.0744,1.53
			c0.2319,0.5751,0.3491,1.1762,0.3491,1.8022v7.3306c0,0.5053,0.0095,0.9703,0.0296,1.3939
			c0.0201,0.4236,0.0509,0.8283,0.0911,1.2117h-2.4234c-0.0603-0.7265-0.0911-1.4543-0.0911-2.1808h-0.0603
			c-0.6059,0.9289-1.3229,1.5856-2.1501,1.969c-0.8283,0.3834-1.788,0.5751-2.8778,0.5751c-0.6674,0-1.3028-0.0911-1.9087-0.2722
			c-0.6059-0.1822-1.136-0.4544-1.5904-0.8177c-0.4544-0.3645-0.8129-0.8129-1.0756-1.349c-0.2627-0.5349-0.394-1.1549-0.394-1.8625
			c0-0.9289,0.2071-1.7063,0.6212-2.3323c0.4142-0.626,0.9798-1.136,1.6969-1.53c0.7159-0.394,1.5549-0.6768,2.5133-0.8484
			c0.9597-0.1716,1.9844-0.2568,3.0754-0.2568h1.9986v-0.6059c0-0.3645-0.071-0.7277-0.2118-1.091
			c-0.1408-0.3633-0.3538-0.6911-0.6354-0.9845c-0.284-0.2923-0.6366-0.5254-1.0602-0.697
			c-0.4248-0.1716-0.9301-0.2568-1.5146-0.2568c-0.5254,0-0.9845,0.0497-1.3786,0.1515c-0.394,0.1006-0.7526,0.2272-1.0756,0.3787
			c-0.323,0.1515-0.6165,0.3278-0.878,0.5301c-0.2627,0.2012-0.5159,0.3929-0.7573,0.5751L234.9524,99.1588z M242.6475,104.8541
			c-0.6473,0-1.3087,0.0355-1.9844,0.1065c-0.6768,0.071-1.2934,0.2071-1.8483,0.4082c-0.555,0.2023-1.0094,0.4852-1.3632,0.8484
			s-0.5301,0.8283-0.5301,1.3939c0,0.8283,0.2781,1.4235,0.8331,1.7868c0.555,0.3633,1.3076,0.5455,2.2566,0.5455
			c0.7478,0,1.3833-0.1254,1.9087-0.3787c0.5254-0.252,0.949-0.5798,1.272-0.9845c0.323-0.4035,0.5562-0.8532,0.697-1.3478
			c0.1408-0.4946,0.2118-0.9845,0.2118-1.4697v-0.9088H242.6475z"/>
		<path class="st4" d="M259.732,90.3136h2.9086v21.4474h-2.9086V90.3136z"/>
		<path class="st4" d="M267.6696,88.8593h2.7263v22.9017h-2.7263V88.8593z"/>
		<path class="st4" d="M274.3033,92.253c0-0.5455,0.1964-1.0153,0.5905-1.4093s0.8626-0.5905,1.4081-0.5905
			s1.0153,0.1964,1.4093,0.5905c0.3929,0.394,0.5905,0.8638,0.5905,1.4093c0,0.5443-0.1976,1.0141-0.5905,1.4081
			c-0.394,0.394-0.8638,0.5905-1.4093,0.5905s-1.0141-0.1964-1.4081-0.5905C274.4997,93.2671,274.3033,92.7974,274.3033,92.253z
			 M274.9387,97.4028h2.7263v14.3582h-2.7263V97.4028z"/>
		<path class="st4" d="M281.9971,97.4028h2.5441v2.2412h0.0615c0.0604-0.2012,0.2166-0.4544,0.4686-0.7573
			c0.2532-0.3029,0.5763-0.5905,0.9703-0.8638c0.3929-0.2722,0.8579-0.5041,1.3928-0.6958s1.1253-0.2887,1.7726-0.2887
			c1.0697,0,1.969,0.2225,2.6956,0.6674c0.7278,0.4437,1.3229,1.1099,1.788,1.9986c0.4638-0.8887,1.1206-1.5549,1.969-1.9986
			c0.8472-0.4449,1.7063-0.6674,2.5749-0.6674c1.1099,0,2.0187,0.1822,2.7263,0.5455c0.7064,0.3633,1.2614,0.8437,1.6661,1.4389
			c0.4035,0.5964,0.6816,1.2721,0.833,2.0294s0.2272,1.5407,0.2272,2.3477v8.3612h-2.7263v-7.9968
			c0-0.5455-0.0355-1.0709-0.1065-1.5762c-0.071-0.5041-0.2177-0.949-0.439-1.3324c-0.2224-0.3834-0.536-0.6911-0.9395-0.9242
			c-0.4035-0.2319-0.9384-0.3479-1.6057-0.3479c-1.3123,0-2.2518,0.4035-2.8163,1.2117c-0.5656,0.8082-0.8484,1.8471-0.8484,3.1204
			v7.8453h-2.7263v-7.5128c0-0.6863-0.0355-1.3123-0.1065-1.8779c-0.071-0.5656-0.2118-1.0555-0.4236-1.4697
			c-0.2118-0.413-0.5147-0.736-0.9088-0.9691c-0.394-0.2319-0.9242-0.3479-1.5904-0.3479c-0.4851,0-0.9549,0.0958-1.4093,0.2875
			c-0.4544,0.1917-0.8532,0.4804-1.1963,0.8638c-0.3432,0.3834-0.6165,0.8733-0.8177,1.4685
			c-0.2024,0.5964-0.3029,1.2981-0.3029,2.1051v7.4525h-2.7263V97.4028z"/>
		<path class="st4" d="M307.3825,92.253c0-0.5455,0.1964-1.0153,0.5905-1.4093c0.394-0.394,0.8626-0.5905,1.4081-0.5905
			s1.0153,0.1964,1.4093,0.5905c0.3929,0.394,0.5905,0.8638,0.5905,1.4093c0,0.5443-0.1976,1.0141-0.5905,1.4081
			c-0.394,0.394-0.8638,0.5905-1.4093,0.5905s-1.0141-0.1964-1.4081-0.5905C307.579,93.2671,307.3825,92.7974,307.3825,92.253z
			 M308.018,97.4028h2.7263v14.3582h-2.7263V97.4028z"/>
		<path class="st4" d="M322.7702,99.7647h-3.9073v6.5129c0,0.4047,0.0095,0.8035,0.0308,1.1975
			c0.0189,0.3929,0.0947,0.7467,0.2272,1.0602c0.1302,0.3124,0.3325,0.5656,0.6059,0.7573
			c0.2722,0.1917,0.6709,0.2875,1.1963,0.2875c0.323,0,0.6555-0.0308,0.9999-0.0911c0.3431-0.0603,0.6555-0.1716,0.9384-0.3337
			v2.4849c-0.3231,0.181-0.7419,0.3077-1.2567,0.3787c-0.5147,0.0698-0.9147,0.1053-1.1963,0.1053
			c-1.0508,0-1.8637-0.1467-2.4388-0.439c-0.5763-0.2923-0.9999-0.6709-1.2721-1.136c-0.2733-0.4639-0.4355-0.9845-0.4851-1.5596
			c-0.0509-0.5763-0.0757-1.1561-0.0757-1.7418v-7.4832h-3.15v-2.3619h3.15v-4.0292h2.7263v4.0292h3.9073V99.7647z"/>
		<path class="st4" d="M326.345,99.1588c0.768-0.7064,1.6555-1.2366,2.666-1.5904c1.0094-0.3526,2.0187-0.5301,3.0293-0.5301
			c1.0496,0,1.9536,0.1325,2.7109,0.394c0.7573,0.2627,1.3786,0.6165,1.8637,1.0602c0.484,0.4449,0.8425,0.9549,1.0745,1.53
			c0.2319,0.5751,0.3491,1.1762,0.3491,1.8022v7.3306c0,0.5053,0.0095,0.9703,0.0296,1.3939
			c0.0201,0.4236,0.0509,0.8283,0.0911,1.2117h-2.4234c-0.0604-0.7265-0.0911-1.4543-0.0911-2.1808h-0.0603
			c-0.6059,0.9289-1.3229,1.5856-2.1501,1.969c-0.8283,0.3834-1.788,0.5751-2.8778,0.5751c-0.6674,0-1.3028-0.0911-1.9087-0.2722
			c-0.6058-0.1822-1.136-0.4544-1.5904-0.8177c-0.4544-0.3645-0.8129-0.8129-1.0756-1.349c-0.2627-0.5349-0.394-1.1549-0.394-1.8625
			c0-0.9289,0.2071-1.7063,0.6212-2.3323s0.9798-1.136,1.6969-1.53c0.7159-0.394,1.5548-0.6768,2.5133-0.8484
			c0.9597-0.1716,1.9844-0.2568,3.0754-0.2568h1.9986v-0.6059c0-0.3645-0.071-0.7277-0.2118-1.091s-0.3538-0.6911-0.6354-0.9845
			c-0.284-0.2923-0.6366-0.5254-1.0602-0.697c-0.4248-0.1716-0.9301-0.2568-1.5146-0.2568c-0.5254,0-0.9845,0.0497-1.3785,0.1515
			c-0.394,0.1006-0.7526,0.2272-1.0756,0.3787c-0.3231,0.1515-0.6165,0.3278-0.878,0.5301
			c-0.2627,0.2012-0.5159,0.3929-0.7573,0.5751L326.345,99.1588z M334.04,104.8541c-0.6473,0-1.3087,0.0355-1.9844,0.1065
			c-0.6768,0.071-1.2934,0.2071-1.8483,0.4082c-0.555,0.2023-1.0094,0.4852-1.3632,0.8484
			c-0.3538,0.3633-0.5301,0.8283-0.5301,1.3939c0,0.8283,0.2781,1.4235,0.833,1.7868s1.3076,0.5455,2.2566,0.5455
			c0.7479,0,1.3833-0.1254,1.9087-0.3787c0.5254-0.252,0.949-0.5798,1.2721-0.9845c0.3231-0.4035,0.5562-0.8532,0.697-1.3478
			c0.1408-0.4946,0.2118-0.9845,0.2118-1.4697v-0.9088H334.04z"/>
		<path class="st4" d="M356.3962,111.761h-2.7263v-2.0601h-0.0616c-0.5254,0.768-1.2472,1.3632-2.1654,1.788
			c-0.9194,0.4236-1.8625,0.6354-2.8328,0.6354c-1.11,0-2.1158-0.1917-3.0139-0.5751c-0.8981-0.3834-1.6661-0.9194-2.3015-1.6058
			c-0.6366-0.6863-1.1265-1.4839-1.4697-2.3926c-0.3432-0.9088-0.5147-1.898-0.5147-2.9689c0-1.0709,0.1716-2.0649,0.5147-2.9843
			c0.3431-0.9182,0.833-1.7158,1.4697-2.3926c0.6354-0.6769,1.4034-1.207,2.3015-1.5904c0.8981-0.3834,1.9039-0.5763,3.0139-0.5763
			c1.0306,0,1.9998,0.2177,2.9086,0.652c0.9088,0.4343,1.6057,1.0247,2.0897,1.7714h0.0616V88.8593h2.7263V111.761z
			 M348.9438,109.5802c0.7266,0,1.3833-0.1266,1.969-0.3787s1.0804-0.5952,1.4839-1.0307c0.4047-0.4331,0.7171-0.9585,0.9395-1.575
			c0.2225-0.6153,0.3337-1.2874,0.3337-2.014c0-0.7277-0.1112-1.3987-0.3337-2.0152c-0.2224-0.6153-0.5349-1.1407-0.9395-1.575
			c-0.4035-0.4343-0.8981-0.7774-1.4839-1.0295s-1.2425-0.3787-1.969-0.3787c-0.7265,0-1.3833,0.1266-1.969,0.3787
			c-0.5857,0.252-1.0804,0.5952-1.4839,1.0295c-0.4047,0.4343-0.7171,0.9597-0.9395,1.575
			c-0.2225,0.6165-0.3337,1.2874-0.3337,2.0152c0,0.7265,0.1112,1.3987,0.3337,2.014c0.2225,0.6165,0.5349,1.1419,0.9395,1.575
			c0.4035,0.4355,0.8981,0.7786,1.4839,1.0307C347.5605,109.4536,348.2172,109.5802,348.9438,109.5802z"/>
		<path class="st4" d="M360.5757,99.1588c0.768-0.7064,1.6554-1.2366,2.666-1.5904c1.0094-0.3526,2.0187-0.5301,3.0293-0.5301
			c1.0496,0,1.9536,0.1325,2.7109,0.394c0.7573,0.2627,1.3786,0.6165,1.8637,1.0602c0.484,0.4449,0.8425,0.9549,1.0744,1.53
			c0.2319,0.5751,0.3491,1.1762,0.3491,1.8022v7.3306c0,0.5053,0.0095,0.9703,0.0296,1.3939s0.0509,0.8283,0.0911,1.2117h-2.4234
			c-0.0604-0.7265-0.0911-1.4543-0.0911-2.1808h-0.0603c-0.6059,0.9289-1.3229,1.5856-2.1501,1.969
			c-0.8283,0.3834-1.788,0.5751-2.8778,0.5751c-0.6674,0-1.3028-0.0911-1.9087-0.2722c-0.6058-0.1822-1.136-0.4544-1.5904-0.8177
			c-0.4544-0.3645-0.8129-0.8129-1.0756-1.349c-0.2627-0.5349-0.394-1.1549-0.394-1.8625c0-0.9289,0.2071-1.7063,0.6212-2.3323
			s0.9798-1.136,1.6969-1.53c0.7159-0.394,1.5548-0.6768,2.5133-0.8484c0.9597-0.1716,1.9844-0.2568,3.0754-0.2568h1.9986v-0.6059
			c0-0.3645-0.071-0.7277-0.2118-1.091s-0.3538-0.6911-0.6354-0.9845c-0.284-0.2923-0.6366-0.5254-1.0602-0.697
			c-0.4248-0.1716-0.9301-0.2568-1.5146-0.2568c-0.5254,0-0.9845,0.0497-1.3785,0.1515c-0.394,0.1006-0.7526,0.2272-1.0756,0.3787
			c-0.3231,0.1515-0.6165,0.3278-0.878,0.5301c-0.2627,0.2012-0.5159,0.3929-0.7573,0.5751L360.5757,99.1588z M368.2707,104.8541
			c-0.6473,0-1.3087,0.0355-1.9844,0.1065c-0.6768,0.071-1.2934,0.2071-1.8483,0.4082c-0.555,0.2023-1.0094,0.4852-1.3632,0.8484
			c-0.3538,0.3633-0.5301,0.8283-0.5301,1.3939c0,0.8283,0.2781,1.4235,0.833,1.7868s1.3076,0.5455,2.2566,0.5455
			c0.7479,0,1.3833-0.1254,1.9087-0.3787c0.5254-0.252,0.949-0.5798,1.2721-0.9845c0.323-0.4035,0.5562-0.8532,0.697-1.3478
			c0.1408-0.4946,0.2118-0.9845,0.2118-1.4697v-0.9088H368.2707z"/>
	</g>
	<path class="st5" d="M27.3638,171.6323c-4.4396-4.7274-8.49-9.0405-11.9886-12.7659c10.0074-8.615,19.9188-17.1474,29.8303-25.6799
		c0.2526,0.2021,0.5053,0.4041,0.7579,0.6062C39.8587,146.2126,33.7537,158.6325,27.3638,171.6323"/>
	<path class="st5" d="M49.3442,174.7587c2.128-11.9923,4.0939-23.0711,6.0599-34.1502c0.3068-0.0823,0.6137-0.1647,0.9205-0.247
		c3.5445,9.9528,7.089,19.9055,10.8691,30.5199C61.3743,172.1455,55.8348,173.3487,49.3442,174.7587"/>
	<path class="st5" d="M35.6295,129.9774c-4.109,2.4311-8.218,4.8623-12.6887,7.5074c-1.9647-2.0899-3.8228-4.0664-5.928-6.3057
		c1.2094-0.3873,1.8218-0.7175,2.4557-0.7656c5.2843-0.4017,10.5726-0.7515,15.8596-1.117
		C35.4286,129.5234,35.529,129.7505,35.6295,129.9774z"/>
	<path class="st0" d="M94.0183,76.1524c1.981-19.3493-12.2965-51.0123-28.1398-62.4748c-1.2041-0.8712-2.5005-1.6513-3.8413-2.2908
		c-5.5327-2.6391-10.2459-1.4765-12.6314,2.9555c-0.0004-0.0007-0.0006-0.0016-0.0011-0.0024
		c-0.0016,0.0041-0.0035,0.0086-0.0052,0.0126c-0.2848,0.5306-0.5273,1.1196-0.7428,1.7428
		c-4.5503,9.8916-18.227,28.5215-25.9483,32.8183c-3.4874,1.9406-7.0333,3.8253-10.7066,5.3689
		c-3.6428,1.5308-5.576,4.0634-5.9114,7.8987c-0.9437,10.7948,2.9254,19.7306,11.348,26.2771
		c2.0219,1.5716,5.7924,2.5966,8.3094,2.0602c4.5781,5.2401,11.0777,12.2444,13.1074,14.9943
		c6.2287,8.4393,8.2654,8.8829,17.3266,3.7352c0.8674-0.4927,1.9045-0.8484,2.5383-1.5575
		c1.4182-1.5864,4.0327-4.4107,3.6874-4.8692c-1.547-2.0548-3.814-4.5525-6.0929-4.857c-4.1632-0.5563-7.2921-2.0877-9.6555-5.348
		c-1.1898-1.6415-3.561-4.0789-6.1057-5.9509c11.9578-1.9968,26.8088-2.508,37.3112-0.6403
		c0.1843,0.1135,0.3669,0.2324,0.5523,0.3421c7.6469,4.5239,13.773,1.4592,15.2814-7.2394
		C93.8689,78.1471,93.9148,77.1448,94.0183,76.1524z"/>
	<path class="st3" d="M93.125,71.4537c-0.1035,0.9923-0.1494,1.9948-0.3194,2.9755c-1.5085,8.6984-7.6346,11.7632-15.2814,7.2394
		c-3.3755-1.997-6.5655-4.6351-9.1499-7.5862C55.8664,59.7997,48.4824,43.1311,46.486,24.2311
		c-0.3775-3.5745,0.028-7.3492,0.7411-10.8971c1.48-7.3635,7.0733-9.9101,13.9166-6.6457c1.3408,0.6396,2.6372,1.4197,3.8413,2.2908
		C80.8284,20.4414,95.1059,52.1044,93.125,71.4537z M83.2244,73.9831c6.7665-14.8953-15.2386-58.5881-27.0989-58.683
		C50.8609,31.3476,70.5061,71.1047,83.2244,73.9831z"/>
	<path class="st3" d="M40.2545,24.3284c4.8632,9.4545,0.977,15.4919-6.0363,20.9848c-1.9565,1.5323-3.3914,5.0075-3.348,7.5623
		c0.1049,6.169,2.7111,11.764,7.4202,15.8211c1.7168,1.479,4.8472,2.4272,7.0512,2.0352c8.7776-1.5614,16.2763-0.8681,19.938,8.916
		c-13.9551-4.8689-26.6788,0.6279-39.6188,5.946c-2.4415,1.0034-6.8671-0.0864-9.1152-1.834
		C8.1227,77.2132,4.2536,68.2773,5.1973,57.4826c0.3353-3.8353,2.2686-6.368,5.9114-7.8987
		c3.6733-1.5436,7.2192-3.4282,10.7066-5.3689C30.021,39.6486,36.6991,33.5786,40.2545,24.3284z"/>
	<path class="st3" d="M29.2148,89.0156c2.9435-1.2925,5.2398-2.2084,7.4532-3.2934c3.6824-1.8053,6.6475-1.1855,9.0982,2.1954
		c2.3634,3.2605,5.4923,4.7919,9.6555,5.3481c2.2789,0.3045,4.5459,2.8022,6.0929,4.857c0.3453,0.4586-2.2693,3.2828-3.6874,4.8692
		c-0.634,0.7092-1.671,1.0649-2.5383,1.5575c-9.0611,5.1478-11.0978,4.7042-17.3266-3.7352
		C35.203,97.0756,32.4281,93.3485,29.2148,89.0156z"/>
	<path class="st3" d="M69.345,54.5847c-2.6457-5.9073-4.9138-10.9716-7.3913-16.5036c5.0196-0.808,7.9167,1.1775,9.7196,4.5257
		C73.7455,46.4552,73.1344,50.2378,69.345,54.5847z"/>
</g>
</svg>
