<?xml version="1.0" encoding="utf-8"?>
<!-- Generator: Adobe Illustrator 24.1.1, SVG Export Plug-In . SVG Version: 6.00 Build 0)  -->
<svg version="1.1" id="Capa_1" xmlns="http://www.w3.org/2000/svg" xmlns:xlink="http://www.w3.org/1999/xlink" x="0px" y="0px"
	 width="402.0798px" height="173.2881px" viewBox="0 0 402.0798 173.2881" style="enable-background:new 0 0 402.0798 173.2881;"
	 xml:space="preserve">
<style type="text/css">
	.st0{fill:#FFFFFF;}
	.st1{fill:#EDEDED;}
	.st2{fill:#00ABC3;}
	.st3{fill:#0030A6;}
	.st4{fill:#FFFFFF;stroke:#0030A6;stroke-miterlimit:10;}
	.st5{fill:none;stroke:#FFFFFF;stroke-width:2;stroke-linecap:round;stroke-linejoin:round;stroke-miterlimit:10;}
</style>
<g>
	<path class="st4" d="M23.504,168.4161c-4.4396-4.7274-8.49-9.0405-11.9886-12.7659c10.0074-8.6149,19.9188-17.1474,29.8303-25.6799
		c0.2526,0.2021,0.5053,0.4041,0.7579,0.6062C35.9988,142.9964,29.8939,155.4163,23.504,168.4161"/>
	<path class="st4" d="M45.4844,171.5425c2.128-11.9923,4.0939-23.0711,6.0599-34.1502c0.3068-0.0823,0.6137-0.1647,0.9205-0.247
		c3.5445,9.9528,7.089,19.9055,10.8691,30.5199C57.5144,168.9293,51.975,170.1326,45.4844,171.5425"/>
	<path class="st4" d="M31.7697,126.7612c-4.109,2.4311-8.218,4.8623-12.6887,7.5074c-1.9647-2.0899-3.8228-4.0664-5.928-6.3057
		c1.2094-0.3873,1.8218-0.7175,2.4557-0.7656c5.2843-0.4017,10.5726-0.7515,15.8596-1.117
		C31.5688,126.3073,31.6692,126.5343,31.7697,126.7612z"/>
	<path class="st1" d="M58.7649,119.1454l60.5116,4.1425l5.9816,33.4585l-61.1063-23.4975
		c-1.0618-0.4083-1.8588-1.3227-2.1313-2.4455l-1.3275-3.4261L58.7649,119.1454L58.7649,119.1454z"/>
	<path class="st0" d="M90.1584,72.9362c1.981-19.3493-12.2965-51.0123-28.1398-62.4748c-1.2041-0.8712-2.5005-1.6513-3.8413-2.2908
		c-5.5327-2.6391-10.2459-1.4765-12.6314,2.9555c-0.0004-0.0007-0.0006-0.0016-0.0011-0.0024
		c-0.0016,0.0041-0.0035,0.0086-0.0051,0.0126c-0.2848,0.5306-0.5273,1.1196-0.7428,1.7428
		c-4.5503,9.8916-18.227,28.5215-25.9483,32.8183c-3.4874,1.9406-7.0333,3.8253-10.7066,5.3689
		c-3.6428,1.5308-5.576,4.0634-5.9114,7.8987C1.287,69.7598,5.1561,78.6956,13.5787,85.2422
		c2.0219,1.5716,5.7924,2.5966,8.3094,2.0602c4.5781,5.2401,11.0777,12.2444,13.1074,14.9943
		c6.2287,8.4393,8.2654,8.8829,17.3266,3.7352c0.8674-0.4927,1.9045-0.8484,2.5383-1.5575
		c1.4182-1.5864,4.0327-4.4107,3.6874-4.8692c-1.547-2.0548-3.814-4.5525-6.0929-4.857c-4.1632-0.5563-7.2921-2.0877-9.6555-5.348
		c-1.1898-1.6415-3.561-4.0789-6.1057-5.9509c11.9578-1.9968,26.8088-2.508,37.3112-0.6403
		c0.1843,0.1135,0.3669,0.2324,0.5523,0.3421c7.6469,4.5239,13.773,1.4592,15.2814-7.2394
		C90.009,74.931,90.0549,73.9286,90.1584,72.9362z"/>
	<path class="st3" d="M89.2651,68.2375c-0.1035,0.9923-0.1494,1.9948-0.3194,2.9755c-1.5085,8.6984-7.6346,11.7632-15.2814,7.2394
		c-3.3755-1.997-6.5655-4.6351-9.1499-7.5862C52.0066,56.5836,44.6225,39.9149,42.6262,21.0149
		c-0.3775-3.5745,0.028-7.3492,0.7411-10.8971c1.48-7.3635,7.0733-9.9101,13.9166-6.6457c1.3408,0.6396,2.6372,1.4197,3.8413,2.2908
		C76.9685,17.2252,91.2461,48.8883,89.2651,68.2375z M79.3645,70.767c6.7665-14.8953-15.2386-58.5881-27.0989-58.683
		C47.001,28.1315,66.6462,67.8885,79.3645,70.767z"/>
	<path class="st3" d="M36.3946,21.1123c4.8632,9.4545,0.977,15.4919-6.0363,20.9848c-1.9565,1.5323-3.3914,5.0075-3.348,7.5623
		c0.1049,6.169,2.7111,11.764,7.4202,15.8211c1.7168,1.479,4.8472,2.4272,7.0512,2.0352c8.7776-1.5614,16.2763-0.8681,19.938,8.916
		c-13.9551-4.8689-26.6788,0.6279-39.6188,5.946c-2.4415,1.0034-6.8671-0.0864-9.1152-1.834
		C4.2628,73.997,0.3937,65.0612,1.3374,54.2664c0.3353-3.8353,2.2686-6.368,5.9114-7.8987
		c3.6733-1.5436,7.2192-3.4282,10.7066-5.3689C26.1611,36.4324,32.8393,30.3624,36.3946,21.1123z"/>
	<path class="st3" d="M25.355,85.7995c2.9435-1.2925,5.2398-2.2084,7.4532-3.2934c3.6824-1.8053,6.6475-1.1855,9.0982,2.1954
		c2.3634,3.2605,5.4923,4.7919,9.6555,5.3481c2.2789,0.3045,4.5459,2.8022,6.0929,4.857c0.3453,0.4586-2.2693,3.2828-3.6874,4.8692
		c-0.634,0.7092-1.671,1.0649-2.5383,1.5575c-9.0612,5.1478-11.0978,4.7042-17.3266-3.7352
		C31.3432,93.8595,28.5682,90.1324,25.355,85.7995z"/>
	<path class="st3" d="M65.4851,51.3686c-2.6457-5.9073-4.9138-10.9716-7.3913-16.5036c5.0196-0.808,7.9167,1.1775,9.7196,4.5257
		C69.8857,43.239,69.2746,47.0217,65.4851,51.3686z"/>
	<path class="st4" d="M88.7864,34.1481c0.8555,2.3037,1.7581,4.084,2.1771,5.9718c2.2227,10.0054,5.4404,19.954,6.2027,30.0811
		c1.1122,14.7748-7.6691,22.0139-22.1259,19.6412c-4.725-0.7755-9.2953-2.4861-13.9416-3.7506
		c-1.7581-0.4785-3.5394-1.2747-5.2927-1.231c-1.2584,0.0315-2.4879,1.2173-3.7305,1.8882c0.1487,0.43,0.2974,0.8598,0.446,1.2897
		c6.5884-0.0063,11.1646,3.2107,12.9233,9.1733c2.1868,7.4137-4.2905,9.9233-8.9492,13.2188
		c0.5349,2.3229,1.2725,4.3946,1.4475,6.5128c0.0994,1.2012,0.3438,2.2422,0.7142,3.1582l-0.005-0.0003
		c0.5349,2.3229,1.3358,3.7881,1.5109,5.9063c0.4163,5.0349,3.3097,7.3265,7.8898,8.8726
		c8.0313,2.7111,15.8558,6.0328,23.7765,9.0739c10.9475,4.2033,21.904,8.3834,33.4286,12.7922
		c-1.3514-8.3145-2.5844-15.9001-3.8684-23.7991l-1.8718-9.0764l-0.0023-0.0001c1.7668-0.0641,2.8533-0.1318,3.9304-0.1277
		c52.7686,0.1951,194.2002,1.1474,246.968,1.4749c3.6699,0.0228,5.1519-0.9227,6.0241-4.616
		c4.8595-20.5751,10.0604-41.0691,15.0828-61.606c1.8809-7.6906,3.5956-15.4217,5.5925-24.0231
		C323.5622,34.9612,162.1047,34.1599,88.7864,34.1481z"/>
	<path class="st1" d="M59.2254,118.3449l59.6735,4.1425l5.8987,33.4585l-60.26-23.4975c-1.0471-0.4083-1.833-1.3227-2.1018-2.4455
		l-1.3091-3.4261L59.2254,118.3449L59.2254,118.3449z"/>
	<g>
		<path class="st2" d="M108.7851,54.8415h6.5752c0.917,0,1.7832,0.084,2.6006,0.25c0.8164,0.167,1.5283,0.4541,2.1367,0.8623
			c0.6084,0.4092,1.0918,0.959,1.4502,1.6504s0.5381,1.5625,0.5381,2.6123c0,1.0342-0.167,1.9004-0.5,2.6006
			c-0.334,0.6992-0.792,1.2578-1.375,1.6748c-0.584,0.417-1.2754,0.7119-2.0752,0.8877c-0.7998,0.1748-1.667,0.2617-2.6006,0.2617
			h-2.8496v6.9004h-3.9004V54.8415z M112.6855,62.3415h2.5996c0.3506,0,0.6875-0.0332,1.0127-0.0996s0.6162-0.1787,0.875-0.3379
			c0.2588-0.1582,0.4668-0.375,0.625-0.6494c0.1582-0.2754,0.2373-0.6211,0.2373-1.0381c0-0.4502-0.1035-0.8125-0.3125-1.0869
			c-0.208-0.2754-0.4746-0.4883-0.7998-0.6377c-0.3252-0.1504-0.6875-0.2461-1.0869-0.2881
			c-0.4004-0.041-0.7842-0.0625-1.1504-0.0625h-2V62.3415z"/>
		<path class="st2" d="M123.6103,66.4665c0-0.9658,0.1748-1.8408,0.5244-2.625c0.3506-0.7832,0.8291-1.4541,1.4375-2.0127
			c0.6084-0.5576,1.3252-0.9873,2.1504-1.2871s1.7041-0.4502,2.6377-0.4502c0.9326,0,1.8125,0.1504,2.6377,0.4502
			c0.8242,0.2998,1.541,0.7295,2.1494,1.2871c0.6084,0.5586,1.0879,1.2295,1.4375,2.0127c0.3506,0.7842,0.5254,1.6592,0.5254,2.625
			c0,0.9668-0.1748,1.8418-0.5254,2.625c-0.3496,0.7842-0.8291,1.4541-1.4375,2.0127s-1.3252,0.9873-2.1494,1.2871
			c-0.8252,0.3008-1.7051,0.4502-2.6377,0.4502c-0.9336,0-1.8125-0.1494-2.6377-0.4502c-0.8252-0.2998-1.542-0.7285-2.1504-1.2871
			s-1.0869-1.2285-1.4375-2.0127C123.7851,68.3083,123.6103,67.4333,123.6103,66.4665z M127.3603,66.4665
			c0,0.917,0.2627,1.6592,0.7871,2.2256c0.5254,0.5664,1.2627,0.8496,2.2129,0.8496s1.6875-0.2832,2.2119-0.8496
			c0.5254-0.5664,0.7881-1.3086,0.7881-2.2256c0-0.916-0.2627-1.6582-0.7881-2.2246c-0.5244-0.5664-1.2617-0.8506-2.2119-0.8506
			s-1.6875,0.2842-2.2129,0.8506C127.623,64.8083,127.3603,65.5504,127.3603,66.4665z M130.3847,54.8415h5.1006l-4.3252,3.6006
			h-3.2998L130.3847,54.8415z"/>
		<path class="st2" d="M139.3593,53.6413h3.75v18.9004h-3.75V53.6413z"/>
		<path class="st2" d="M145.5595,56.567c0-0.6006,0.2129-1.1133,0.6377-1.5381s0.9375-0.6377,1.5371-0.6377
			c0.6006,0,1.1123,0.2129,1.5381,0.6377c0.4248,0.4248,0.6367,0.9375,0.6367,1.5381c0,0.5996-0.2119,1.1123-0.6367,1.5371
			c-0.4258,0.4248-0.9375,0.6377-1.5381,0.6377c-0.5996,0-1.1123-0.2129-1.5371-0.6377S145.5595,57.1666,145.5595,56.567z
			 M145.8593,60.3913h3.75v12.1504h-3.75V60.3913z"/>
		<path class="st2" d="M151.8349,68.7916l6.2998-5.4004h-6.1504v-3h10.5v3.6006l-6.5996,5.5498h6.75v3h-10.7998V68.7916z"/>
		<path class="st2" d="M172.4345,71.0163h-0.0498c-0.417,0.6504-0.9717,1.1172-1.6631,1.4004s-1.4209,0.4248-2.1875,0.4248
			c-0.5664,0-1.1123-0.0791-1.6367-0.2373c-0.5254-0.1582-0.9883-0.3955-1.3877-0.7129c-0.4004-0.3164-0.7168-0.708-0.9502-1.1748
			c-0.2334-0.4658-0.3496-1.0078-0.3496-1.625c0-0.7002,0.1289-1.291,0.3867-1.7744c0.2588-0.4834,0.6084-0.8838,1.0508-1.2002
			c0.4414-0.3164,0.9453-0.5625,1.5117-0.7373c0.5664-0.1758,1.1543-0.3047,1.7627-0.3877s1.2168-0.1338,1.8252-0.1504
			s1.1709-0.0244,1.6875-0.0244c0-0.667-0.2373-1.1963-0.7129-1.5879c-0.4746-0.3916-1.0371-0.5879-1.6875-0.5879
			c-0.6162,0-1.1787,0.1299-1.6875,0.3877c-0.5078,0.2588-0.9619,0.6123-1.3623,1.0625l-2-2.0498
			c0.7002-0.6504,1.5166-1.1377,2.4502-1.4629c0.9336-0.3242,1.9004-0.4873,2.9004-0.4873c1.0996,0,2.0039,0.1377,2.7119,0.4131
			c0.708,0.2744,1.2754,0.6787,1.7002,1.2119c0.4248,0.5342,0.7207,1.1875,0.8877,1.9629c0.166,0.7744,0.25,1.6709,0.25,2.6875
			v6.1748h-3.4502V71.0163z M171.5097,67.2165c-0.2842,0-0.6377,0.0127-1.0625,0.0381c-0.4248,0.0244-0.834,0.0957-1.2256,0.2119
			c-0.3916,0.1172-0.7246,0.292-1,0.5254c-0.2744,0.2334-0.4121,0.5586-0.4121,0.9746c0,0.4502,0.1914,0.7842,0.5752,1
			c0.3828,0.2168,0.7832,0.3252,1.2002,0.3252c0.3662,0,0.7207-0.0498,1.0625-0.1504c0.3408-0.0996,0.6455-0.2412,0.9121-0.4248
			c0.2666-0.1826,0.4785-0.416,0.6377-0.7002c0.1582-0.2832,0.2373-0.6162,0.2373-1v-0.7998H171.5097z"/>
		<path class="st2" d="M198.3847,72.5416h-3.4502V70.942h-0.0498c-0.1504,0.2168-0.3467,0.4375-0.5879,0.6621
			c-0.2422,0.2246-0.5254,0.4297-0.8496,0.6123c-0.3252,0.1836-0.6836,0.333-1.0752,0.4502
			c-0.3916,0.1162-0.7959,0.1748-1.2129,0.1748c-0.8994,0-1.7168-0.1543-2.4502-0.4619c-0.7334-0.3086-1.3623-0.7422-1.8867-1.3008
			c-0.5254-0.5576-0.9297-1.2207-1.2129-1.9873s-0.4248-1.6084-0.4248-2.5244c0-0.8506,0.1289-1.6631,0.3877-2.4375
			c0.2578-0.7754,0.625-1.4629,1.0996-2.0625c0.4746-0.6006,1.0537-1.0791,1.7373-1.4375s1.458-0.5381,2.3252-0.5381
			c0.7832,0,1.5127,0.1211,2.1875,0.3623c0.6748,0.2422,1.2285,0.6543,1.6621,1.2383h0.0508v-8.0508h3.75V72.5416z
			 M194.9345,66.4665c0-0.916-0.2627-1.6582-0.7881-2.2246c-0.5244-0.5664-1.2617-0.8506-2.2119-0.8506
			s-1.6875,0.2842-2.2129,0.8506c-0.5244,0.5664-0.7871,1.3086-0.7871,2.2246c0,0.917,0.2627,1.6592,0.7871,2.2256
			c0.5254,0.5664,1.2627,0.8496,2.2129,0.8496s1.6875-0.2832,2.2119-0.8496C194.6718,68.1256,194.9345,67.3834,194.9345,66.4665z"/>
		<path class="st2" d="M212.8838,70.442c-0.5996,0.7666-1.3584,1.3584-2.2754,1.7744c-0.916,0.417-1.8662,0.625-2.8496,0.625
			c-0.9336,0-1.8125-0.1494-2.6377-0.4502c-0.8252-0.2998-1.542-0.7285-2.1494-1.2871c-0.6094-0.5586-1.0879-1.2285-1.4375-2.0127
			c-0.3506-0.7832-0.5254-1.6582-0.5254-2.625c0-0.9658,0.1748-1.8408,0.5254-2.625c0.3496-0.7832,0.8281-1.4541,1.4375-2.0127
			c0.6074-0.5576,1.3242-0.9873,2.1494-1.2871s1.7041-0.4502,2.6377-0.4502c0.8662,0,1.6543,0.1504,2.3623,0.4502
			s1.3086,0.7295,1.7998,1.2871c0.4922,0.5586,0.8711,1.2295,1.1377,2.0127c0.2666,0.7842,0.4004,1.6592,0.4004,2.625v1.1748
			h-8.7002c0.1504,0.7168,0.4746,1.2881,0.9746,1.7129s1.1172,0.6377,1.8506,0.6377c0.6162,0,1.1377-0.1377,1.5625-0.4131
			c0.4248-0.2744,0.7959-0.6289,1.1123-1.0625L212.8838,70.442z M209.709,65.0915c0.0166-0.6328-0.1924-1.1748-0.625-1.625
			c-0.4336-0.4502-0.9922-0.6748-1.6748-0.6748c-0.417,0-0.7842,0.0664-1.1006,0.2002s-0.5869,0.3037-0.8125,0.5127
			c-0.2246,0.208-0.3994,0.4492-0.5244,0.7246s-0.1963,0.5625-0.2129,0.8623H209.709z"/>
		<path class="st2" d="M221.8584,60.3913h4.0498l3.0752,8.25h0.0498l2.8506-8.25h3.7744l-4.7998,12.1504h-3.9746L221.8584,60.3913z"
			/>
		<path class="st2" d="M236.7832,56.567c0-0.6006,0.2129-1.1133,0.6377-1.5381s0.9375-0.6377,1.5371-0.6377
			c0.6006,0,1.1123,0.2129,1.5381,0.6377c0.4248,0.4248,0.6367,0.9375,0.6367,1.5381c0,0.5996-0.2119,1.1123-0.6367,1.5371
			c-0.4258,0.4248-0.9375,0.6377-1.5381,0.6377c-0.5996,0-1.1123-0.2129-1.5371-0.6377S236.7832,57.1666,236.7832,56.567z
			 M237.083,60.3913h3.75v12.1504h-3.75V60.3913z"/>
		<path class="st2" d="M256.2832,72.5416h-3.4502V70.942h-0.0498c-0.1504,0.2168-0.3457,0.4375-0.5879,0.6621
			c-0.2412,0.2246-0.5244,0.4297-0.8496,0.6123c-0.3252,0.1836-0.6836,0.333-1.0752,0.4502
			c-0.3916,0.1162-0.7959,0.1748-1.2119,0.1748c-0.9004,0-1.7168-0.1543-2.4502-0.4619c-0.7334-0.3086-1.3623-0.7422-1.8877-1.3008
			c-0.5254-0.5576-0.9297-1.2207-1.2129-1.9873s-0.4248-1.6084-0.4248-2.5244c0-0.8506,0.1289-1.6631,0.3877-2.4375
			c0.2578-0.7754,0.625-1.4629,1.0996-2.0625c0.4756-0.6006,1.0547-1.0791,1.7383-1.4375c0.6826-0.3584,1.458-0.5381,2.3242-0.5381
			c0.7832,0,1.5127,0.1211,2.1875,0.3623c0.6758,0.2422,1.2295,0.6543,1.6631,1.2383h0.0498v-8.0508h3.75V72.5416z M252.833,66.4665
			c0-0.916-0.2627-1.6582-0.7871-2.2246c-0.5254-0.5664-1.2627-0.8506-2.2129-0.8506s-1.6875,0.2842-2.2119,0.8506
			c-0.5254,0.5664-0.7881,1.3086-0.7881,2.2246c0,0.917,0.2627,1.6592,0.7881,2.2256c0.5244,0.5664,1.2617,0.8496,2.2119,0.8496
			s1.6875-0.2832,2.2129-0.8496C252.5703,68.1256,252.833,67.3834,252.833,66.4665z"/>
		<path class="st2" d="M266.9082,71.0163h-0.0508c-0.416,0.6504-0.9707,1.1172-1.6621,1.4004s-1.4209,0.4248-2.1875,0.4248
			c-0.5664,0-1.1123-0.0791-1.6377-0.2373c-0.5244-0.1582-0.9873-0.3955-1.3877-0.7129c-0.3994-0.3164-0.7168-0.708-0.9492-1.1748
			c-0.2344-0.4658-0.3506-1.0078-0.3506-1.625c0-0.7002,0.1289-1.291,0.3877-1.7744c0.2578-0.4834,0.6084-0.8838,1.0498-1.2002
			s0.9463-0.5625,1.5127-0.7373c0.5664-0.1758,1.1543-0.3047,1.7627-0.3877s1.2158-0.1338,1.8252-0.1504
			c0.6074-0.0166,1.1699-0.0244,1.6875-0.0244c0-0.667-0.2383-1.1963-0.7129-1.5879s-1.0371-0.5879-1.6875-0.5879
			c-0.6172,0-1.1797,0.1299-1.6875,0.3877c-0.5088,0.2588-0.9629,0.6123-1.3623,1.0625l-2-2.0498
			c0.7002-0.6504,1.5166-1.1377,2.4502-1.4629c0.9326-0.3242,1.8994-0.4873,2.8994-0.4873c1.1006,0,2.0039,0.1377,2.7129,0.4131
			c0.708,0.2744,1.2744,0.6787,1.7002,1.2119c0.4248,0.5342,0.7207,1.1875,0.8867,1.9629c0.167,0.7744,0.25,1.6709,0.25,2.6875
			v6.1748h-3.4492V71.0163z M265.9824,67.2165c-0.2832,0-0.6367,0.0127-1.0625,0.0381c-0.4248,0.0244-0.833,0.0957-1.2246,0.2119
			c-0.3916,0.1172-0.7246,0.292-1,0.5254s-0.4121,0.5586-0.4121,0.9746c0,0.4502,0.1914,0.7842,0.5742,1
			c0.3838,0.2168,0.7832,0.3252,1.2002,0.3252c0.3662,0,0.7207-0.0498,1.0625-0.1504c0.3418-0.0996,0.6455-0.2412,0.9131-0.4248
			c0.2656-0.1826,0.4785-0.416,0.6367-0.7002c0.1582-0.2832,0.2383-0.6162,0.2383-1v-0.7998H265.9824z"/>
		<path class="st2" d="M280.457,60.3913h3.4502v1.6006h0.0498c0.1504-0.2168,0.3457-0.4375,0.5879-0.6631
			c0.2412-0.2246,0.5254-0.4287,0.8496-0.6123c0.3252-0.1826,0.6797-0.333,1.0625-0.4502c0.3838-0.1162,0.792-0.1748,1.2256-0.1748
			c0.8994,0,1.7158,0.1543,2.4502,0.4629c0.7324,0.3086,1.3623,0.7412,1.8867,1.2998c0.5254,0.5586,0.9297,1.2207,1.2129,1.9873
			s0.4248,1.6084,0.4248,2.5254c0,0.8496-0.1289,1.6621-0.3877,2.4375c-0.2578,0.7744-0.625,1.4619-1.0996,2.0625
			c-0.4746,0.5996-1.0547,1.0791-1.7373,1.4375c-0.6836,0.3584-1.459,0.5371-2.3252,0.5371c-0.7832,0-1.5127-0.1211-2.1875-0.3623
			s-1.2295-0.6543-1.6621-1.2373h-0.0508v7h-3.75V60.3913z M283.9072,66.4665c0,0.917,0.2627,1.6592,0.7881,2.2256
			c0.5244,0.5664,1.2617,0.8496,2.2119,0.8496s1.6875-0.2832,2.2129-0.8496c0.5244-0.5664,0.7871-1.3086,0.7871-2.2256
			c0-0.916-0.2627-1.6582-0.7871-2.2246c-0.5254-0.5664-1.2627-0.8506-2.2129-0.8506s-1.6875,0.2842-2.2119,0.8506
			C284.1699,64.8083,283.9072,65.5504,283.9072,66.4665z"/>
		<path class="st2" d="M295.4072,66.4665c0-0.9658,0.1748-1.8408,0.5244-2.625c0.3506-0.7832,0.8291-1.4541,1.4375-2.0127
			c0.6084-0.5576,1.3252-0.9873,2.1504-1.2871s1.7041-0.4502,2.6377-0.4502c0.9326,0,1.8125,0.1504,2.6377,0.4502
			c0.8242,0.2998,1.541,0.7295,2.1494,1.2871c0.6084,0.5586,1.0879,1.2295,1.4375,2.0127c0.3506,0.7842,0.5254,1.6592,0.5254,2.625
			c0,0.9668-0.1748,1.8418-0.5254,2.625c-0.3496,0.7842-0.8291,1.4541-1.4375,2.0127s-1.3252,0.9873-2.1494,1.2871
			c-0.8252,0.3008-1.7051,0.4502-2.6377,0.4502c-0.9336,0-1.8125-0.1494-2.6377-0.4502c-0.8252-0.2998-1.542-0.7285-2.1504-1.2871
			s-1.0869-1.2285-1.4375-2.0127C295.582,68.3083,295.4072,67.4333,295.4072,66.4665z M299.1572,66.4665
			c0,0.917,0.2627,1.6592,0.7871,2.2256c0.5254,0.5664,1.2627,0.8496,2.2129,0.8496s1.6875-0.2832,2.2119-0.8496
			c0.5254-0.5664,0.7881-1.3086,0.7881-2.2256c0-0.916-0.2627-1.6582-0.7881-2.2246c-0.5244-0.5664-1.2617-0.8506-2.2119-0.8506
			s-1.6875,0.2842-2.2129,0.8506C299.4199,64.8083,299.1572,65.5504,299.1572,66.4665z"/>
		<path class="st2" d="M311.1064,60.3913h3.75v1.9502h0.0498c0.4004-0.75,0.875-1.3125,1.4248-1.6875
			c0.5508-0.375,1.2422-0.5625,2.0752-0.5625c0.2168,0,0.4336,0.0088,0.6504,0.0254c0.2158,0.0166,0.416,0.0498,0.5996,0.0996
			v3.4248c-0.2666-0.083-0.5293-0.1455-0.7871-0.1875c-0.2588-0.041-0.5293-0.0625-0.8125-0.0625
			c-0.7168,0-1.2842,0.1006-1.7002,0.3008c-0.417,0.1992-0.7373,0.4785-0.9629,0.8369c-0.2246,0.3584-0.3711,0.7881-0.4375,1.2881
			s-0.0996,1.0498-0.0996,1.6494v5.0752h-3.75V60.3913z"/>
		<path class="st2" d="M114.4853,84.5416c0.917,0,1.8125,0.1543,2.6875,0.4629s1.6289,0.7959,2.2627,1.4619l-1.7998,1.75
			c-0.3838-0.4834-0.8467-0.8623-1.3877-1.1377c-0.542-0.2744-1.1289-0.4199-1.7627-0.4375v5.9004l-0.0498,0.0254
			c0.7168,0.1992,1.4043,0.4209,2.0625,0.6621c0.6582,0.2422,1.2373,0.5498,1.7373,0.9248s0.9004,0.8467,1.2002,1.4131
			s0.4502,1.2744,0.4502,2.125c0,0.7666-0.1465,1.458-0.4375,2.0742c-0.292,0.6172-0.6836,1.1465-1.1748,1.5879
			c-0.4922,0.4414-1.0674,0.7871-1.7256,1.0371s-1.3457,0.4004-2.0625,0.4502v1.7998h-1.3496v-1.7998
			c-1.1006,0-2.1211-0.1787-3.0625-0.5371c-0.9424-0.3584-1.7549-0.9795-2.4375-1.8623l1.9248-1.7256
			c0.3828,0.6338,0.9004,1.1211,1.5498,1.4629c0.6504,0.3418,1.3252,0.5293,2.0254,0.5625v-6.1504
			c-0.6836-0.166-1.3291-0.3789-1.9375-0.6377c-0.6084-0.2578-1.1504-0.5869-1.625-0.9873
			c-0.4756-0.3994-0.8506-0.8828-1.125-1.4502c-0.2754-0.5664-0.4131-1.25-0.4131-2.0498c0-0.7158,0.1416-1.3623,0.4258-1.9375
			c0.2832-0.5752,0.6582-1.0752,1.125-1.5c0.4658-0.4248,1.0078-0.7666,1.625-1.0244c0.6162-0.2588,1.2578-0.4131,1.9248-0.4629
			v-1.7998h1.3496V84.5416z M113.1357,86.6413c-0.7998,0.1338-1.4502,0.4375-1.9502,0.9131c-0.5,0.4746-0.75,1.1123-0.75,1.9121
			c0,0.4004,0.0752,0.7461,0.2246,1.0381c0.1504,0.291,0.3506,0.5459,0.6006,0.7617c0.25,0.2168,0.5371,0.4004,0.8623,0.5508
			c0.3252,0.1494,0.6621,0.2744,1.0127,0.375V86.6413z M114.4853,100.7418c0.417-0.0498,0.8037-0.1504,1.1631-0.2998
			c0.3574-0.1504,0.6748-0.3506,0.9492-0.6006c0.2754-0.25,0.4922-0.5459,0.6504-0.8877c0.1582-0.3408,0.2373-0.7285,0.2373-1.1621
			s-0.0869-0.8037-0.2627-1.1123c-0.1748-0.3086-0.3994-0.5713-0.6748-0.7881c-0.2744-0.2158-0.5957-0.3994-0.9619-0.5498
			c-0.3672-0.1494-0.7344-0.2832-1.1006-0.3994V100.7418z"/>
		<path class="st2" d="M132.6601,87.0915h-7.1748l-0.0752,4.4248c0.1172-0.0498,0.2832-0.0996,0.5-0.1494
			s0.4375-0.0918,0.6631-0.125c0.2246-0.0332,0.4453-0.0586,0.6621-0.0752s0.4004-0.0254,0.5498-0.0254
			c0.834,0,1.5879,0.1426,2.2627,0.4258s1.2539,0.6836,1.7373,1.1992c0.4834,0.5176,0.8545,1.1338,1.1133,1.8506
			c0.2578,0.7168,0.3867,1.5088,0.3867,2.375c0,0.8838-0.1621,1.6836-0.4873,2.3994c-0.3252,0.7168-0.7705,1.334-1.3369,1.8506
			c-0.5674,0.5166-1.2256,0.9121-1.9756,1.1875c-0.75,0.2744-1.5586,0.4121-2.4248,0.4121c-1.2002,0-2.2832-0.3076-3.25-0.9248
			c-0.9668-0.6162-1.6582-1.5-2.0752-2.6504l2.4004-0.8242c0.3174,0.8164,0.7441,1.4043,1.2793,1.7617
			c0.5352,0.3594,1.2041,0.5381,2.0078,0.5381c0.4678,0,0.916-0.083,1.3428-0.25c0.4258-0.167,0.7939-0.4043,1.1035-0.7129
			c0.3096-0.3076,0.5566-0.6875,0.7402-1.1377c0.1836-0.4492,0.2764-0.958,0.2764-1.5244c0-1.2998-0.3965-2.2705-1.1875-2.9131
			c-0.792-0.6406-1.8213-0.9619-3.0879-0.9619c-0.4502,0-1.0205,0.0791-1.7119,0.2373c-0.6924,0.1582-1.3379,0.3877-1.9375,0.6875
			l0.1992-9.3252h9.5V87.0915z"/>
		<path class="st2" d="M135.6357,93.692c0-0.6504,0.0332-1.3252,0.0996-2.0254s0.1875-1.3877,0.3623-2.0625
			s0.4082-1.3203,0.7002-1.9375c0.291-0.6162,0.666-1.1543,1.125-1.6123c0.458-0.458,1-0.8252,1.625-1.1006
			c0.625-0.2744,1.3535-0.4121,2.1875-0.4121c0.833,0,1.5625,0.1377,2.1875,0.4121c0.625,0.2754,1.166,0.6426,1.625,1.1006
			c0.458,0.458,0.833,0.9961,1.125,1.6123c0.291,0.6172,0.5254,1.2627,0.7002,1.9375s0.2959,1.3623,0.3623,2.0625
			s0.0996,1.375,0.0996,2.0254c0,0.9336-0.083,1.9336-0.25,3c-0.166,1.0664-0.4746,2.0586-0.9248,2.9746
			c-0.4502,0.917-1.0713,1.6748-1.8623,2.2754c-0.792,0.5996-1.8125,0.8994-3.0625,0.8994s-2.2715-0.2998-3.0625-0.8994
			c-0.792-0.6006-1.4121-1.3584-1.8623-2.2754c-0.4502-0.916-0.7588-1.9082-0.9248-2.9746
			C135.7187,95.6256,135.6357,94.6256,135.6357,93.692z M138.0351,93.692c0,0.583,0.0381,1.2744,0.1123,2.0742
			c0.0752,0.8008,0.2383,1.5713,0.4883,2.3125c0.25,0.7422,0.6201,1.3711,1.1123,1.8877c0.4912,0.5166,1.1533,0.7754,1.9873,0.7754
			c0.833,0,1.4961-0.2588,1.9873-0.7754s0.8623-1.1455,1.1123-1.8877c0.25-0.7412,0.4131-1.5117,0.4883-2.3125
			c0.0742-0.7998,0.1123-1.4912,0.1123-2.0742c0-0.4004-0.0127-0.8545-0.0381-1.3633c-0.0244-0.5078-0.083-1.0244-0.1748-1.5498
			c-0.0918-0.5244-0.2207-1.0332-0.3877-1.5244c-0.166-0.4922-0.3867-0.9336-0.6621-1.3252s-0.6123-0.7041-1.0127-0.9375
			c-0.3994-0.2334-0.875-0.3506-1.4248-0.3506s-1.0254,0.1172-1.4248,0.3506c-0.4004,0.2334-0.7373,0.5459-1.0127,0.9375
			s-0.4961,0.833-0.6621,1.3252c-0.167,0.4912-0.2969,1-0.3877,1.5244c-0.0918,0.5254-0.1504,1.042-0.1748,1.5498
			C138.0478,92.8375,138.0351,93.2916,138.0351,93.692z"/>
		<path class="st2" d="M151.9355,105.8415h-2.0498l1.7246-6.1494h2.4004L151.9355,105.8415z"/>
		<path class="st2" d="M156.4853,93.692c0-0.6504,0.0332-1.3252,0.1006-2.0254c0.0664-0.7002,0.1875-1.3877,0.3623-2.0625
			s0.4082-1.3203,0.7002-1.9375c0.291-0.6162,0.666-1.1543,1.125-1.6123c0.458-0.458,1-0.8252,1.625-1.1006
			c0.625-0.2744,1.3535-0.4121,2.1875-0.4121c0.833,0,1.5625,0.1377,2.1875,0.4121c0.625,0.2754,1.166,0.6426,1.625,1.1006
			c0.458,0.458,0.833,0.9961,1.125,1.6123c0.291,0.6172,0.5244,1.2627,0.6992,1.9375c0.1758,0.6748,0.2959,1.3623,0.3633,2.0625
			c0.0664,0.7002,0.0996,1.375,0.0996,2.0254c0,0.9336-0.084,1.9336-0.25,3c-0.167,1.0664-0.4746,2.0586-0.9248,2.9746
			c-0.4502,0.917-1.0713,1.6748-1.8623,2.2754c-0.792,0.5996-1.8125,0.8994-3.0625,0.8994s-2.2715-0.2998-3.0625-0.8994
			c-0.792-0.6006-1.4131-1.3584-1.8633-2.2754c-0.4492-0.916-0.7578-1.9082-0.9248-2.9746S156.4853,94.6256,156.4853,93.692z
			 M158.8857,93.692c0,0.583,0.0371,1.2744,0.1123,2.0742c0.0752,0.8008,0.2373,1.5713,0.4873,2.3125
			c0.25,0.7422,0.6211,1.3711,1.1123,1.8877c0.4922,0.5166,1.1543,0.7754,1.9883,0.7754c0.833,0,1.4951-0.2588,1.9873-0.7754
			c0.4912-0.5166,0.8623-1.1455,1.1123-1.8877c0.25-0.7412,0.4121-1.5117,0.4873-2.3125c0.0752-0.7998,0.1123-1.4912,0.1123-2.0742
			c0-0.4004-0.0117-0.8545-0.0371-1.3633c-0.0254-0.5078-0.084-1.0244-0.1748-1.5498c-0.0918-0.5244-0.2217-1.0332-0.3877-1.5244
			c-0.167-0.4922-0.3877-0.9336-0.6621-1.3252c-0.2754-0.3916-0.6133-0.7041-1.0127-0.9375
			c-0.4004-0.2334-0.875-0.3506-1.4248-0.3506c-0.5508,0-1.0254,0.1172-1.4258,0.3506c-0.3994,0.2334-0.7373,0.5459-1.0117,0.9375
			c-0.2754,0.3916-0.4961,0.833-0.6631,1.3252c-0.167,0.4912-0.2959,1-0.3877,1.5244c-0.0918,0.5254-0.1494,1.042-0.1748,1.5498
			C158.8984,92.8375,158.8857,93.2916,158.8857,93.692z"/>
		<path class="st2" d="M170.3857,93.692c0-0.6504,0.0332-1.3252,0.0996-2.0254s0.1875-1.3877,0.3623-2.0625
			s0.4082-1.3203,0.7002-1.9375c0.291-0.6162,0.666-1.1543,1.125-1.6123c0.458-0.458,1-0.8252,1.625-1.1006
			c0.625-0.2744,1.3535-0.4121,2.1875-0.4121c0.833,0,1.5625,0.1377,2.1875,0.4121c0.625,0.2754,1.166,0.6426,1.625,1.1006
			c0.458,0.458,0.833,0.9961,1.125,1.6123c0.291,0.6172,0.5254,1.2627,0.7002,1.9375s0.2959,1.3623,0.3623,2.0625
			s0.0996,1.375,0.0996,2.0254c0,0.9336-0.083,1.9336-0.25,3c-0.166,1.0664-0.4746,2.0586-0.9248,2.9746
			c-0.4502,0.917-1.0713,1.6748-1.8623,2.2754c-0.792,0.5996-1.8125,0.8994-3.0625,0.8994s-2.2715-0.2998-3.0625-0.8994
			c-0.792-0.6006-1.4121-1.3584-1.8623-2.2754c-0.4502-0.916-0.7588-1.9082-0.9248-2.9746
			C170.4687,95.6256,170.3857,94.6256,170.3857,93.692z M172.7851,93.692c0,0.583,0.0381,1.2744,0.1123,2.0742
			c0.0752,0.8008,0.2383,1.5713,0.4883,2.3125c0.25,0.7422,0.6201,1.3711,1.1123,1.8877c0.4912,0.5166,1.1533,0.7754,1.9873,0.7754
			c0.833,0,1.4961-0.2588,1.9873-0.7754s0.8623-1.1455,1.1123-1.8877c0.25-0.7412,0.4131-1.5117,0.4883-2.3125
			c0.0742-0.7998,0.1123-1.4912,0.1123-2.0742c0-0.4004-0.0127-0.8545-0.0381-1.3633c-0.0244-0.5078-0.083-1.0244-0.1748-1.5498
			c-0.0918-0.5244-0.2207-1.0332-0.3877-1.5244c-0.166-0.4922-0.3867-0.9336-0.6621-1.3252s-0.6123-0.7041-1.0127-0.9375
			c-0.3994-0.2334-0.875-0.3506-1.4248-0.3506s-1.0254,0.1172-1.4248,0.3506c-0.4004,0.2334-0.7373,0.5459-1.0127,0.9375
			s-0.4961,0.833-0.6621,1.3252c-0.167,0.4912-0.2969,1-0.3877,1.5244c-0.0918,0.5254-0.1504,1.042-0.1748,1.5498
			C172.7978,92.8375,172.7851,93.2916,172.7851,93.692z"/>
		<path class="st2" d="M184.2851,93.692c0-0.6504,0.0332-1.3252,0.1006-2.0254c0.0664-0.7002,0.1875-1.3877,0.3623-2.0625
			s0.4082-1.3203,0.7002-1.9375c0.291-0.6162,0.666-1.1543,1.125-1.6123c0.458-0.458,1-0.8252,1.625-1.1006
			c0.625-0.2744,1.3535-0.4121,2.1875-0.4121c0.833,0,1.5625,0.1377,2.1875,0.4121c0.625,0.2754,1.166,0.6426,1.625,1.1006
			c0.458,0.458,0.833,0.9961,1.125,1.6123c0.291,0.6172,0.5244,1.2627,0.6992,1.9375c0.1758,0.6748,0.2959,1.3623,0.3633,2.0625
			c0.0664,0.7002,0.0996,1.375,0.0996,2.0254c0,0.9336-0.084,1.9336-0.25,3c-0.167,1.0664-0.4746,2.0586-0.9248,2.9746
			c-0.4502,0.917-1.0713,1.6748-1.8623,2.2754c-0.792,0.5996-1.8125,0.8994-3.0625,0.8994s-2.2715-0.2998-3.0625-0.8994
			c-0.792-0.6006-1.4131-1.3584-1.8633-2.2754c-0.4492-0.916-0.7578-1.9082-0.9248-2.9746S184.2851,94.6256,184.2851,93.692z
			 M186.6855,93.692c0,0.583,0.0371,1.2744,0.1123,2.0742c0.0752,0.8008,0.2373,1.5713,0.4873,2.3125
			c0.25,0.7422,0.6211,1.3711,1.1123,1.8877c0.4922,0.5166,1.1543,0.7754,1.9883,0.7754c0.833,0,1.4951-0.2588,1.9873-0.7754
			c0.4912-0.5166,0.8623-1.1455,1.1123-1.8877c0.25-0.7412,0.4121-1.5117,0.4873-2.3125c0.0752-0.7998,0.1123-1.4912,0.1123-2.0742
			c0-0.4004-0.0117-0.8545-0.0371-1.3633c-0.0254-0.5078-0.084-1.0244-0.1748-1.5498c-0.0918-0.5244-0.2217-1.0332-0.3877-1.5244
			c-0.167-0.4922-0.3877-0.9336-0.6621-1.3252c-0.2754-0.3916-0.6133-0.7041-1.0127-0.9375
			c-0.4004-0.2334-0.875-0.3506-1.4248-0.3506c-0.5508,0-1.0254,0.1172-1.4258,0.3506c-0.3994,0.2334-0.7373,0.5459-1.0117,0.9375
			c-0.2754,0.3916-0.4961,0.833-0.6631,1.3252c-0.167,0.4912-0.2959,1-0.3877,1.5244c-0.0918,0.5254-0.1494,1.042-0.1748,1.5498
			C186.6982,92.8375,186.6855,93.2916,186.6855,93.692z"/>
		<path class="st2" d="M205.9853,90.692h2.25v1.6992h0.0498c0.4336-0.6328,1.0293-1.125,1.7881-1.4746
			c0.7578-0.3496,1.5371-0.5254,2.3369-0.5254c0.917,0,1.7461,0.1592,2.4873,0.4756c0.7422,0.3164,1.375,0.7588,1.9004,1.3252
			s0.9287,1.2285,1.2129,1.9873c0.2832,0.7588,0.4248,1.5713,0.4248,2.4375c0,0.8838-0.1416,1.7041-0.4248,2.4619
			c-0.2842,0.7588-0.6875,1.417-1.2129,1.9756s-1.1582,0.9961-1.9004,1.3125c-0.7412,0.3164-1.5703,0.4746-2.4873,0.4746
			c-0.8496,0-1.6494-0.1787-2.3994-0.5371s-1.3252-0.8457-1.7256-1.4629h-0.0498v8.75h-2.25V90.692z M212.1357,92.4918
			c-0.6006,0-1.1426,0.1045-1.625,0.3125c-0.4844,0.208-0.8926,0.4912-1.2256,0.8496s-0.5918,0.792-0.7744,1.2998
			c-0.1836,0.5088-0.2754,1.0625-0.2754,1.6631c0,0.5996,0.0918,1.1543,0.2754,1.6621c0.1826,0.5088,0.4414,0.9424,0.7744,1.2998
			c0.333,0.3594,0.7412,0.6426,1.2256,0.8506c0.4824,0.208,1.0244,0.3125,1.625,0.3125c0.5996,0,1.1406-0.1045,1.625-0.3125
			c0.4824-0.208,0.8906-0.4912,1.2246-0.8506c0.333-0.3574,0.5918-0.791,0.7754-1.2998c0.1826-0.5078,0.2744-1.0625,0.2744-1.6621
			c0-0.6006-0.0918-1.1543-0.2744-1.6631c-0.1836-0.5078-0.4424-0.9414-0.7754-1.2998c-0.334-0.3584-0.7422-0.6416-1.2246-0.8496
			C213.2763,92.5963,212.7353,92.4918,212.1357,92.4918z"/>
		<path class="st2" d="M220.6855,96.6168c0-0.8662,0.1621-1.6748,0.4873-2.4248s0.7705-1.4082,1.3379-1.9756
			c0.5664-0.5664,1.2324-1.0127,2-1.3369c0.7656-0.3252,1.5908-0.4883,2.4746-0.4883c0.8828,0,1.708,0.1631,2.4746,0.4883
			c0.7666,0.3242,1.4336,0.7705,2,1.3369c0.5664,0.5674,1.0127,1.2256,1.3379,1.9756s0.4873,1.5586,0.4873,2.4248
			s-0.1621,1.6787-0.4873,2.4375s-0.7715,1.417-1.3379,1.9746c-0.5664,0.5586-1.2334,1-2,1.3252s-1.5918,0.4873-2.4746,0.4873
			c-0.8838,0-1.709-0.1621-2.4746-0.4873c-0.7676-0.3252-1.4336-0.7666-2-1.3252c-0.5674-0.5576-1.0127-1.2158-1.3379-1.9746
			S220.6855,97.4831,220.6855,96.6168z M223.0849,96.6168c0,0.5996,0.0918,1.1543,0.2754,1.6621
			c0.1836,0.5088,0.4414,0.9424,0.7754,1.2998c0.333,0.3594,0.7412,0.6426,1.2246,0.8506s1.0254,0.3125,1.625,0.3125
			s1.1416-0.1045,1.625-0.3125s0.8916-0.4912,1.2246-0.8506c0.334-0.3574,0.5918-0.791,0.7754-1.2998
			c0.1836-0.5078,0.2754-1.0625,0.2754-1.6621c0-0.6006-0.0918-1.1543-0.2754-1.6631c-0.1836-0.5078-0.4414-0.9414-0.7754-1.2998
			c-0.333-0.3584-0.7412-0.6416-1.2246-0.8496s-1.0254-0.3125-1.625-0.3125s-1.1416,0.1045-1.625,0.3125
			s-0.8916,0.4912-1.2246,0.8496c-0.334,0.3584-0.5918,0.792-0.7754,1.2998C223.1767,95.4625,223.0849,96.0163,223.0849,96.6168z"/>
		<path class="st2" d="M236.1103,90.692h2.25v1.8242h0.0498c0.1494-0.3164,0.3496-0.6035,0.5996-0.8623
			c0.25-0.2578,0.5293-0.4785,0.8379-0.6621c0.3076-0.1836,0.6455-0.3291,1.0127-0.4375c0.3662-0.1084,0.7324-0.1631,1.0996-0.1631
			c0.3662,0,0.7002,0.0508,1,0.1504l-0.0996,2.4248c-0.1836-0.0498-0.3672-0.0908-0.5508-0.125
			c-0.1836-0.0332-0.3662-0.0498-0.5498-0.0498c-1.0996,0-1.9414,0.3086-2.5244,0.9248c-0.584,0.6172-0.875,1.5752-0.875,2.875
			v5.9502h-2.25V90.692z"/>
		<path class="st2" d="M265.2099,88.6666c-0.5-0.6504-1.1338-1.1504-1.8994-1.5c-0.7676-0.3496-1.5586-0.5254-2.375-0.5254
			c-1,0-1.9043,0.1875-2.7129,0.5625s-1.5,0.8877-2.0752,1.5381c-0.5752,0.6494-1.0205,1.4121-1.3369,2.2871
			c-0.3174,0.875-0.4756,1.8125-0.4756,2.8125c0,0.9336,0.1504,1.8174,0.4502,2.6504s0.7334,1.5664,1.2998,2.2002
			c0.5664,0.6328,1.2588,1.1328,2.0752,1.5c0.8164,0.3662,1.7412,0.5498,2.7754,0.5498c1.0156,0,1.9082-0.208,2.6748-0.625
			s1.416-1,1.9502-1.75l2.0244,1.5244c-0.1338,0.1836-0.3662,0.4463-0.7002,0.7881c-0.333,0.3418-0.7744,0.6836-1.3242,1.0244
			c-0.5508,0.3418-1.2129,0.6426-1.9883,0.9004c-0.7744,0.2578-1.6709,0.3877-2.6875,0.3877c-1.3994,0-2.6621-0.2666-3.7871-0.7998
			s-2.084-1.2334-2.875-2.1006c-0.792-0.8662-1.3965-1.8457-1.8125-2.9375c-0.417-1.0908-0.625-2.1953-0.625-3.3125
			c0-1.3662,0.2246-2.6289,0.6748-3.7871s1.0791-2.1582,1.8877-3s1.7793-1.4961,2.9121-1.9629
			c1.1338-0.4658,2.3838-0.7002,3.75-0.7002c1.167,0,2.3125,0.2256,3.4375,0.6758c1.125,0.4492,2.0459,1.1416,2.7627,2.0742
			L265.2099,88.6666z"/>
		<path class="st2" d="M278.6103,102.9918c-1.3506,0-2.5918-0.2373-3.7256-0.7129c-1.1328-0.4746-2.1035-1.1289-2.9121-1.9619
			c-0.8086-0.834-1.4414-1.8164-1.9004-2.9502c-0.458-1.1338-0.6875-2.3584-0.6875-3.6748s0.2295-2.542,0.6875-3.6758
			c0.459-1.1328,1.0918-2.1162,1.9004-2.9492c0.8086-0.834,1.7793-1.4883,2.9121-1.9629c1.1338-0.4746,2.375-0.7129,3.7256-0.7129
			c1.3496,0,2.5908,0.2383,3.7246,0.7129s2.1045,1.1289,2.9131,1.9629c0.8076,0.833,1.4414,1.8164,1.8994,2.9492
			c0.458,1.1338,0.6875,2.3594,0.6875,3.6758s-0.2295,2.541-0.6875,3.6748s-1.0918,2.1162-1.8994,2.9502
			c-0.8086,0.833-1.7793,1.4873-2.9131,1.9619C281.2011,102.7545,279.9599,102.9918,278.6103,102.9918z M278.6103,100.7418
			c1.0166,0,1.9326-0.1875,2.75-0.5625c0.8164-0.375,1.5166-0.8789,2.0996-1.5127c0.583-0.6328,1.0332-1.3789,1.3506-2.2373
			c0.3164-0.8584,0.4746-1.7705,0.4746-2.7373s-0.1582-1.8789-0.4746-2.7383c-0.3174-0.8574-0.7676-1.6035-1.3506-2.2373
			c-0.583-0.6328-1.2832-1.1377-2.0996-1.5127c-0.8174-0.375-1.7334-0.5625-2.75-0.5625s-1.9336,0.1875-2.75,0.5625
			c-0.8174,0.375-1.5166,0.8799-2.1006,1.5127c-0.583,0.6338-1.0332,1.3799-1.3496,2.2373
			c-0.3164,0.8594-0.4746,1.7715-0.4746,2.7383s0.1582,1.8789,0.4746,2.7373s0.7666,1.6045,1.3496,2.2373
			c0.584,0.6338,1.2832,1.1377,2.1006,1.5127C276.6767,100.5543,277.5937,100.7418,278.6103,100.7418z"/>
		<path class="st2" d="M288.8603,84.8415h2.7744l5.2002,14.4004h0.0498l5.4004-14.4004h2.625l-6.9756,17.7002h-2.25
			L288.8603,84.8415z"/>
		<path class="st2" d="M307.0341,84.8415h2.4004v17.7002h-2.4004V84.8415z"/>
		<path class="st2" d="M313.5849,84.8415h6.1748c1.25,0,2.3457,0.1416,3.2871,0.4248c0.9414,0.2842,1.7588,0.6631,2.4502,1.1377
			c0.6914,0.4756,1.2666,1.0215,1.7256,1.6377c0.458,0.6172,0.8203,1.25,1.0869,1.9004c0.2666,0.6494,0.458,1.2998,0.5752,1.9492
			c0.1162,0.6504,0.1748,1.25,0.1748,1.8008c0,1.1328-0.208,2.2285-0.625,3.2871s-1.0332,2-1.8496,2.8252
			c-0.8174,0.8252-1.8291,1.4873-3.0381,1.9873c-1.208,0.5-2.6035,0.75-4.1875,0.75h-5.7744V84.8415z M315.9843,100.2916h3.0254
			c1.0166,0,1.9785-0.1377,2.8877-0.4121c0.9082-0.2754,1.7041-0.6875,2.3877-1.2383c0.6826-0.5498,1.2246-1.2373,1.625-2.0625
			c0.3994-0.8242,0.5996-1.7871,0.5996-2.8867c0-0.5664-0.0918-1.2295-0.2754-1.9883c-0.1836-0.7578-0.5293-1.4785-1.0371-2.1621
			c-0.5088-0.6836-1.2129-1.2627-2.1123-1.7373c-0.9004-0.4756-2.0674-0.7129-3.5-0.7129h-3.6006V100.2916z"/>
		<path class="st2" d="M343.9345,87.5915l-3.25,3l-1.3994-1.6748l4.9248-4.0752h2.125v17.7002h-2.4004V87.5915z"/>
		<path class="st2" d="M359.4843,95.692h-0.0996c-0.5498,0.2666-1.2002,0.3994-1.9502,0.3994c-0.6338,0-1.2744-0.1084-1.9248-0.3252
			c-0.6504-0.2158-1.2373-0.5537-1.7627-1.0117c-0.5244-0.459-0.9541-1.042-1.2871-1.75c-0.334-0.709-0.5-1.5459-0.5-2.5127
			s0.1621-1.8213,0.4873-2.5625s0.7627-1.3623,1.3125-1.8623s1.1914-0.8789,1.9248-1.1377s1.5166-0.3877,2.3506-0.3877
			c0.833,0,1.6162,0.1338,2.3496,0.4004s1.375,0.6494,1.9248,1.1494s0.9873,1.1006,1.3125,1.7998
			c0.3252,0.7002,0.4873,1.4844,0.4873,2.3506c0,0.5498-0.041,1.0498-0.125,1.5c-0.083,0.4502-0.2041,0.8789-0.3623,1.2871
			c-0.1582,0.4092-0.3457,0.8125-0.5625,1.2129c-0.2168,0.3994-0.458,0.8086-0.7246,1.2246l-4.4756,7.0752h-2.8242L359.4843,95.692z
			 M361.7099,90.317c0-0.5332-0.0879-1.0254-0.2627-1.4756s-0.4248-0.8369-0.75-1.1621s-0.7129-0.5791-1.1621-0.7627
			c-0.4502-0.1836-0.9502-0.2754-1.5-0.2754c-0.5508,0-1.0508,0.0918-1.5,0.2754c-0.4502,0.1836-0.8379,0.4375-1.1631,0.7627
			s-0.5752,0.7119-0.75,1.1621s-0.2627,0.9424-0.2627,1.4756s0.0879,1.0244,0.2627,1.4746s0.4248,0.8379,0.75,1.1621
			c0.3252,0.3252,0.7129,0.5801,1.1631,0.7627c0.4492,0.1836,0.9492,0.2754,1.5,0.2754c0.5498,0,1.0498-0.0918,1.5-0.2754
			c0.4492-0.1826,0.8369-0.4375,1.1621-0.7627c0.3252-0.3242,0.5752-0.7119,0.75-1.1621S361.7099,90.8502,361.7099,90.317z"/>
	</g>
</g>
</svg>
