<?xml version="1.0" encoding="utf-8"?>
<!-- Generator: Adobe Illustrator 23.0.2, SVG Export Plug-In . SVG Version: 6.00 Build 0)  -->
<svg version="1.1" xmlns="http://www.w3.org/2000/svg" xmlns:xlink="http://www.w3.org/1999/xlink" x="0px" y="0px"
	 viewBox="0 0 120 92.8" style="enable-background:new 0 0 120 92.8;" xml:space="preserve">
<style type="text/css">
	.st0{display:none;}
	.st1{display:inline;fill:#EAE8E8;}
	.st2{display:inline;fill:#3C9945;}
	.st3{display:inline;fill:#28A745;}
	.st4{display:inline;fill:#11601A;}
	.st5{display:inline;fill:#1F892E;}
	.st6{display:inline;fill:#FFFFFF;}
	.st7{fill:#EAE8E8;}
	.st8{fill:#D8D8D8;}
	.st9{fill:#28A745;}
</style>
<g id="Capa_1">
</g>
<g id="Capa_2" class="st0">
	<path class="st1" d="M33.7,75.3c3.5-2.9,6.2-6.5,7.9-10.6l0.1-0.2c3.6-8.9,2.5-19,2.5-27.1c-8.8,0-15.6-2.6-21.4-8.1
		c-2.9,2.9-6.4,5-10.2,6.4C9,36.8,5.2,37.5,1.4,37.4c0,1.8-0.1,3.7-0.1,5.6C1,56.8,1.3,73.7,22.6,81.1c4-1.3,7.7-3.3,11-5.8"/>
	<path class="st2" d="M31.6,71.5c2.8-2.3,5-5.2,6.4-8.6l0.1-0.2c2.9-7.2,2-15.3,2-21.9c-7.1,0-12.6-2.1-17.3-6.5
		c-2.3,2.3-5.2,4-8.2,5.2c-2.8,0.9-5.9,1.5-8.9,1.4c0,1.5-0.1,3-0.1,4.6c-0.3,11.2,0,24.8,17.2,30.8C25.9,75.1,28.8,73.4,31.6,71.5"
		/>
	<path class="st1" d="M107.8,75.3c3.5-2.9,6.2-6.5,7.9-10.6l0.1-0.2c3.6-8.9,2.5-19,2.5-27.1c-8.8,0-15.6-2.6-21.4-8.1
		c-2.9,2.9-6.4,5-10.2,6.4c-3.5,1.2-7.3,1.8-11.1,1.7c0,1.8-0.1,3.7-0.1,5.6c-0.3,13.8,0,30.7,21.3,38.1c4-1.3,7.7-3.3,11-5.8"/>
	<path class="st2" d="M106.1,71.9c2.8-2.3,5-5.2,6.4-8.6l0.1-0.2c2.9-7.2,2-15.3,2-21.9c-7.1,0-12.6-2.1-17.3-6.5
		c-2.3,2.3-5.2,4-8.2,5.2c-2.8,0.9-5.9,1.5-8.9,1.4c0,1.5-0.1,3-0.1,4.6C79.8,57,80,70.6,97.2,76.6
		C100.5,75.5,103.4,73.9,106.1,71.9"/>
	<path class="st1" d="M78.6,81.2c6.1-5,10.6-11.2,13.6-18.4l0.1-0.3c6.2-15.4,4.3-32.7,4.3-46.8c-15.2,0-27-4.4-36.9-13.9
		c-5,5-11,8.6-17.6,11c-6.1,2-12.7,3.1-19.1,2.9c0,3.1-0.2,6.4-0.2,9.7c-0.6,23.9,0,53,36.7,65.7c7-2.2,13.2-5.7,18.9-10.1"/>
	<path class="st3" d="M92.3,19.5c-13.5,0-23.9-3.9-32.6-12.4C50.9,15.6,40.5,19.5,27,19.5c0,22.2-4.6,54,32.6,66.9
		C96.9,73.4,92.3,41.7,92.3,19.5z M56.9,58.5L46.1,47.6l4.9-4.9l6,6l11.4-11.4l4.9,4.9L56.9,58.5z"/>
	<path class="st4" d="M101.8,25.2c0-5.5-4.4-9.9-9.9-9.9c-3.6,0-6.8,1.9-8.5,4.8c-0.9,1.5-1.4,3.2-1.4,5.1c0,5.5,4.4,9.9,9.9,9.9
		c0,0,0.1,0,0.1,0C97.4,35.1,101.8,30.7,101.8,25.2z"/>
	<path class="st5" d="M102.3,24c0-5.5-4.4-9.9-9.9-9.9c-3.6,0-6.8,1.9-8.5,4.8c-0.9,1.5-1.4,3.2-1.4,5.1c0,5.5,4.4,9.9,9.9,9.9
		c0,0,0.1,0,0.1,0C97.9,33.9,102.3,29.5,102.3,24z"/>
	<polygon class="st6" points="96.6,23.1 93.4,23.1 93.4,20.3 91.5,20.3 91.5,23.1 88.4,23.1 88.4,25 91.5,25 91.5,28.5 93.4,28.5 
		93.4,25 96.6,25 	"/>
</g>
<g id="Capa_3">
	<path class="st7" d="M33.5,75.2c3.5-2.9,6.2-6.5,7.9-10.7l0.1-0.2c3.6-9,2.5-19.1,2.5-27.4c-8.9,0-15.8-2.6-21.6-8.2
		c-2.9,2.9-6.4,5-10.3,6.4C8.6,36.4,4.8,37,1,36.9c0,1.8-0.1,3.8-0.1,5.7c-0.3,13.9,0,31,21.5,38.4c4.1-1.3,7.7-3.3,11.1-5.9"/>
	<path class="st8" d="M31.4,71.3c2.9-2.3,5-5.3,6.4-8.7l0.1-0.2c2.9-7.3,2-15.5,2-22.1c-7.2,0-12.7-2.1-17.4-6.6
		c-2.3,2.3-5.2,4.1-8.3,5.2c-2.9,1-6,1.5-9,1.4c0,1.5-0.1,3-0.1,4.6c-0.3,11.3,0,25,17.3,31C25.7,75,28.6,73.3,31.4,71.3"/>
	<path class="st7" d="M108.3,75.2c3.5-2.9,6.2-6.5,7.9-10.7l0.1-0.2c3.6-9,2.5-19.1,2.5-27.4c-8.9,0-15.8-2.6-21.6-8.2
		c-2.9,2.9-6.4,5-10.3,6.4c-3.5,1.2-7.4,1.8-11.2,1.7c0,1.8-0.1,3.8-0.1,5.7c-0.3,13.9,0,31,21.5,38.4c4.1-1.3,7.7-3.3,11.1-5.9"/>
	<path class="st8" d="M106.6,71.8c2.9-2.3,5-5.3,6.4-8.7l0.1-0.2c2.9-7.3,2-15.5,2-22.1c-7.2,0-12.7-2.1-17.4-6.6
		c-2.3,2.3-5.2,4.1-8.3,5.2c-2.9,1-6,1.5-9,1.4c0,1.5-0.1,3-0.1,4.6c-0.3,11.3,0,25,17.3,31C100.9,75.4,103.8,73.8,106.6,71.8"/>
	<path class="st7" d="M78.8,81.2c6.1-5,10.7-11.3,13.7-18.5l0.1-0.3c6.2-15.5,4.3-33,4.3-47.2c-15.4,0-27.2-4.4-37.2-14.1
		c-5,5-11.1,8.7-17.8,11.1c-6.1,2-12.8,3.1-19.3,3c0,3.1-0.2,6.5-0.2,9.8c-0.6,24.1,0,53.5,37,66.3c7-2.2,13.3-5.7,19.1-10.2"/>
	<path class="st9" d="M92.7,18.9C79,18.9,68.6,15,59.7,6.4C50.9,15,40.4,18.9,26.8,18.9c0,22.4-4.6,54.4,32.9,67.5
		C97.3,73.3,92.7,41.3,92.7,18.9z M57,58.3l-11-11l4.9-4.9l6.1,6.1l11.5-11.5l4.9,4.9L57,58.3z"/>
</g>
</svg>
