<?xml version="1.0" encoding="utf-8"?>
<!-- Generator: Adobe Illustrator 23.0.3, SVG Export Plug-In . SVG Version: 6.00 Build 0)  -->
<svg version="1.1" id="Capa_1" xmlns="http://www.w3.org/2000/svg" xmlns:xlink="http://www.w3.org/1999/xlink" x="0px" y="0px"
	 viewBox="0 0 50 28.3" style="enable-background:new 0 0 50 28.3;" xml:space="preserve">
<style type="text/css">
	.st0{fill:#C9C9C9;}
	.st1{fill:#AFAFAF;}
	.st2{fill:#494949;}
	.st3{fill:#707070;}
	.st4{fill:#545454;}
	.st5{fill:#FFFFFF;}
</style>
<g>
	<path class="st0" d="M9.3,16.7v2.8c0,1.3,1.1,2.4,2.4,2.4h1v2.9c0,0.2,0.1,0.4,0.3,0.6c-0.1,0.3-0.4,0.4-0.7,0.4h-2.2
		c-0.4,0-0.7-0.3-0.7-0.7v-2.9h-1c-1.3,0-2.4-1.1-2.4-2.4V17c0-1.3,1.1-2.4,2.4-2.4H8.3l2.3-6.7C10.8,7.3,11.3,7,11.9,7h2.5
		c-0.2,0.2-0.4,0.4-0.5,0.7l-2.3,6.7C11.6,14.3,9.3,15.1,9.3,16.7z"/>
	<path class="st1" d="M10.8,21c-1.4,0-2.6-1.2-2.6-2.6s1.2-2.6,2.6-2.6c1.4,0,2.6,1.2,2.6,2.6C13.4,19.8,12.2,21,10.8,21z
		 M10.8,17.3c-0.6,0-1.1,0.5-1.1,1.1c0,0.6,0.5,1.1,1.1,1.1s1.1-0.5,1.1-1.1C11.9,17.8,11.4,17.3,10.8,17.3z"/>
</g>
<g>
	<path class="st2" d="M6.8,12.5H6.2V13h1.4C7.5,12.7,7.1,12.5,6.8,12.5z"/>
	<path class="st2" d="M11.9,7.8h5.6V6.1h-1h-4.7c-0.9,0-1.8,0.6-2.1,1.5v0l-1.3,3.8C8,11,7.4,10.8,6.8,10.8H6
		c-0.8,0-1.4,0.6-1.4,1.4v1c0,0.8,0.6,1.4,1.4,1.4h0.1c-0.6,0.6-0.9,1.4-0.9,2.3v2.8c0,1.7,1.4,3.2,3.2,3.2h0.1v2.1
		c0,0.9,0.7,1.6,1.6,1.6h2.2c0.9,0,1.6-0.7,1.6-1.6V23h3.8v-1.7h-4.4c-0.1,0-0.2,0-0.3,0H9.6c-0.1,0-0.2,0-0.3,0H8.4
		c-0.8,0-1.5-0.7-1.5-1.5V17c0-0.8,0.7-1.5,1.5-1.5h9.2v-1.7l-8.1,0l1.9-5.6C11.4,8,11.7,7.8,11.9,7.8z M10.1,23h2v2h-2V23z
		 M6.2,13.1v-0.5h0.6c0.4,0,0.7,0.2,0.8,0.5C7.6,13.1,6.2,13.1,6.2,13.1z"/>
</g>
<g>
	<g>
		<path class="st3" d="M11,1.3C9,1.3,7.4,3,7.4,5S9,8.6,11,8.6c2,0,3.7-1.6,3.7-3.7S13.1,1.3,11,1.3z M13.1,3.7l-2.1,2.6
			c0,0,0,0,0,0c-0.1,0.1-0.3,0.2-0.4,0.2h0c-0.2,0-0.3-0.1-0.4-0.2l0,0L8.9,5.2c-0.1-0.1-0.1-0.3,0-0.5c0.1-0.1,0.3-0.1,0.5,0
			l1.2,1.1l2.1-2.6c0.1-0.1,0.3-0.2,0.5,0C13.2,3.4,13.3,3.6,13.1,3.7z"/>
	</g>
	<path class="st4" d="M11,0.3C8.4,0.3,6.4,2.4,6.4,5S8.4,9.6,11,9.6c2.6,0,4.7-2.1,4.7-4.7S13.6,0.3,11,0.3z M11,9.1
		C8.8,9.1,6.9,7.3,6.9,5S8.8,0.9,11,0.9c2.3,0,4.1,1.8,4.1,4.1C15.2,7.3,13.3,9.1,11,9.1z"/>
</g>
<path class="st2" d="M19.2,6.7h1v0.2c0.2-0.1,0.4-0.2,0.5-0.2c0.1,0,0.3-0.1,0.4-0.1c0.2,0,0.4,0,0.5,0.1c0.2,0.1,0.3,0.1,0.4,0.3
	c0.2-0.1,0.5-0.2,0.7-0.3c0.2-0.1,0.4-0.1,0.7-0.1c0.5,0,0.8,0.1,1,0.4c0.2,0.3,0.3,0.8,0.3,1.4v2.1h-1V8.5c0-0.4,0-0.6-0.1-0.8
	c-0.1-0.1-0.2-0.2-0.4-0.2c-0.1,0-0.4,0-0.6,0.1l-0.1,0c0,0.4,0,0.6,0,0.9v2h-1v-2c0-0.3,0-0.5,0-0.6c0-0.1-0.1-0.3-0.2-0.3
	c-0.1-0.1-0.2-0.1-0.4-0.1c-0.2,0-0.4,0-0.6,0.1l-0.1,0v2.9h-1L19.2,6.7L19.2,6.7z"/>
<path class="st2" d="M25.7,10.2c-0.3-0.3-0.4-0.8-0.4-1.5c0-0.7,0.1-1.3,0.4-1.6s0.7-0.5,1.3-0.5c0.5,0,1,0.1,1.3,0.4
	c0.3,0.3,0.4,0.7,0.4,1.3l-0.1,0.7h-2.3c0,0.2,0,0.3,0.1,0.4c0,0.1,0.1,0.2,0.3,0.2c0.1,0,0.3,0,0.5,0c0.2,0,0.4,0,0.6,0
	c0.2,0,0.4,0,0.5,0l0.2,0l0,0.8c-0.6,0.1-1.1,0.2-1.6,0.2C26.4,10.6,26,10.5,25.7,10.2z M27.7,8.2c0-0.3,0-0.5-0.1-0.7
	c-0.1-0.1-0.3-0.2-0.5-0.2c-0.3,0-0.4,0.1-0.5,0.2c-0.1,0.1-0.2,0.3-0.2,0.6L27.7,8.2L27.7,8.2z"/>
<path class="st2" d="M28.5,11.6c0.2-0.2,0.4-0.3,0.5-0.4c0.1-0.1,0.2-0.2,0.2-0.3c0-0.1,0-0.3,0-0.5V6.7h1v3.7c0,0.4,0,0.7-0.1,0.9
	c-0.1,0.2-0.2,0.4-0.4,0.6c-0.2,0.2-0.5,0.3-0.9,0.5L28.5,11.6z M29.3,5.1h1v1h-1V5.1z"/>
<path class="st2" d="M31.3,10.1c-0.3-0.4-0.4-0.9-0.4-1.5c0-0.6,0.1-1.2,0.4-1.5c0.3-0.4,0.8-0.5,1.3-0.5c0.6,0,1,0.2,1.3,0.5
	c0.3,0.4,0.4,0.9,0.4,1.5s-0.1,1.2-0.4,1.5c-0.3,0.4-0.8,0.5-1.3,0.5C32,10.6,31.6,10.5,31.3,10.1z M33.2,9.5
	c0.1-0.2,0.2-0.5,0.2-0.9c0-0.4-0.1-0.7-0.2-0.9c-0.1-0.2-0.3-0.3-0.5-0.3c-0.3,0-0.4,0.1-0.5,0.3s-0.2,0.5-0.2,0.9s0.1,0.7,0.2,0.9
	c0.1,0.2,0.3,0.3,0.5,0.3C32.9,9.8,33.1,9.7,33.2,9.5z"/>
<path class="st2" d="M35,6.7h1v0.4c0.4-0.3,0.9-0.4,1.3-0.5v1c-0.4,0.1-0.8,0.2-1.1,0.3l-0.2,0v2.6h-1L35,6.7L35,6.7z"/>
<path class="st2" d="M19.3,16.5l-0.3,0l0-0.9c0.6,0.1,1.1,0.1,1.4,0.1c0.2,0,0.4,0,0.4-0.1c0.1,0,0.2-0.1,0.2-0.2
	c0-0.1,0-0.2-0.2-0.2c-0.1,0-0.3-0.1-0.5-0.1c-0.1,0-0.2,0-0.2,0c-0.3,0-0.5-0.1-0.6-0.2c-0.2-0.1-0.3-0.2-0.4-0.3
	c-0.1-0.1-0.2-0.4-0.2-0.6c0-0.4,0.1-0.8,0.4-1c0.3-0.2,0.6-0.3,1.1-0.3c0.3,0,0.7,0,1.2,0.1l0.3,0l0,0.9c-0.6-0.1-1.1-0.1-1.4-0.1
	c-0.2,0-0.3,0-0.4,0c-0.1,0-0.1,0.1-0.1,0.2c0,0.1,0,0.2,0.2,0.2c0.1,0,0.3,0.1,0.5,0.1l0.3,0c0.4,0.1,0.7,0.2,0.9,0.4
	c0.2,0.2,0.3,0.4,0.3,0.8c0,0.4-0.1,0.8-0.4,1c-0.3,0.2-0.6,0.3-1.2,0.3C20.3,16.6,19.8,16.6,19.3,16.5z"/>
<path class="st2" d="M22.9,16.2c-0.3-0.3-0.4-0.8-0.4-1.5c0-0.7,0.1-1.3,0.4-1.6s0.7-0.5,1.3-0.5c0.5,0,1,0.1,1.3,0.4
	c0.3,0.3,0.4,0.7,0.4,1.3l-0.1,0.7h-2.3c0,0.2,0,0.3,0.1,0.4c0,0.1,0.1,0.2,0.3,0.2c0.1,0,0.3,0,0.5,0c0.2,0,0.4,0,0.6,0
	c0.2,0,0.4,0,0.5,0l0.2,0l0,0.8c-0.6,0.1-1.1,0.2-1.6,0.2C23.6,16.6,23.2,16.5,22.9,16.2z M24.9,14.2c0-0.3,0-0.5-0.1-0.7
	c-0.1-0.1-0.3-0.2-0.5-0.2c-0.3,0-0.4,0.1-0.5,0.2c-0.1,0.1-0.2,0.3-0.2,0.6L24.9,14.2L24.9,14.2z"/>
<path class="st2" d="M26.7,18.1c-0.3-0.2-0.5-0.4-0.5-0.8c0-0.2,0-0.4,0.1-0.5c0.1-0.1,0.2-0.3,0.4-0.4c-0.1-0.1-0.2-0.1-0.2-0.2
	c0-0.1-0.1-0.2-0.1-0.3c0-0.1,0-0.2,0-0.2c0-0.1,0.1-0.2,0.2-0.4c-0.4-0.3-0.5-0.6-0.5-1.1c0-0.5,0.1-0.8,0.4-1.1s0.7-0.4,1.2-0.4
	c0.2,0,0.5,0,0.8,0.1l1.3,0v0.8l-0.6,0c0.1,0.1,0.1,0.2,0.1,0.3c0,0.1,0,0.2,0,0.3c0,0.5-0.1,0.8-0.4,1c-0.3,0.2-0.7,0.3-1.2,0.3
	c-0.2,0-0.3,0-0.4,0c0,0.1-0.1,0.2-0.1,0.3c0,0.1,0,0.2,0.2,0.2c0.1,0,0.3,0,0.6,0c0.4,0,0.7,0,0.9,0.1c0.2,0,0.4,0.2,0.5,0.3
	c0.1,0.1,0.2,0.4,0.2,0.7c0,0.5-0.2,0.8-0.5,1c-0.3,0.2-0.8,0.3-1.5,0.3C27.4,18.3,27,18.2,26.7,18.1z M28.7,17.4
	c0.1-0.1,0.2-0.2,0.2-0.3c0-0.1,0-0.2-0.1-0.2s-0.2,0-0.3,0c-0.1,0-0.2,0-0.3,0l-0.7,0c-0.1,0.1-0.2,0.3-0.2,0.4
	c0,0.1,0.1,0.2,0.2,0.3c0.1,0,0.3,0.1,0.6,0.1C28.4,17.5,28.6,17.4,28.7,17.4z M28.5,13.9c0-0.4-0.2-0.6-0.6-0.6
	c-0.4,0-0.6,0.2-0.6,0.6c0,0.4,0.2,0.6,0.6,0.6C28.3,14.5,28.5,14.3,28.5,13.9z"/>
<path class="st2" d="M30.8,16.4c-0.2-0.1-0.3-0.3-0.4-0.6c-0.1-0.3-0.1-0.7-0.1-1.1v-2h1v2.1c0,0.3,0,0.5,0,0.6
	c0,0.1,0.1,0.2,0.2,0.3c0.1,0,0.2,0.1,0.4,0.1c0.1,0,0.2,0,0.3,0c0.1,0,0.2,0,0.4-0.1v-2.9h1v3.9h-1v-0.2c-0.2,0.1-0.4,0.2-0.6,0.2
	c-0.1,0-0.3,0.1-0.5,0.1C31.3,16.6,31,16.6,30.8,16.4z"/>
<path class="st2" d="M34.4,12.6h1V13c0.4-0.3,0.9-0.4,1.3-0.5v1c-0.4,0.1-0.8,0.2-1.1,0.3l-0.2,0v2.6h-1L34.4,12.6L34.4,12.6z"/>
<path class="st2" d="M37.4,16.1c-0.3-0.4-0.4-0.9-0.4-1.5c0-0.6,0.1-1.2,0.4-1.5c0.3-0.4,0.8-0.5,1.3-0.5c0.6,0,1,0.2,1.3,0.5
	c0.3,0.4,0.4,0.8,0.4,1.5c0,0.7-0.1,1.2-0.4,1.5c-0.3,0.4-0.8,0.5-1.3,0.5C38.1,16.6,37.7,16.5,37.4,16.1z M39.3,15.5
	c0.1-0.2,0.2-0.5,0.2-0.9c0-0.4-0.1-0.7-0.2-0.9s-0.3-0.3-0.5-0.3c-0.3,0-0.4,0.1-0.5,0.3S38,14.2,38,14.6c0,0.4,0.1,0.7,0.2,0.9
	c0.1,0.2,0.3,0.3,0.5,0.3C39,15.7,39.1,15.7,39.3,15.5z"/>
<path class="st2" d="M18.8,22.4c-0.2-0.3-0.3-0.8-0.3-1.5c0-0.7,0.1-1.3,0.4-1.6c0.3-0.3,0.7-0.5,1.2-0.5c0.2,0,0.5,0,0.9,0.1v-1.6
	h1v5.4h-1v-0.2c-0.2,0.1-0.4,0.2-0.5,0.2c-0.1,0-0.3,0-0.4,0C19.4,22.9,19,22.8,18.8,22.4z M20.8,21.9l0.1,0v-2.1
	c-0.3,0-0.5-0.1-0.7-0.1c-0.3,0-0.4,0.1-0.5,0.3s-0.2,0.5-0.2,0.9c0,0.4,0,0.7,0.1,0.8c0.1,0.2,0.3,0.2,0.5,0.2
	C20.3,22,20.6,22,20.8,21.9z"/>
<path class="st2" d="M22.9,22.5c-0.3-0.3-0.4-0.8-0.4-1.5c0-0.7,0.1-1.3,0.4-1.6c0.3-0.4,0.7-0.5,1.3-0.5c0.5,0,1,0.1,1.3,0.4
	c0.3,0.3,0.4,0.7,0.4,1.3l-0.1,0.7h-2.3c0,0.2,0,0.3,0.1,0.4s0.1,0.2,0.3,0.2c0.1,0,0.3,0,0.5,0c0.2,0,0.4,0,0.6,0
	c0.2,0,0.4,0,0.5,0l0.2,0l0,0.8c-0.6,0.1-1.1,0.2-1.6,0.2C23.6,22.9,23.1,22.8,22.9,22.5z M24.8,20.6c0-0.3,0-0.5-0.1-0.7
	c-0.1-0.1-0.3-0.2-0.5-0.2c-0.3,0-0.4,0.1-0.5,0.2c-0.1,0.1-0.2,0.3-0.2,0.6L24.8,20.6L24.8,20.6L24.8,20.6z"/>
<path class="st2" d="M27.1,21.4c0-0.4,0.1-0.7,0.3-0.9c0.2-0.2,0.6-0.3,1-0.3l0.8-0.1V20c0-0.2,0-0.3-0.1-0.3
	c-0.1-0.1-0.2-0.1-0.4-0.1c-0.2,0-0.4,0-0.7,0c-0.3,0-0.5,0-0.8,0l0-0.7c0.6-0.1,1.1-0.2,1.6-0.2c0.5,0,0.9,0.1,1.1,0.3
	c0.2,0.2,0.3,0.5,0.3,1v1.6c0,0.1,0,0.2,0.1,0.3c0,0,0.1,0.1,0.2,0.1l0,0.8c-0.3,0-0.5,0-0.6,0c-0.2,0-0.3-0.1-0.5-0.2
	c-0.4,0.2-0.8,0.3-1.2,0.3C27.5,22.7,27.1,22.3,27.1,21.4z M29.2,21.8l0.1,0V21L28.6,21c-0.3,0-0.4,0.2-0.4,0.5
	c0,0.3,0.1,0.4,0.4,0.4C28.7,21.9,29,21.8,29.2,21.8z"/>
<path class="st2" d="M31.6,22.5c-0.2-0.1-0.3-0.4-0.4-0.6c-0.1-0.3-0.1-0.7-0.1-1.1v-2.1h1v2.1c0,0.3,0,0.5,0,0.6
	c0,0.1,0.1,0.2,0.2,0.3c0.1,0,0.2,0.1,0.4,0.1c0.1,0,0.2,0,0.3,0c0.1,0,0.2,0,0.4-0.1v-2.9h1v3.9h-1v-0.2c-0.2,0.1-0.4,0.2-0.6,0.2
	c-0.2,0-0.3,0.1-0.5,0.1C32.1,22.7,31.8,22.7,31.6,22.5z"/>
<path class="st2" d="M35.9,22.6c-0.2-0.1-0.3-0.2-0.4-0.5c-0.1-0.2-0.1-0.5-0.1-0.9v-1.6h-0.5v-0.9h0.5v-1.1h1v1.1h1v0.9h-1v1.6
	c0,0.2,0,0.4,0,0.4c0,0.1,0.1,0.1,0.3,0.1l0.6,0l0,0.8c-0.2,0-0.4,0.1-0.5,0.1c-0.1,0-0.2,0-0.4,0C36.3,22.7,36,22.7,35.9,22.6z"/>
<path class="st2" d="M38.1,22.2c-0.3-0.4-0.4-0.9-0.4-1.5c0-0.7,0.1-1.2,0.4-1.5c0.3-0.4,0.8-0.5,1.3-0.5s1,0.2,1.3,0.5
	c0.3,0.4,0.4,0.8,0.4,1.5s-0.1,1.2-0.4,1.5c-0.3,0.4-0.8,0.5-1.3,0.5S38.4,22.6,38.1,22.2z M40,21.6c0.1-0.2,0.2-0.5,0.2-0.9
	c0-0.4-0.1-0.7-0.2-0.9s-0.3-0.3-0.6-0.3s-0.4,0.1-0.5,0.3c-0.1,0.2-0.2,0.5-0.2,0.9s0.1,0.7,0.2,0.9s0.3,0.3,0.5,0.3
	C39.7,21.8,39.9,21.8,40,21.6z"/>
<g>
	<g>
		<path class="st5" d="M11,0.8C8.8,0.8,6.9,2.7,6.9,5c0,2.3,1.8,4.1,4.1,4.1s4.1-1.8,4.1-4.1C15.1,2.7,13.3,0.8,11,0.8z M11,8.6
			C9,8.6,7.4,7,7.4,5S9,1.3,11,1.3c2,0,3.6,1.6,3.6,3.7C14.7,7,13,8.6,11,8.6z M12.6,3.3l-2.1,2.6L9.4,4.8c-0.1-0.1-0.3-0.1-0.5,0
			c-0.1,0.1-0.1,0.3,0,0.5l1.2,1.1l0,0c0.1,0.1,0.3,0.2,0.4,0.2c0,0,0,0,0,0c0.2,0,0.3-0.1,0.4-0.2c0,0,0,0,0,0l2.1-2.6
			c0.1-0.1,0.1-0.3-0.1-0.5C12.9,3.1,12.7,3.1,12.6,3.3z"/>
	</g>
</g>
</svg>
