<?xml version="1.0" encoding="utf-8"?>
<!-- Generator: Adobe Illustrator 24.0.2, SVG Export Plug-In . SVG Version: 6.00 Build 0)  -->
<svg version="1.1" id="Capa_1" xmlns="http://www.w3.org/2000/svg" xmlns:xlink="http://www.w3.org/1999/xlink" x="0px" y="0px"
	 viewBox="0 0 40 40" style="enable-background:new 0 0 40 40;" xml:space="preserve">
<style type="text/css">
	.st0{fill:#BCC5D3;}
</style>
<g>
	<g>
		<g>
			<path class="st0" d="M11.7188,7.1094c0-0.6472-0.5247-1.1719-1.1719-1.1719H5.8594c-0.6472,0-1.1719,0.5247-1.1719,1.1719
				s0.5247,1.1719,1.1719,1.1719h4.6875C11.1941,8.2813,11.7188,7.7566,11.7188,7.1094z M19.9219,25.8594h3.5156
				c0.6472,0,1.1719-0.5247,1.1719-1.1719s-0.5247-1.1719-1.1719-1.1719h-2.3438v-2.3438c0-0.6472-0.5247-1.1719-1.1719-1.1719
				c-0.6472,0-1.1719,0.5247-1.1719,1.1719v3.5156C18.75,25.3347,19.2747,25.8594,19.9219,25.8594z M16.4063,11.7969
				c0,0.6472,0.5247,1.1719,1.1719,1.1719H18.75v2.4169c-1.7094,0.2141-3.2769,0.8903-4.5737,1.8991l-0.8802-0.8802
				c-0.4576-0.4577-1.1996-0.4577-1.6573,0c-0.4577,0.4577-0.4577,1.1996,0,1.6573l0.8802,0.8802
				c-1.2354,1.5881-1.9722,3.5823-1.9722,5.7455c0,5.1694,4.2056,9.375,9.375,9.375s9.375-4.2056,9.375-9.375
				c0-2.1632-0.7369-4.1574-1.9722-5.7455l0.8802-0.8802c0.4577-0.4577,0.4577-1.1996,0-1.6573
				c-0.4576-0.4576-1.1996-0.4577-1.6573,0l-0.8802,0.8802c-1.2968-1.0087-2.8643-1.685-4.5737-1.8991v-2.4169h1.1719
				c0.6472,0,1.1719-0.5247,1.1719-1.1719s-0.5247-1.1719-1.1719-1.1719h-4.6875C16.9309,10.625,16.4063,11.1497,16.4063,11.7969z
				 M24.882,19.7087c0.0031,0.0032,0.0057,0.0066,0.0088,0.0098s0.0066,0.0057,0.0098,0.0088
				c1.2677,1.2725,2.0526,3.0264,2.0526,4.9602c0,3.877-3.1542,7.0313-7.0313,7.0313s-7.0312-3.1542-7.0312-7.0313
				c0-1.9339,0.7849-3.6879,2.0528-4.9604c0.003-0.003,0.0064-0.0055,0.0095-0.0086c0.003-0.003,0.0055-0.0064,0.0086-0.0095
				c1.2725-1.2679,3.0265-2.0528,4.9604-2.0528C21.8556,17.6563,23.6095,18.4411,24.882,19.7087z M38.8281,1.25
				c-2.2166,0-37.0722,0-37.6563,0C0.5247,1.25,0,1.7747,0,2.4219v35.1563C0,38.2253,0.5247,38.75,1.1719,38.75h37.6563
				C39.4753,38.75,40,38.2253,40,37.5781V2.4219C40,1.7747,39.4753,1.25,38.8281,1.25z M37.6563,36.4063H2.3438V3.5938h10.0615
				l4.3442,4.3442c0.2198,0.2198,0.5179,0.3433,0.8287,0.3433h20.0781V36.4063z M37.6563,5.9375H18.0635l-2.3437-2.3438h21.9365
				V5.9375z"/>
		</g>
	</g>
</g>
</svg>
