<?xml version="1.0" encoding="utf-8"?>
<!-- Generator: Adobe Illustrator 24.0.2, SVG Export Plug-In . SVG Version: 6.00 Build 0)  -->
<svg version="1.1" id="Capa_1" xmlns="http://www.w3.org/2000/svg" xmlns:xlink="http://www.w3.org/1999/xlink" x="0px" y="0px"
	 viewBox="0 0 200 66.6588" style="enable-background:new 0 0 200 66.6588;" xml:space="preserve">
<style type="text/css">
	.st0{fill:#5C559A;}
</style>
<path class="st0" d="M27.6138,18.3935c2.434-0.0028,4.7693,0.9617,6.4918,2.6814c3.5752,3.5752,9.4084,3.5752,13.0307,0
	c3.5752-3.5752,3.5752-9.4084,0-13.0307C42.1498,3.1048,35.2346,0,27.6138,0C12.3721,0,0,12.3721,0,27.6138
	c0,7.6208,3.1048,14.536,8.0913,19.5225l19.5225,19.5225l19.5225-19.5225c3.5752-3.5752,3.5752-9.4084,0-13.0307
	c-3.5752-3.5752-9.4084-3.5752-13.0307,0l-6.4918,6.5389l-6.4918-6.5389c-1.7197-1.7225-2.6843-4.0578-2.6814-6.4918
	C18.3935,22.5332,22.5332,18.3935,27.6138,18.3935z M17.8525,37.4221l9.7848,9.7848l9.7848-9.7848
	c1.7876-1.7876,4.7042-1.7876,6.4918,0c1.7876,1.7876,1.7876,4.7042,0,6.4918L27.6373,60.1905L11.3136,43.9139
	c-4.3047-4.3237-6.7231-10.1754-6.727-16.2766c0-12.7014,10.3022-23.0036,23.0036-23.0036c6.3507,0,12.0898,2.5873,16.2766,6.727
	c1.7876,1.7876,1.7876,4.7042,0,6.4918c-1.7876,1.7876-4.7042,1.7876-6.4918,0c-2.596-2.5929-6.1157-4.0481-9.7848-4.0456
	c-7.6208,0-13.8304,6.1625-13.8304,13.8304C13.8069,31.4242,15.3122,34.9053,17.8525,37.4221z M108.9498,17.0293
	c-2.0699-2.0228-4.8924-3.2459-8.0913-3.2459c-7.3856,0.047-13.0777,5.7862-13.0777,13.8304s5.6451,13.7834,13.0777,13.8304
	c3.1989,0,6.0214-1.2231,8.0913-3.2459v2.5403h4.8924V14.489l-4.8924,0.4234V17.0293z M100.8585,36.8105
	c-4.3749-0.047-8.0442-3.5752-8.0442-9.2203s3.6223-9.1732,8.0442-9.2203c4.3749,0.047,8.0442,3.5752,8.0442,9.2203
	C108.8557,33.2118,105.2334,36.8105,100.8585,36.8105z M74.703,18.3935c2.8696,0.047,5.4569,1.6935,6.8682,4.2808l4.2338-2.5873
	c-2.258-3.8575-6.3037-6.3037-11.102-6.3037c-7.4327,0.047-13.0777,5.7862-13.0777,13.8304s5.6451,13.7834,13.0777,13.8304
	c4.7983,0,8.8439-2.4462,11.102-6.3037l-4.2338-2.5873c-1.4113,2.5873-3.9986,4.2808-6.8682,4.2808
	c-4.3749-0.047-8.0442-3.5752-8.0442-9.2203S70.3281,18.4405,74.703,18.3935z M131.9299,13.7834
	c-3.1989,0-6.0214,1.2231-8.0913,3.2459V4.6101l-4.8924,0.4234v35.7286h4.8924v-2.5403c2.0699,2.0228,4.8924,3.2459,8.0913,3.2459
	c7.3856-0.047,13.0777-5.7862,13.0777-13.8304C145.0076,19.5696,139.3155,13.8304,131.9299,13.7834z M131.9299,36.8105
	c-4.3749-0.047-8.0442-3.5752-8.0442-9.2203s3.6223-9.1732,8.0442-9.2203c4.3749,0.047,8.0442,3.5752,8.0442,9.2203
	C139.9741,33.2118,136.3048,36.8105,131.9299,36.8105z M194.449,14.489l-7.5267,17.2645L178.878,14.489h-10.4434v-2.258
	c0-2.6814,1.2701-3.8104,3.8575-3.8104c0.7997,0,1.7406,0.1411,2.6814,0.3763l1.1761-4.0927
	c-1.5524-0.5175-3.2459-0.7997-5.1276-0.7997c-5.0806,0-7.809,3.2459-7.809,7.9972v2.6344l-4.469,0.3763v4.1397h4.469v21.6865
	h5.2217V19.0051h6.8211l9.0791,18.6287c-0.7527,1.6465-1.6935,3.4811-3.1518,4.6101c-1.3172,1.0349-2.9637,1.129-4.5631,0.7997
	l-1.2231,4.2338c2.3521,0.8468,5.3158,0.7527,7.5267-0.4234c2.3991-1.3172,3.9986-3.7634,5.0806-6.2096L200,14.442h-5.551
	L194.449,14.489z M151.8758,3.8575c-1.9758,0-3.5752,1.5524-3.5752,3.5752c0,1.9758,1.5994,3.5282,3.5752,3.5282
	c1.9758,0,3.5752-1.5524,3.5752-3.5282C155.404,5.4569,153.8516,3.8575,151.8758,3.8575z M149.2885,40.715h5.2217V14.489
	l-5.2217,0.4704V40.715z"/>
</svg>
