<?xml version="1.0" encoding="utf-8"?>
<!-- Generator: Adobe Illustrator 24.0.2, SVG Export Plug-In . SVG Version: 6.00 Build 0)  -->
<svg version="1.1" id="Capa_1" xmlns="http://www.w3.org/2000/svg" xmlns:xlink="http://www.w3.org/1999/xlink" x="0px" y="0px"
	 width="200.2559px" height="86.4868px" viewBox="0 0 200.2559 86.4868" style="enable-background:new 0 0 200.2559 86.4868;"
	 xml:space="preserve">
<style type="text/css">
	.st0{fill:#00BED6;}
</style>
<g>
	<g id="XMLID_78_">
		<path id="XMLID_79_" class="st0" d="M177.1894,49.2051h-18.9271v-4.506h18.9271V49.2051z M158.2623,37.3073h18.9271v4.3784
			h-18.9271V37.3073z M175.7733,52.2696c3.3479,0,4.8929-1.3905,4.8929-3.7859V46.373c0-0.6704-0.2323-0.9793-0.7215-1.3918
			l-2.1629-1.854l2.1629-1.8539c0.4892-0.4112,0.7215-0.7202,0.7215-1.3906v-1.8528c0-2.3954-1.545-3.7859-4.8929-3.7859h-20.9099
			v18.0255H175.7733z M140.6238,49.2051h-18.9271v-4.506h18.9271V49.2051z M121.6967,37.3073h18.9271v4.3784h-18.9271V37.3073z
			 M139.2065,52.2696c3.3479,0,4.8929-1.3905,4.8929-3.7859V46.373c0-0.6704-0.2313-0.9793-0.7202-1.3918l-2.1631-1.854
			l2.1631-1.8539c0.4889-0.4112,0.7202-0.7202,0.7202-1.3906v-1.8528c0-2.3954-1.545-3.7859-4.8929-3.7859h-20.9089v18.0255
			H139.2065z M103.1832,34.244v14.8066H85.2866V34.244h-3.3989v13.9051c0,2.5499,1.5438,4.1204,4.6095,4.1204h15.4756
			c3.0644,0,4.6095-1.5705,4.6095-4.1204V34.244H103.1832z M48.6177,41.609v-7.365h-3.3991v18.0255h3.3991v-7.4939h18.1545v7.4939
			h3.3991V34.244h-3.3991v7.365H48.6177z M35.305,37.4618V34.244H15.3476c-3.0647,0-4.6095,1.5706-4.6095,4.1204v9.7847
			c0,2.5499,1.5448,4.1204,4.6095,4.1204H35.305v-3.219h-21.09V37.4618H35.305z"/>
	</g>
	<g>
		<path class="st0" d="M188.8219,38.2781c-0.4645,0.4648-1.0255,0.6983-1.6847,0.6983c-0.6583,0-1.2178-0.2336-1.6802-0.6983
			c-0.4597-0.466-0.6899-1.0268-0.6899-1.6898c0-0.6533,0.2325-1.2129,0.6961-1.6765c0.4622-0.4623,1.0219-0.6946,1.674-0.6946
			c0.6592,0,1.2202,0.2324,1.6847,0.6946c0.4648,0.4624,0.6959,1.0207,0.6959,1.6765
			C189.5178,37.2465,189.2867,37.8097,188.8219,38.2781z M185.6943,35.1431c-0.3978,0.4027-0.5985,0.8833-0.5985,1.4502
			c0,0.5693,0.2007,1.0546,0.5935,1.4574c0.398,0.4015,0.881,0.6034,1.4479,0.6034c0.5693,0,1.0511-0.2019,1.4489-0.6034
			c0.3978-0.4027,0.5949-0.8881,0.5949-1.4574c0-0.5669-0.1971-1.0475-0.5949-1.4502c-0.4002-0.4015-0.8819-0.601-1.4489-0.601
			C186.5751,34.5421,186.0909,34.7416,185.6943,35.1431z M187.092,35.2769c0.3249,0,0.561,0.0328,0.7131,0.0948
			c0.2701,0.1108,0.405,0.3333,0.405,0.6594c0,0.2348-0.084,0.4064-0.2555,0.5171c-0.0887,0.0572-0.2165,0.1009-0.3782,0.1253
			c0.2067,0.0328,0.3552,0.1192,0.45,0.2567c0.0938,0.1388,0.1411,0.2725,0.1411,0.4051v0.1898
			c0,0.0609,0.0024,0.1277,0.0062,0.1934c0.0048,0.0694,0.0122,0.1157,0.0242,0.1375l0.0146,0.0328h-0.4294
			c-0.0024-0.0085-0.0048-0.0182-0.006-0.0268c-0.005-0.0073-0.005-0.0182-0.0062-0.0304l-0.011-0.0828v-0.208
			c0-0.3004-0.0825-0.4975-0.2457-0.5973c-0.0974-0.0536-0.2689-0.0828-0.5121-0.0828h-0.3638v1.028h-0.4597v-2.6119H187.092z
			 M187.5883,35.6881c-0.1143-0.0644-0.3004-0.0961-0.5571-0.0961h-0.393v0.9465h0.4162c0.1959,0,0.3406-0.0207,0.4392-0.0609
			c0.1799-0.0706,0.2689-0.2056,0.2689-0.4075C187.7625,35.8803,187.7041,35.7538,187.5883,35.6881z"/>
	</g>
</g>
</svg>
