<?xml version="1.0" encoding="utf-8"?>
<!-- Generator: Adobe Illustrator 24.0.2, SVG Export Plug-In . SVG Version: 6.00 Build 0)  -->
<svg version="1.1" id="Capa_1" xmlns="http://www.w3.org/2000/svg" xmlns:xlink="http://www.w3.org/1999/xlink" x="0px" y="0px"
	 width="100px" height="26.2793px" viewBox="0 0 100 26.2793" style="enable-background:new 0 0 100 26.2793;" xml:space="preserve"
	>
<style type="text/css">
	.st0{fill-rule:evenodd;clip-rule:evenodd;fill:#10284A;}
	.st1{clip-path:url(#SVGID_2_);}
</style>
<g id="surface1">
	<path class="st0" d="M13.1396,7.4729c-1.5547,0-2.909,0.5518-4.012,1.6548s-1.6555,2.4573-1.6555,4.012
		c0,1.6044,0.5526,2.909,1.6555,4.012c1.1029,1.1541,2.4573,1.7052,4.012,1.7052s2.909-0.5511,4.0113-1.7052
		c1.1037-1.1029,1.6555-2.4076,1.6555-4.012c0-1.5547-0.5518-2.909-1.6555-4.012C16.0487,8.0247,14.6943,7.4729,13.1396,7.4729"/>
	<path class="st0" d="M13.1396,6.4701V0c-2.3068,0-4.4637,0.6015-6.4701,1.7052v9.8293c0.3516-1.4538,1.1541-2.6576,2.3075-3.5603
		C10.2306,6.9715,11.585,6.4701,13.1396,6.4701"/>
	<path class="st0" d="M11.7356,19.7588c-1.505-0.3508-2.708-1.1527-3.6114-2.3565c-1.0028-1.2038-1.4545-2.5575-1.4545-4.1129H0
		c0,2.3075,0.6015,4.4644,1.7557,6.4693"/>
	<g>
		<defs>
			<rect id="SVGID_1_" x="13.098" y="14.7813" width="6.7361" height="11.498"/>
		</defs>
		<clipPath id="SVGID_2_">
			<use xlink:href="#SVGID_1_"  style="overflow:visible;"/>
		</clipPath>
		<g class="st1">
			<path class="st0" d="M19.6587,14.8449c-0.3508,1.4538-1.1029,2.6583-2.306,3.6107c-1.2038,0.9524-2.6086,1.4545-4.1633,1.4545
				v6.3692c2.3075,0,4.4637-0.5518,6.4693-1.7052"/>
		</g>
	</g>
	<path class="st0" d="M26.2786,13.0899c0-2.3075-0.6015-4.4637-1.7549-6.4701h-9.7292c1.5042,0.3516,2.7088,1.1534,3.6107,2.3068
		c1.0028,1.2542,1.4545,2.6079,1.4545,4.1633"/>
	<path class="st0" d="M29.2877,14.5934h2.3068v-7.622h-2.3068V14.5934z"/>
	<path class="st0" d="M43.6809,6.9715h-2.3565v5.5162l-4.4637-5.5162H33.25v7.6227h2.3572V9.0275l4.4133,5.5666h3.6604"/>
	<path class="st0" d="M53.6111,10.7327v-0.0504c0.4013-0.1009,0.6512-0.2507,0.8025-0.4517
		c0.2507-0.2507,0.3508-0.7017,0.3508-1.304c0-0.7017-0.2507-1.2031-0.7024-1.5547c-0.451-0.3004-1.1534-0.4005-2.1065-0.4005
		h-6.7697v7.6227h7.5226c0.7521,0,1.304-0.1009,1.6541-0.3516c0.402-0.3508,0.6527-0.9019,0.6527-1.6555
		c0-0.6008-0.1009-1.0525-0.3004-1.3025C54.4633,10.9834,54.1125,10.7824,53.6111,10.7327 M47.543,11.5346h4.2123
		c0.5518,0,0.853,0.2514,0.853,0.652c0,0.4005-0.3011,0.5526-0.853,0.5526H47.543V11.5346z M47.543,9.9799V8.7761h4.1618
		c0.4517,0,0.7024,0.201,0.7024,0.6023s-0.2507,0.6015-0.7024,0.6015"/>
	<path class="st0" d="M65.9979,6.9715h-2.3068v4.4125c0,0.4524-0.1506,0.8025-0.3004,1.0035
		c-0.201,0.2507-0.6023,0.3508-1.054,0.3508H60.03c-0.5014,0-0.8018-0.1001-1.0525-0.3508
		c-0.2017-0.201-0.2514-0.5511-0.2514-1.0035V6.9715h-2.3572v4.9147c0,0.9516,0.2507,1.6555,0.7528,2.1058
		c0.5014,0.5014,1.3039,0.7024,2.3565,0.7024h3.4104c1.054,0,1.8558-0.201,2.3572-0.7024c0.5014-0.4502,0.7521-1.1541,0.7521-2.1058
		"/>
	<path class="st0" d="M69.8593,12.6382h3.7116c0.3508,0,0.6015,0.0504,0.7514,0.1995c0.1513,0.1513,0.2017,0.4517,0.2017,0.8537
		v0.9027h2.3565v-1.3047c0-0.5511-0.0994-1.0028-0.3508-1.2535c-0.2003-0.2003-0.5014-0.3508-0.9027-0.451
		c0.5014-0.1001,0.8522-0.3516,1.0533-0.652c0.1498-0.3011,0.2507-0.7024,0.2507-1.2535V9.2278c0-0.7521-0.1498-1.304-0.4517-1.6548
		c-0.4013-0.4517-1.0028-0.6015-1.8558-0.6015h-7.1206v7.6227h2.3565V12.6382z M69.8593,10.6823V8.8265h3.7116
		c0.6271,0,1.0525,0.1074,1.0525,0.8025v0.2507c0,0.5518-0.3011,0.8025-0.8522,0.8025"/>
	<path class="st0" d="M83.4506,9.8301l-2.3579-0.1001c-0.1498,0-0.3004-0.1009-0.3508-0.201
		c-0.0504-0.0504-0.1001-0.201-0.1001-0.3516c0-0.4013,0.3011-0.6008,0.9027-0.6008h2.6079c0.5021,0,0.853,0.0497,1.0028,0.1498
		c0.1001,0.1009,0.1513,0.3011,0.1513,0.652h2.3565V9.1277c0-0.8025-0.1506-1.3544-0.5014-1.6548
		c-0.4013-0.4517-1.2542-0.652-2.4581-0.652h-3.3088c-1.3544,0-2.2571,0.2507-2.6576,0.7017
		c-0.3019,0.3516-0.4517,0.9531-0.4517,1.7557c0,0.5518,0.0497,0.9027,0.1498,1.2031c0.0504,0.3011,0.2507,0.5021,0.5014,0.7017
		c0.5014,0.3019,1.5554,0.4517,3.3103,0.4517l2.8082,0.1009c0.2003,0,0.3508,0.1001,0.402,0.2003l0.0994,0.402
		c0,0.2492-0.0994,0.4502-0.3011,0.5511l-0.7017,0.1001h-2.9083l-0.7528-0.1513c-0.1506-0.0994-0.2507-0.3501-0.2507-0.7506h-2.3565
		v0.5511c0,0.8025,0.25,1.3537,0.7017,1.6541c0.4013,0.2522,1.2031,0.402,2.3075,0.402h2.8579c1.5554,0,2.6079-0.1498,3.0596-0.4517
		c0.3004-0.1498,0.5014-0.4005,0.6015-0.7017c0.1001-0.3011,0.1506-0.7528,0.1506-1.2542c0-0.6015-0.0504-1.0021-0.201-1.3032
		c-0.1001-0.3516-0.3508-0.6023-0.652-0.7528C86.56,9.9295,85.3561,9.8301,83.4506,9.8301"/>
	<path class="st0" d="M95.7877,6.9715h-3.0596l-4.1618,7.6227h2.6569l0.6527-1.3544l0.9027-1.6548l1.5042-2.8586l1.505,2.8586
		h-3.0092l-0.9027,1.6548h4.8138l0.7024,1.3544H100"/>
</g>
</svg>
