<?xml version="1.0" encoding="utf-8"?>
<!-- Generator: Adobe Illustrator 24.0.2, SVG Export Plug-In . SVG Version: 6.00 Build 0)  -->
<svg version="1.1" id="Capa_1" xmlns="http://www.w3.org/2000/svg" xmlns:xlink="http://www.w3.org/1999/xlink" x="0px" y="0px"
	 viewBox="0 0 200 56.8675" style="enable-background:new 0 0 200 56.8675;" xml:space="preserve">
<style type="text/css">
	.st0{fill:#003865;}
	.st1{fill:#E42313;}
</style>
<path class="st0" d="M193.2511,23.456c0-1.6539,1.349-3.0032,3.0028-3.0032s3.0049,1.3493,3.0049,3.0032
	c0,1.6542-1.351,3.0039-3.0049,3.0039C194.6,26.4936,193.2511,25.1436,193.2511,23.456z M196.1865,22.3086h-0.7089l-0.4047,1.8225
	l-0.4384-1.8225h-0.7089v2.3283h0.4384v-1.9571l0.4384,1.9571h0.4728l0.4384-1.9571v1.9571h0.4398v-2.3283H196.1865z
	 M196.6586,24.637h0.4728v-0.9109h0.5059c0.3723,0,0.3723,0.1349,0.3723,0.4384c0,0.2364,0.0338,0.3713,0.0661,0.4725h0.541
	c-0.1005-0.1012-0.1005-0.1683-0.1005-0.5396c0-0.4388-0.1019-0.5066-0.3042-0.5737c0.2361-0.0678,0.3703-0.3042,0.3703-0.5403
	c0-0.2023-0.1005-0.6411-0.7426-0.6411h-1.1811L196.6586,24.637L196.6586,24.637z M197.1315,23.3214v-0.6077h0.6077
	c0.3042,0,0.3365,0.1687,0.3365,0.3035c0,0.2364-0.1342,0.3042-0.3703,0.3042L197.1315,23.3214L197.1315,23.3214z"/>
<g>
	<path class="st1" d="M18.089,40.4658L32.7033,0.3713h-3.1388L16.4017,36.3824L18.089,40.4658z M20.2487,45.6298L36.7533,0.3713
		h-3.1388L18.5618,41.6124L20.2487,45.6298z M22.4094,50.8274L40.8033,0.3713h-3.1391l-16.943,46.4401L22.4094,50.8274z
		 M24.6029,56.0244L44.8533,0.3713h-3.1051L22.9159,52.0085L24.6029,56.0244z M59.2977,1.7888
		c0.202,0.5396,0.1689,1.2151-0.1345,1.9577c-0.3042,0.776-0.7089,1.4174-1.2829,1.9233C57.5427,5.94,57.1377,6.176,56.6318,6.4124
		c0.5737,0.2361,0.9109,0.6074,1.0799,1.1476c0.1345,0.5059,0.1012,1.1473-0.1689,1.8899c-0.2694,0.776-0.7086,1.4515-1.3163,2.0589
		c-0.4043,0.4047-0.8438,0.7419-1.2822,1.012c-0.5396,0.3035-1.0799,0.5406-1.6876,0.6415
		c-0.6074,0.1012-1.2485,0.1687-1.8899,0.1687h-5.8385l4.7245-12.9257h6.2438C58.0151,0.4384,58.9601,0.9109,59.2977,1.7888z
		 M50.1182,7.6613l-1.2489,3.4423h3.1388c0.573,0,1.0455-0.0678,1.3837-0.2361c0.6745-0.3042,1.1469-0.8097,1.4512-1.6205
		c0.2364-0.6748,0.1345-1.1469-0.3379-1.3834c-0.2694-0.1349-0.6748-0.2023-1.2144-0.2023H50.1182L50.1182,7.6613z M51.9403,2.6326
		l-1.0462,2.8686h3.1384c0.5403,0,1.0806-0.1012,1.4852-0.3372c0.4384-0.203,0.7426-0.5743,0.945-1.148
		c0.2023-0.6074,0.1349-1.012-0.2701-1.2151c-0.3376-0.1342-0.8431-0.2023-1.4515-0.2023h-2.8008L51.9403,2.6326L51.9403,2.6326z
		 M66.8244,0.4054h3.071l-0.1356,12.9257h-2.9354l0.1345-2.6659h-4.7586l-1.8221,2.6659h-2.8356L66.8244,0.4054z M63.7194,8.4713
		h3.3074l0.2023-5.0962L63.7194,8.4713z M76.0377,0.4054h2.8349l1.8896,9.0106l3.2737-9.0106h2.498L81.809,13.3311h-2.6663
		L77.185,4.1171l-3.3752,9.2139h-2.497L76.0377,0.4054z M89.8409,1.7547c1.4174-1.0799,2.9368-1.6195,4.5565-1.6195
		c2.16,0,3.4756,0.7086,3.9482,2.1598c0.2701,0.8101,0.2701,1.6198,0,2.4299h-2.6993c0.0667-0.6077,0-1.0802-0.1696-1.3837
		c-0.2687-0.5737-0.8768-0.8438-1.8559-0.8438c-0.945,0-1.8559,0.4054-2.7003,1.1814c-0.8431,0.7764-1.5179,1.9237-2.0582,3.3752
		c-0.5403,1.4512-0.6408,2.5314-0.3042,3.24c0.3383,0.7089,0.945,1.0802,1.8235,1.0802c0.9109,0,1.754-0.3042,2.4639-0.9119
		c0.3706-0.3372,0.7753-0.8438,1.2141-1.4845h2.6663c-0.7426,1.4174-1.754,2.5648-3.0373,3.4423
		c-1.2829,0.8779-2.6663,1.3163-4.1515,1.3163c-1.8221,0-3.071-0.6074-3.678-1.7888c-0.6084-1.2151-0.5403-2.8346,0.2361-4.9275
		C86.9382,4.7249,88.1874,2.9698,89.8409,1.7547L89.8409,1.7547z M107.7282,12.1838c-1.3496,1.012-2.9368,1.5186-4.7923,1.5186
		c-1.8562,0-3.0713-0.5066-3.6794-1.5186c-0.8772-1.2492-0.8772-3.0039-0.0327-5.3322c0.8772-2.3631,2.1587-4.1519,3.9144-5.3329
		C104.4886,0.5066,106.075,0,107.9306,0c1.8576,0,3.071,0.5066,3.6794,1.5186c0.8768,1.1811,0.8768,2.9698,0.0338,5.3329
		C110.7992,9.1799,109.4839,10.9687,107.7282,12.1838z M106.7833,10.2261c0.9113-0.8101,1.6539-1.924,2.1604-3.3745
		c0.5403-1.4515,0.6077-2.5654,0.2698-3.3752c-0.3379-0.8098-1.0469-1.1814-2.126-1.1814c-1.0806,0-2.0593,0.4047-3.0042,1.1814
		c-0.9113,0.776-1.6539,1.9237-2.1942,3.3752c-0.5389,1.4505-0.6408,2.5644-0.2691,3.3745c0.371,0.8097,1.0798,1.1811,2.126,1.1811
		C104.8596,11.4071,105.8383,11.0358,106.7833,10.2261z"/>
</g>
<path class="st0" d="M179.2115,41.7143l3.5431-10.6982l3.4419,10.6982H179.2115z M187.3776,20.3846h-9.045l-12.7224,35.6397h8.9087
	l2.3283-7.087h11.6776c0.2361,0.8094,2.2616,7.0532,2.2616,7.0532H200L187.3776,20.3846z M9.6854,20.3846H0v35.6397h16.4018V36.416
	L9.6854,20.3846z M38.4743,20.3846L32.77,36.4161v19.6083h16.4027V20.3847L38.4743,20.3846L38.4743,20.3846z M72.6284,20.3846
	v21.7343c0,2.2278-0.2701,3.8817-0.7764,4.8604c-0.7753,1.722-2.4292,2.5307-5.0955,2.5307c-2.6666,0-4.3202-0.8087-5.0968-2.4963
	c-0.5055-1.0131-0.7757-2.667-0.7757-4.8948V20.3846h-8.5725v21.7343c0,3.7475,0.6077,6.7167,1.7888,8.8427
	c2.2613,3.9155,6.514,5.9059,12.69,5.9059c6.1764,0,10.4284-1.9904,12.6563-5.9059c1.1814-2.126,1.7881-5.0951,1.7881-8.8427
	V20.3846H72.6284z M84.2719,20.3846v35.6397h25.5823v-7.493H92.7436V20.3846H84.2719z M102.0591,20.3846v7.3911h10.3272v28.2486
	h8.5384V27.7758h10.3279v-7.3911H102.0591z M133.8171,20.3846h17.1788c0,0,5.8721,20.6551,6.9527,24.3332l7.0195-24.3332h8.8082
	l-12.1497,35.6397h-7.694l-11.7113-34.6948v34.6948h-8.438V20.3846H133.8171z"/>
</svg>
