<?xml version="1.0" encoding="utf-8"?>
<!-- Generator: Adobe Illustrator 24.0.2, SVG Export Plug-In . SVG Version: 6.00 Build 0)  -->
<svg version="1.1" id="Capa_1" xmlns="http://www.w3.org/2000/svg" xmlns:xlink="http://www.w3.org/1999/xlink" x="0px" y="0px"
	 viewBox="0 0 200 51.3245" style="enable-background:new 0 0 200 51.3245;" xml:space="preserve">
<style type="text/css">
	.st0{fill:#0042A1;}
	.st1{fill:#00449D;}
	.st2{fill:#E63A8F;}
	.st3{fill:#FF3793;}
	.st4{fill:#C12B77;}
</style>
<g>
	<path class="st0" d="M0,6.2111c0.1679-0.437,0.3026-0.8739,0.5036-1.2939c0.6562-1.3781,1.7478-2.3698,3.2613-2.3698
		c4.1338-0.0335,8.3187-0.2521,12.3868,0.2856c7.7474,1.0421,13.2262,9.0754,11.8653,16.7727
		c-1.3616,7.5965-7.261,12.555-14.9919,12.555c-1.5129,0-3.0084,0-4.6049,0c0,2.5719,0.0159,5.0083,0,7.4621
		c0,0.6065-0.0173,1.2275-0.1685,1.7982c-0.4698,1.7318-2.1173,2.9249-3.8989,2.9594c-1.765,0.0332-3.3283-1.0763-3.9321-2.7735
		c-0.1181-0.3357-0.2528-0.6888-0.3702-1.0258C0,29.1186,0,17.673,0,6.2111z M8.4361,23.8246c1.765,0,3.4119,0.0173,5.0429,0
		c3.1929-0.0332,5.8484-2.3691,6.3354-5.5461c0.4711-3.1428-1.3947-6.4031-4.4868-7.0756
		c-2.2182-0.4874-4.5717-0.3361-6.8915-0.4705C8.4361,15.2196,8.4361,19.4553,8.4361,23.8246z"/>
	<path class="st0" d="M90.0334,5.4212c2.3025-1.9325,4.9752-3.0589,8.0672-3.0755c6.8238-0.0504,12.487,5.3948,12.6052,12.2355
		c0.067,4.5037,0.0338,9.025,0.0166,13.5294c-0.0166,2.4537-1.832,4.2692-4.1842,4.2519c-2.3874-0.0159-4.0847-1.7816-4.0847-4.3023
		c-0.0166-4.3362,0.0166-8.6896-0.0166-13.0255c-0.0173-2.1681-1.3782-3.8489-3.4285-4.2857
		c-1.7816-0.3865-3.7649,0.6555-4.5213,2.4537c-0.2183,0.5043-0.3026,1.1094-0.3026,1.6638c-0.0159,4.4036,0,8.8236-0.0159,13.2269
		c-0.0173,1.8486-0.8414,3.2606-2.5891,3.9666c-1.6476,0.6555-3.1763,0.3702-4.4702-0.8745
		c-0.9077-0.8566-1.2435-1.9654-1.2275-3.1922c0.0173-3.866,0.0173-7.7487,0-11.6138c0-0.7395,0-1.479-0.1008-2.2188
		c-0.2515-1.983-2.1505-3.512-4.2008-3.462c-2.118,0.0504-3.883,1.765-4.0004,3.9328c-0.067,1.2773-0.0166,2.5546-0.0166,3.8322
		c0,3.1929,0.0166,6.4027,0,9.5967c-0.0173,1.7982-0.7737,3.2102-2.4537,3.9493c-1.5467,0.6728-3.0423,0.4711-4.3534-0.6051
		c-0.9582-0.7896-1.4624-1.8486-1.4624-3.0921c-0.0159-4.6387-0.1341-9.2948,0.0345-13.9332
		c0.1845-4.941,2.6223-8.6555,7.0918-10.7901c4.4875-2.1342,8.8243-1.5795,12.8579,1.3446
		c0.2183,0.1513,0.4194,0.3195,0.6384,0.4874C89.8988,5.4046,89.9492,5.4046,90.0334,5.4212z"/>
	<path class="st0" d="M124.5378,21.1692c2.3356,3.2941,6.6048,3.9324,9.8488,1.5633c1.0086-0.7395,2.0669-1.1433,3.2938-0.9246
		c1.6807,0.3026,2.7901,1.2942,3.2102,2.958c0.4539,1.7478-0.1008,3.1936-1.4956,4.3023c-1.9328,1.5295-4.1345,2.5208-6.5551,2.9414
		c-8.1343,1.412-15.9162-3.9493-17.3945-11.9496c-1.5295-8.2689,3.6972-16.1179,11.8315-17.7983
		c9.16-1.8824,18.0673,5.4622,17.9326,14.7729c-0.0331,2.4537-1.7312,4.1179-4.2685,4.1179c-5.076,0.0166-10.1679,0-15.244,0
		C125.344,21.1692,125.0082,21.1692,124.5378,21.1692z M135.7979,13.0515c-3.0582-4.3358-9.176-3.4789-11.16,0
		C128.3359,13.0515,132.0165,13.0515,135.7979,13.0515z"/>
	<path class="st0" d="M170.2346,17.4378c-0.0166-8.2517,6.6386-14.9746,14.824-15.0078C193.2937,2.4131,200,9.1187,200,17.4046
		c0,8.2689-6.7395,15.0589-14.9248,15.0257C176.8905,32.3958,170.2519,25.6736,170.2346,17.4378z M185.1428,24.0599
		c3.6302-0.0166,6.5876-3.0247,6.571-6.6552c-0.0166-3.6302-3.0417-6.6386-6.6386-6.6221c-3.6302,0.0169-6.571,3.0254-6.5544,6.6725
		C178.5381,21.119,181.4955,24.0599,185.1428,24.0599z"/>
	<path class="st1" d="M38.5373,3.6904c1.9494-0.4035,3.8996-0.9582,5.8822-1.1598c2.5552-0.2521,4.4882,1.5464,4.6394,4.0001
		c0.1341,2.3025-1.7145,4.2018-4.236,4.3362c-3.1929,0.1679-5.3939,2.4199-5.4111,5.6135c-0.0338,3.8316,0,7.6807-0.0173,11.5129
		c-0.0166,2.7563-1.9163,4.571-4.5372,4.3694c-2.118-0.1513-3.731-1.899-3.7483-4.1345c-0.0173-5.4791,0-10.9748,0-16.4536
		c0-1.6472,0-3.2944,0-4.9414c0-1.8994,0.7903-3.311,2.5712-4.0671c1.7478-0.7399,3.2951-0.3029,4.6221,1.0082
		c0.0836,0.0839,0.2017,0.1679,0.3026,0.2518C38.5546,3.8921,38.5546,3.7912,38.5373,3.6904z"/>
	<path class="st2" d="M56.0499,12.1946c-1.8313-0.1682-3.1425-0.9747-3.798-2.5881c-0.6722-1.6807-0.4035-3.2775,0.8904-4.5548
		c1.4452-1.4116,2.9414-2.7732,4.4882-4.0671c1.2939-1.0925,2.8227-1.2773,4.3528-0.5043c1.5467,0.773,2.3529,2.0503,2.3529,3.8149
		c0,7.9494,0,15.8992-0.0173,23.8487c0,2.471-1.765,4.2692-4.1511,4.2519c-2.3529-0.0159-4.1179-1.8313-4.1338-4.3189
		c-0.0173-4.8909,0-9.7645,0-14.6554C56.0499,13.0346,56.0499,12.6653,56.0499,12.1946z"/>
	<path class="st0" d="M150.3532,21.7239c0-1.9494-0.0511-3.8989,0.0166-5.8487c0.2515-7.3447,6.2684-13.2942,13.5128-13.3951
		c2.0503-0.0335,3.6965,1.1598,4.2512,3.0589c0.5043,1.7481-0.1845,3.7145-1.7975,4.6387
		c-0.6728,0.3865-1.5129,0.6048-2.2859,0.6555c-3.2274,0.2352-5.3952,2.4872-5.4117,5.7479
		c-0.0173,3.8658,0.0166,7.7477-0.0173,11.6131c-0.0166,1.8659-1.0749,3.3283-2.7563,3.9507
		c-1.5294,0.5706-3.311,0.1341-4.4371-1.1101c-0.7564-0.8234-1.1094-1.8148-1.1094-2.9414
		C150.3359,25.9592,150.3359,23.8419,150.3532,21.7239C150.3359,21.7239,150.3359,21.7239,150.3532,21.7239z"/>
	<path class="st3" d="M155.7982,45.9425c-1.4962,1.3947-3.0928,1.4797-4.7058,0.7564c-1.6476-0.7219-2.2016-2.1843-2.2521-3.8658
		c-0.0166-0.706,0.0332-1.412,0.1845-2.1007c0.6894-3.2938,4.571-4.6394,6.9246-2.0172c0.0338-0.2017,0.0504-0.353,0.0843-0.487
		c0.201-0.7233,0.7219-0.9409,1.3947-0.8573c0.6555,0.0836,1.0252,0.487,1.0252,1.1598c0,2.9249,0.067,5.8656-0.0332,8.7905
		c-0.0677,2.2016-1.5129,3.7808-3.6979,3.9825c-1.2269,0.1008-2.5214-0.1845-3.7483-0.4539
		c-0.4532-0.1008-1.0086-0.5547-1.1931-0.9913c-0.1852-0.4207-0.134-1.1771,0.1513-1.5129c0.2183-0.268,0.9415-0.1513,1.4285-0.1008
		c0.219,0.0173,0.4373,0.3026,0.6224,0.487c0.7723,0.7233,1.6801,0.8241,2.6216,0.4539c0.8739-0.3357,1.0756-1.1426,1.1931-1.9654
		C155.832,46.8674,155.7982,46.4972,155.7982,45.9425z M155.899,42.2957c-0.0843-0.487-0.1513-0.9582-0.2687-1.3947
		c-0.219-0.84-0.7571-1.3284-1.6476-1.3775c-0.9077-0.0518-1.6807,0.2004-2.0842,1.0909c-0.4705,1.059-0.5375,2.1512-0.083,3.2274
		c0.3524,0.8573,1.0245,1.327,1.9827,1.278c0.9243-0.0504,1.5799-0.5388,1.832-1.4452
		C155.7478,43.2207,155.8147,42.7496,155.899,42.2957z"/>
	<path class="st3" d="M140.2688,43.019c0,1.0417,0.353,1.7968,1.2269,2.2003c0.9747,0.4379,1.9661,0.4048,2.891-0.1845
		c0.2515-0.1685,0.4532-0.5043,0.7053-0.5547c0.5043-0.0836,1.1433-0.2017,1.5461,0.0345c0.572,0.3185,0.4545,0.9913,0.1181,1.5288
		c-0.1181,0.2017-0.286,0.3702-0.4711,0.5202c-1.8818,1.5978-5.7475,1.3961-7.4614-0.3689
		c-1.7312-1.7637-1.7989-5.3268-0.1015-7.2272c1.4624-1.6296,3.3442-1.915,5.362-1.4279c1.7816,0.4206,2.9242,1.5792,3.3615,3.3787
		c0.4028,1.6296,0.0332,2.0835-1.631,2.1007C143.9992,43.019,142.1513,43.019,140.2688,43.019z M144.8904,41.3707
		c-0.1852-1.3443-0.9741-2.0662-2.1843-2.0835c-1.2946-0.0173-2.1346,0.7233-2.3529,2.0835
		C141.8819,41.3707,143.3782,41.3707,144.8904,41.3707z"/>
	<path class="st3" d="M167.2434,45.977c-0.9913,1.1081-2.0165,1.696-3.3781,1.6628c-1.9667-0.0504-3.2606-1.1758-3.3442-3.1425
		c-0.0849-1.9494-0.0338-3.8989-0.0173-5.8484c0-0.8573,0.5043-1.278,1.3443-1.3111c0.8739-0.0173,1.3616,0.4207,1.3954,1.3616
		c0.0332,1.5129,0,3.0244,0.0166,4.5372c0.0166,1.4452,0.5713,2.1512,1.6807,2.1512c1.1426,0,2.0172-0.9077,2.0503-2.1671
		c0.0338-1.412,0-2.824,0.0173-4.236c0.0166-1.1598,0.4705-1.6641,1.4286-1.6469c0.9237,0.0173,1.3277,0.487,1.3277,1.6296
		c0.0166,2.3529,0,4.7071,0,7.0587c0,0.791-0.1175,1.5142-1.1101,1.5964C167.613,47.7248,167.2938,47.0692,167.2434,45.977z"/>
	<path class="st3" d="M183.7309,47.6398c-3.2102,0.0173-5.0588-1.8141-5.0926-5.0588c-0.0338-3.1598,1.9328-5.2101,4.9918-5.2432
		c3.0755-0.0173,5.076,1.9999,5.0926,5.1424C188.7392,45.7407,186.9072,47.6398,183.7309,47.6398z M181.4285,42.447
		c0,0.2017-0.0173,0.4035,0,0.6051c0.1008,1.5288,0.9582,2.5374,2.185,2.5719c1.2103,0.0332,2.0669-0.8414,2.3025-2.337
		c0.0332-0.268,0.067-0.5375,0.067-0.8069c0-1.915-0.8739-3.0921-2.2859-3.0921C182.2519,39.3708,181.4112,40.4975,181.4285,42.447z
		"/>
	<path class="st3" d="M131.7809,47.7579c-0.8062-0.2176-1.8148-0.3862-2.7218-0.7896c-0.5381-0.2362-1.059-0.7577-1.3118-1.2952
		c-0.1679-0.3517,0.0173-1.0922,0.3198-1.3775c0.2356-0.2176,0.9071-0.0836,1.345,0.0332c0.2853,0.0849,0.4532,0.5043,0.7558,0.6555
		c0.5885,0.2867,1.1937,0.5879,1.832,0.6888c0.6722,0.1022,1.479-0.0664,1.546-0.9237c0.0677-0.7896-0.7226-0.8241-1.2939-0.9913
		c-0.9747-0.2694-1.9494-0.487-2.9076-0.8241c-1.0928-0.3862-1.6973-1.1931-1.7478-2.3529
		c-0.0511-1.1426,0.4035-2.0676,1.4279-2.5878c2.0172-1.0258,4.0336-0.8573,5.9837,0.2017c0.3026,0.1672,0.6722,0.5043,0.706,0.8069
		c0.0497,0.4366-0.0504,1.1758-0.3357,1.3098c-0.4041,0.203-1.1605,0.1858-1.5135-0.0664c-0.7723-0.572-1.5288-1.0417-2.487-0.8069
		c-0.3862,0.0849-0.6894,0.5043-1.0258,0.7737c0.2867,0.268,0.5215,0.6715,0.8573,0.8055c0.8911,0.3198,1.8327,0.4539,2.7231,0.7564
		c1.7139,0.572,2.3695,1.3616,2.3363,2.7404c-0.0166,1.3603-0.858,2.3861-2.404,2.8731
		C133.2606,47.5562,132.6216,47.6066,131.7809,47.7579z"/>
	<path class="st3" d="M194.2691,47.7911c-0.9077-0.2349-1.8327-0.4194-2.6893-0.7392c-0.4877-0.1845-0.925-0.5547-1.2773-0.9409
		c-0.505-0.5547-0.5885-1.2607,0.0166-1.7982c0.5886-0.5388,1.2096-0.3026,1.698,0.2176c0.6888,0.7564,1.4618,1.2952,2.5539,1.1598
		c0.2356-0.0332,0.5209-0.0173,0.6722-0.1513c0.2528-0.2176,0.6058-0.5375,0.6058-0.8228c0-0.2534-0.353-0.6555-0.6224-0.7564
		c-0.9913-0.3371-2.0165-0.5215-3.0084-0.8241c-1.9156-0.5879-2.7901-2.1339-2.0338-3.7808c0.2694-0.5879,0.84-1.1944,1.412-1.4624
		c1.9156-0.9077,3.8485-0.7233,5.7144,0.2521c0.1679,0.0836,0.3357,0.2349,0.4711,0.3689c0.5036,0.5388,0.6044,1.1439,0.0836,1.7159
		c-0.4877,0.5375-1.126,0.5029-1.6303,0.0491c-0.7226-0.6383-1.479-1.1081-2.4537-0.8904c-0.4035,0.0836-0.7392,0.4711-1.0922,0.706
		c0.3019,0.3026,0.5374,0.7392,0.8904,0.8732c0.706,0.2867,1.4956,0.3875,2.2354,0.5892c1.9667,0.5375,2.9242,1.5792,2.8234,3.0244
		c-0.1175,1.5473-1.4624,2.7563-3.3276,2.9753c-0.3357,0.0332-0.6722,0-1.0086,0C194.3023,47.673,194.2857,47.7248,194.2691,47.7911
		z"/>
	<path class="st3" d="M174.4706,39.2527c0.353-0.5375,0.5879-0.9913,0.9243-1.3443c0.8234-0.8387,2.2016-0.7047,2.672,0.219
		c0.4373,0.8904-0.067,1.7809-1.0756,1.899c-1.832,0.2349-2.2016,0.5879-2.2686,2.4537c-0.0504,1.2103,0,2.4206-0.0338,3.6309
		c-0.0166,1.1094-0.4373,1.546-1.412,1.5288c-0.9077-0.0173-1.3112-0.4366-1.3112-1.5115c-0.0166-2.3197,0-4.6394,0-6.9578
		c0-1.278,0.353-1.8154,1.2103-1.8154C174.0167,37.3378,174.3698,37.8249,174.4706,39.2527z"/>
	<path class="st2" d="M39.5632,6.2951v6.9916c0,2.1515-1.765,3.9158-3.9162,3.9158h-0.639c-2.1512,0-3.9162-1.7643-3.9162-3.9158
		V6.2951c0-2.1512,1.765-3.9158,3.9162-3.9158h0.639C37.7982,2.3793,39.5632,4.1439,39.5632,6.2951z"/>
	<path class="st1" d="M38.4703,3.623c1.9501-0.4031,3.8989-0.9578,5.8829-1.1598c2.5546-0.2518,4.4868,1.5467,4.6381,4.0001
		c0.1347,2.3025-1.7145,4.2018-4.2353,4.3362c-3.1936,0.1682-5.3946,2.4202-5.4117,5.6135c-0.0332,3.8316,0,7.6807-0.0166,11.5126
		c-0.0166,2.7563-1.9163,4.5724-4.5379,4.3694c-2.118-0.15-3.7304-1.8983-3.7476-4.1338
		c-0.0173-5.4788-0.0843-7.7315-0.0173-13.2106C31.1264,7.354,38.42,3.8751,38.5202,3.9421
		C38.4876,3.8247,38.4703,3.7239,38.4703,3.623z"/>
	<g>
		<path class="st2" d="M56.0499,12.1946c-1.8313-0.1682-3.1425-0.9747-3.798-2.5881c-0.6722-1.6807-0.4035-3.2775,0.8904-4.5548
			c1.4452-1.4116,2.9414-2.7732,4.4882-4.0671c1.2939-1.0925,2.8227-1.2773,4.3528-0.5043c1.5467,0.773,2.3529,2.0503,2.3529,3.8149
			c0,7.9494,0,15.8992-0.0173,23.8487c0,2.471-1.765,4.2692-4.1511,4.2519c-2.3529-0.0159-4.1179-1.8313-4.1338-4.3189
			c-0.0173-4.8909,0-9.7645,0-14.6554C56.0499,13.0346,56.0499,12.6653,56.0499,12.1946z"/>
		<path class="st4" d="M56.0672,9.9425l-0.0677-5.4456c0-1.7816,0.286-2.2686,1.0935-3.109
			c0.9064-0.9582,1.8977-1.2607,2.2852-1.3446c0.0836-0.0169,0.1685-0.0338,0.2687-0.0338c3.883-0.2014,4.5877,2.8741,4.672,3.4792
			c0.0173,0.0504,0.0173,0.1175,0.0173,0.1682c0.0332,0.6722-0.0504,1.2435-0.1679,1.6804
			c-0.1519,0.5885-0.4884,1.1094-0.9415,1.5295l-3.311,3.0758c-0.0159,0.0166-0.0504,0.0501-0.0677,0.067l-1.3775,1.126
			c-0.0173,0.0169-0.0173,0.0169-0.0332,0.0338c-0.5381,0.4031-1.9501,1.1091-2.3536,0.8904
			C56.0168,11.9928,56.0672,10.5643,56.0672,9.9425z"/>
	</g>
</g>
</svg>
